2_Splited_IO/simulation/sc_fir8_tb.vcd
$date
     Mar 30, 2024       07:01:23
$end

$version
 SystemC 3.0.0_pub_rev_20231124-Accellera --- Mar 26 2024 09:40:07
$end

$timescale
     100 ps
$end

$scope module SystemC $end
$var wire    1  aaaaa  clk       $end
$var wire    4  aaaab  Xin [3:0]  $end
$var wire    4  aaaac  Xout [3:0]  $end
$var wire    4  aaaad  Yin [3:0]  $end
$var wire    4  aaaae  Yout [3:0]  $end
$var wire    1  aaaaf  Rdy       $end
$var wire    1  aaaag  Vld       $end
$upscope $end
$enddefinitions  $end

$comment
All initial values are dumped below at time 0 sec = 0 timescale units.
$end

$dumpvars
0aaaaa
b0 aaaab
b0 aaaac
b0 aaaad
b0 aaaae
0aaaaf
0aaaag
$end

#500
1aaaaa
1aaaaf

#1000
0aaaaa

#1500
1aaaaa
b1001 aaaab
0aaaaf

#2000
0aaaaa

#2500
1aaaaa
b1100 aaaab

#3000
0aaaaa

#3500
1aaaaa
b0 aaaab

#4000
0aaaaa

#4500
1aaaaa

#5000
0aaaaa

#5500
1aaaaa
1aaaaf

#6000
0aaaaa

#6500
1aaaaa
b1111 aaaab
0aaaaf

#7000
0aaaaa

#7500
1aaaaa
b110 aaaab

#8000
0aaaaa

#8500
1aaaaa
b0 aaaab

#9000
0aaaaa

#9500
1aaaaa

#10000
0aaaaa

#10500
1aaaaa
1aaaaf

#11000
0aaaaa

#11500
1aaaaa
0aaaaf

#12000
0aaaaa

#12500
1aaaaa
b1010 aaaab

#13000
0aaaaa

#13500
1aaaaa
b0 aaaab

#14000
0aaaaa

#14500
1aaaaa

#15000
0aaaaa

#15500
1aaaaa
1aaaaf

#16000
0aaaaa

#16500
1aaaaa
b1101 aaaab
0aaaaf

#17000
0aaaaa

#17500
1aaaaa
b11 aaaab

#18000
0aaaaa

#18500
1aaaaa
b0 aaaab

#19000
0aaaaa

#19500
1aaaaa

#20000
0aaaaa

#20500
1aaaaa
1aaaaf

#21000
0aaaaa

#21500
1aaaaa
0aaaaf

#22000
0aaaaa

#22500
1aaaaa
b1010 aaaab

#23000
0aaaaa

#23500
1aaaaa
b0 aaaab

#24000
0aaaaa

#24500
1aaaaa

#25000
0aaaaa

#25500
1aaaaa
1aaaaf

#26000
0aaaaa

#26500
1aaaaa
b1100 aaaab
0aaaaf

#27000
0aaaaa

#27500
1aaaaa
b101 aaaab

#28000
0aaaaa

#28500
1aaaaa
b0 aaaab

#29000
0aaaaa

#29500
1aaaaa

#30000
0aaaaa

#30500
1aaaaa
1aaaaf

#31000
0aaaaa

#31500
1aaaaa
b110 aaaab
0aaaaf

#32000
0aaaaa

#32500
1aaaaa
b1000 aaaab

#33000
0aaaaa

#33500
1aaaaa
b0 aaaab

#34000
0aaaaa

#34500
1aaaaa

#35000
0aaaaa

#35500
1aaaaa
1aaaaf

#36000
0aaaaa

#36500
1aaaaa
b1000 aaaab
0aaaaf

#37000
0aaaaa

#37500
1aaaaa

#38000
0aaaaa

#38500
1aaaaa
b0 aaaab

#39000
0aaaaa

#39500
1aaaaa

#40000
0aaaaa

#40500
1aaaaa
1aaaaf
1aaaag

#41000
0aaaaa

#41500
1aaaaa
b1101 aaaab
b1001 aaaac
0aaaaf
0aaaag

#42000
0aaaaa

#42500
1aaaaa
b10 aaaab
b1100 aaaac

#43000
0aaaaa

#43500
1aaaaa
b0 aaaab
b0 aaaac

#44000
0aaaaa

#44500
1aaaaa

#45000
0aaaaa

#45500
1aaaaa
1aaaaf
1aaaag

#46000
0aaaaa

#46500
1aaaaa
b1111 aaaab
b1111 aaaac
b100 aaaae
0aaaaf
0aaaag

#47000
0aaaaa

#47500
1aaaaa
b1001 aaaab
b110 aaaac
b10 aaaae

#48000
0aaaaa

#48500
1aaaaa
b0 aaaab
b0 aaaac
b11 aaaae

#49000
0aaaaa

#49500
1aaaaa

#50000
0aaaaa
b0 aaaae

#50500
1aaaaa
1aaaaf
1aaaag

#51000
0aaaaa

#51500
1aaaaa
b1011 aaaab
b1000 aaaae
0aaaaf
0aaaag

#52000
0aaaaa

#52500
1aaaaa
b111 aaaab
b1010 aaaac
b10 aaaae

#53000
0aaaaa

#53500
1aaaaa
b0 aaaab
b0 aaaac
b1011 aaaae

#54000
0aaaaa

#54500
1aaaaa

#55000
0aaaaa
b0 aaaae

#55500
1aaaaa
1aaaaf
1aaaag

#56000
0aaaaa

#56500
1aaaaa
b1100 aaaab
b1101 aaaac
b101 aaaae
0aaaaf
0aaaag

#57000
0aaaaa

#57500
1aaaaa
b100 aaaab
b11 aaaac

#58000
0aaaaa

#58500
1aaaaa
b0 aaaab
b0 aaaac
b1011 aaaae

#59000
0aaaaa

#59500
1aaaaa

#60000
0aaaaa
b1 aaaae

#60500
1aaaaa
b0 aaaae
1aaaaf
1aaaag

#61000
0aaaaa

#61500
1aaaaa
b1000 aaaab
b1101 aaaae
0aaaaf
0aaaag

#62000
0aaaaa

#62500
1aaaaa
b1010 aaaab

#63000
0aaaaa
b1010 aaaac
b1111 aaaae

#63500
1aaaaa
b0 aaaab
b0 aaaac
b1101 aaaae

#64000
0aaaaa

#64500
1aaaaa

#65000
0aaaaa
b10 aaaae

#65500
1aaaaa
b0 aaaae
1aaaaf
1aaaag

#66000
0aaaaa

#66500
1aaaaa
b1011 aaaab
b1100 aaaac
b1100 aaaae
0aaaaf
0aaaag

#67000
0aaaaa

#67500
1aaaaa
b111 aaaab
b101 aaaac
b110 aaaae

#68000
0aaaaa

#68500
1aaaaa
b0 aaaab
b0 aaaac
b1110 aaaae

#69000
0aaaaa

#69500
1aaaaa

#70000
0aaaaa
b11 aaaae

#70500
1aaaaa
b0 aaaae
1aaaaf
1aaaag

#71000
0aaaaa

#71500
1aaaaa
b1001 aaaab
b110 aaaac
b100 aaaae
0aaaaf
0aaaag

#72000
0aaaaa

#72500
1aaaaa

#73000
0aaaaa
b1000 aaaac
b1000 aaaae

#73500
1aaaaa
b0 aaaab
b0 aaaac
b110 aaaae

#74000
0aaaaa

#74500
1aaaaa

#75000
0aaaaa
b100 aaaae

#75500
1aaaaa
b0 aaaae
1aaaaf
1aaaag

#76000
0aaaaa

#76500
1aaaaa
b110 aaaab
b1000 aaaac
b101 aaaae
0aaaaf
0aaaag

#77000
0aaaaa

#77500
1aaaaa
b1010 aaaab
b1010 aaaae

#78000
0aaaaa

#78500
1aaaaa
b0 aaaab
b0 aaaac
b111 aaaae

#79000
0aaaaa

#79500
1aaaaa

#80000
0aaaaa
b100 aaaae

#80500
1aaaaa
b0 aaaae
1aaaaf
1aaaag

#81000
0aaaaa

#81500
1aaaaa
b1111 aaaab
b1101 aaaac
b110 aaaae
0aaaaf
0aaaag

#82000
0aaaaa

#82500
1aaaaa
b1010 aaaab
b10 aaaac
b1011 aaaae

#83000
0aaaaa

#83500
1aaaaa
b0 aaaab
b0 aaaac
b110 aaaae

#84000
0aaaaa

#84500
1aaaaa

#85000
0aaaaa
b100 aaaae

#85500
1aaaaa
b0 aaaae
1aaaaf
1aaaag

#86000
0aaaaa

#86500
1aaaaa
b1111 aaaab
b1111 aaaac
b11 aaaae
0aaaaf
0aaaag

#87000
0aaaaa

#87500
1aaaaa
b110 aaaab
b1001 aaaac
b1101 aaaae

#88000
0aaaaa

#88500
1aaaaa
b0 aaaab
b0 aaaac
b100 aaaae

#89000
0aaaaa

#89500
1aaaaa

#90000
0aaaaa

#90500
1aaaaa
b0 aaaae
1aaaaf
1aaaag

#91000
0aaaaa

#91500
1aaaaa
b10 aaaab
b1011 aaaac
0aaaaf
0aaaag

#92000
0aaaaa

#92500
1aaaaa
b1001 aaaab
b111 aaaac
b1110 aaaae

#93000
0aaaaa

#93500
1aaaaa
b0 aaaab
b0 aaaac
b100 aaaae

#94000
0aaaaa

#94500
1aaaaa

#95000
0aaaaa

#95500
1aaaaa
b0 aaaae
1aaaaf
1aaaag

#96000
0aaaaa

#96500
1aaaaa
b1010 aaaab
b1100 aaaac
b1 aaaae
0aaaaf
0aaaag

#97000
0aaaaa

#97500
1aaaaa
b110 aaaab
b100 aaaac

#98000
0aaaaa

#98500
1aaaaa
b0 aaaab
b0 aaaac
b11 aaaae

#99000
0aaaaa

#99500
1aaaaa

#100000
0aaaaa
b100 aaaae

#100500
1aaaaa
b0 aaaae
1aaaaf
1aaaag

#101000
0aaaaa

#101500
1aaaaa
b101 aaaab
b1000 aaaac
b1011 aaaae
0aaaaf
0aaaag

#102000
0aaaaa

#102500
1aaaaa
b1001 aaaab
b1010 aaaac
b110 aaaae

#103000
0aaaaa

#103500
1aaaaa
b0 aaaab
b0 aaaac
b10 aaaae

#104000
0aaaaa

#104500
1aaaaa

#105000
0aaaaa
b100 aaaae

#105500
1aaaaa
b0 aaaae
1aaaaf
1aaaag

#106000
0aaaaa

#106500
1aaaaa
b1101 aaaab
b1011 aaaac
b1011 aaaae
0aaaaf
0aaaag

#107000
0aaaaa

#107500
1aaaaa
b1000 aaaab
b111 aaaac
b100 aaaae

#108000
0aaaaa

#108500
1aaaaa
b0 aaaab
b0 aaaac
b10 aaaae

#109000
0aaaaa

#109500
1aaaaa

#110000
0aaaaa
b100 aaaae

#110500
1aaaaa
b0 aaaae
1aaaaf
1aaaag

#111000
0aaaaa

#111500
1aaaaa
b1010 aaaab
b1001 aaaac
b1001 aaaae
0aaaaf
0aaaag

#112000
0aaaaa

#112500
1aaaaa
b11 aaaab
b1000 aaaae

#113000
0aaaaa

#113500
1aaaaa
b0 aaaab
b0 aaaac
b11 aaaae

#114000
0aaaaa

#114500
1aaaaa

#115000
0aaaaa
b100 aaaae

#115500
1aaaaa
b0 aaaae
1aaaaf
1aaaag

#116000
0aaaaa

#116500
1aaaaa
b111 aaaab
b110 aaaac
b1 aaaae
0aaaaf
0aaaag

#117000
0aaaaa

#117500
1aaaaa

#118000
0aaaaa
b1010 aaaac
b1100 aaaae

#118500
1aaaaa
b0 aaaab
b0 aaaac
b110 aaaae

#119000
0aaaaa

#119500
1aaaaa

#120000
0aaaaa
b100 aaaae

#120500
1aaaaa
b0 aaaae
1aaaaf
1aaaag

#121000
0aaaaa

#121500
1aaaaa
b1100 aaaab
b1111 aaaac
b1010 aaaae
0aaaaf
0aaaag

#122000
0aaaaa

#122500
1aaaaa
b111 aaaab
b1010 aaaac
b101 aaaae

#123000
0aaaaa

#123500
1aaaaa
b0 aaaab
b0 aaaac
b1010 aaaae

#124000
0aaaaa

#124500
1aaaaa

#125000
0aaaaa
b100 aaaae

#125500
1aaaaa
b0 aaaae
1aaaaf
1aaaag

#126000
0aaaaa

#126500
1aaaaa
b1100 aaaab
b1111 aaaac
b111 aaaae
0aaaaf
0aaaag

#127000
0aaaaa

#127500
1aaaaa
b1010 aaaab
b110 aaaac
b1100 aaaae

#128000
0aaaaa

#128500
1aaaaa
b0 aaaab
b0 aaaac
b1111 aaaae

#129000
0aaaaa

#129500
1aaaaa

#130000
0aaaaa
b100 aaaae

#130500
1aaaaa
b0 aaaae
1aaaaf
1aaaag

#131000
0aaaaa

#131500
1aaaaa
b1011 aaaab
b10 aaaac
b10 aaaae
0aaaaf
0aaaag

#132000
0aaaaa

#132500
1aaaaa
b11 aaaab
b1001 aaaac
b1011 aaaae

#133000
0aaaaa

#133500
1aaaaa
b0 aaaab
b0 aaaac
b100 aaaae

#134000
0aaaaa

#134500
1aaaaa

#135000
0aaaaa
b101 aaaae

#135500
1aaaaa
b0 aaaae
1aaaaf
1aaaag

#136000
0aaaaa

#136500
1aaaaa
b1000 aaaab
b1010 aaaac
b100 aaaae
0aaaaf
0aaaag

#137000
0aaaaa

#137500
1aaaaa
b1001 aaaab
b110 aaaac
b0 aaaae

#138000
0aaaaa

#138500
1aaaaa
b0 aaaab
b0 aaaac
b1000 aaaae

#139000
0aaaaa

#139500
1aaaaa

#140000
0aaaaa
b101 aaaae

#140500
1aaaaa
b0 aaaae
1aaaaf
1aaaag

#141000
0aaaaa

#141500
1aaaaa
b1001 aaaab
b101 aaaac
b110 aaaae
0aaaaf
0aaaag

#142000
0aaaaa

#142500
1aaaaa
b101 aaaab
b1001 aaaac
b1111 aaaae

#143000
0aaaaa

#143500
1aaaaa
b0 aaaab
b0 aaaac
b111 aaaae

#144000
0aaaaa

#144500
1aaaaa

#145000
0aaaaa
b101 aaaae

#145500
1aaaaa
b0 aaaae
1aaaaf
1aaaag

#146000
0aaaaa

#146500
1aaaaa
b10 aaaab
b1101 aaaac
b1000 aaaae
0aaaaf
0aaaag

#147000
0aaaaa

#147500
1aaaaa
b111 aaaab
b1000 aaaac
b1101 aaaae

#148000
0aaaaa

#148500
1aaaaa
b0 aaaab
b0 aaaac
b100 aaaae

#149000
0aaaaa

#149500
1aaaaa

#150000
0aaaaa
b101 aaaae

#150500
1aaaaa
b0 aaaae
1aaaaf
1aaaag

#151000
0aaaaa

#151500
1aaaaa
b1 aaaab
b1010 aaaac
b1111 aaaae
0aaaaf
0aaaag

#152000
0aaaaa

#152500
1aaaaa
b110 aaaab
b11 aaaac
b1110 aaaae

#153000
0aaaaa

#153500
1aaaaa
b0 aaaab
b0 aaaac
b0 aaaae

#154000
0aaaaa

#154500
1aaaaa

#155000
0aaaaa
b101 aaaae

#155500
1aaaaa
b0 aaaae
1aaaaf
1aaaag

#156000
0aaaaa

#156500
1aaaaa
b1 aaaab
b111 aaaac
b1100 aaaae
0aaaaf
0aaaag

#157000
0aaaaa

#157500
1aaaaa
b1000 aaaab
b10 aaaae

#158000
0aaaaa

#158500
1aaaaa
b0 aaaab
b0 aaaac
b1101 aaaae

#159000
0aaaaa

#159500
1aaaaa

#160000
0aaaaa
b100 aaaae

#160500
1aaaaa
b0 aaaae
1aaaaf
1aaaag

#161000
0aaaaa

#161500
1aaaaa
b1101 aaaab
b1100 aaaac
b1001 aaaae
0aaaaf
0aaaag

#162000
0aaaaa

#162500
1aaaaa
b100 aaaab
b111 aaaac
b110 aaaae

#163000
0aaaaa

#163500
1aaaaa
b0 aaaab
b0 aaaac
b1010 aaaae

#164000
0aaaaa

#164500
1aaaaa

#165000
0aaaaa
b100 aaaae

#165500
1aaaaa
b0 aaaae
1aaaaf
1aaaag

#166000
0aaaaa

#166500
1aaaaa
b1000 aaaab
b1100 aaaac
0aaaaf
0aaaag

#167000
0aaaaa

#167500
1aaaaa
b1001 aaaab
b1010 aaaac
b1010 aaaae

#168000
0aaaaa

#168500
1aaaaa
b0 aaaab
b0 aaaac
b110 aaaae

#169000
0aaaaa

#169500
1aaaaa

#170000
0aaaaa
b100 aaaae

#170500
1aaaaa
b0 aaaae
1aaaaf
1aaaag

#171000
0aaaaa

#171500
1aaaaa
b1101 aaaab
b1011 aaaac
b1010 aaaae
0aaaaf
0aaaag

#172000
0aaaaa

#172500
1aaaaa
b1010 aaaab
b11 aaaac
b101 aaaae

#173000
0aaaaa

#173500
1aaaaa
b0 aaaab
b0 aaaac
b100 aaaae

#174000
0aaaaa

#174500
1aaaaa

#175000
0aaaaa

#175500
1aaaaa
b0 aaaae
1aaaaf
1aaaag

#176000
0aaaaa

#176500
1aaaaa
b1111 aaaab
b1000 aaaac
b11 aaaae
0aaaaf
0aaaag

#177000
0aaaaa

#177500
1aaaaa
b11 aaaab
b1001 aaaac
b0 aaaae

#178000
0aaaaa

#178500
1aaaaa
b0 aaaab
b0 aaaac
b11 aaaae

#179000
0aaaaa

#179500
1aaaaa

#180000
0aaaaa
b100 aaaae

#180500
1aaaaa
b0 aaaae
1aaaaf
1aaaag

#181000
0aaaaa

#181500
1aaaaa
b1 aaaab
b1001 aaaac
0aaaaf
0aaaag

#182000
0aaaaa

#182500
1aaaaa
b11 aaaab
b101 aaaac
b1101 aaaae

#183000
0aaaaa

#183500
1aaaaa
b0 aaaab
b0 aaaac
b100 aaaae

#184000
0aaaaa

#184500
1aaaaa

#185000
0aaaaa

#185500
1aaaaa
b0 aaaae
1aaaaf
1aaaag

#186000
0aaaaa

#186500
1aaaaa
b100 aaaab
b10 aaaac
b10 aaaae
0aaaaf
0aaaag

#187000
0aaaaa

#187500
1aaaaa
b111 aaaab
b111 aaaac

#188000
0aaaaa

#188500
1aaaaa
b0 aaaab
b0 aaaac
b110 aaaae

#189000
0aaaaa

#189500
1aaaaa

#190000
0aaaaa
b100 aaaae

#190500
1aaaaa
b0 aaaae
1aaaaf
1aaaag

#191000
0aaaaa

#191500
1aaaaa
b1111 aaaab
b1 aaaac
b10 aaaae
0aaaaf
0aaaag

#192000
0aaaaa

#192500
1aaaaa
b101 aaaab
b110 aaaac
b1 aaaae

#193000
0aaaaa

#193500
1aaaaa
b0 aaaab
b0 aaaac
b110 aaaae

#194000
0aaaaa

#194500
1aaaaa

#195000
0aaaaa
b100 aaaae

#195500
1aaaaa
b0 aaaae
1aaaaf
1aaaag

#196000
0aaaaa

#196500
1aaaaa
b111 aaaab
b1 aaaac
b1011 aaaae
0aaaaf
0aaaag

#197000
0aaaaa

#197500
1aaaaa
b11 aaaab
b1000 aaaac
b0 aaaae

#198000
0aaaaa

#198500
1aaaaa
b0 aaaab
b0 aaaac
b100 aaaae

#199000
0aaaaa

#199500
1aaaaa

#200000
0aaaaa

#200500
1aaaaa
b0 aaaae
1aaaaf
1aaaag

#201000
0aaaaa

#201500
1aaaaa
b110 aaaab
b1101 aaaac
b111 aaaae
0aaaaf
0aaaag

#202000
0aaaaa

#202500
1aaaaa
b101 aaaab
b100 aaaac

#203000
0aaaaa

#203500
1aaaaa
b0 aaaab
b0 aaaac
b1 aaaae

#204000
0aaaaa

#204500
1aaaaa

#205000
0aaaaa
b100 aaaae

#205500
1aaaaa
b0 aaaae
1aaaaf
1aaaag

#206000
0aaaaa

#206500
1aaaaa
b1000 aaaab
b1000 aaaac
b1011 aaaae
0aaaaf
0aaaag

#207000
0aaaaa

#207500
1aaaaa

#208000
0aaaaa
b1001 aaaac
b1111 aaaae

#208500
1aaaaa
b0 aaaab
b0 aaaac

#209000
0aaaaa

#209500
1aaaaa

#210000
0aaaaa
b11 aaaae

#210500
1aaaaa
b0 aaaae
1aaaaf
1aaaag

#211000
0aaaaa

#211500
1aaaaa
b1110 aaaab
b1101 aaaac
b1000 aaaae
0aaaaf
0aaaag

#212000
0aaaaa

#212500
1aaaaa
b10 aaaab
b1010 aaaac
b101 aaaae

#213000
0aaaaa

#213500
1aaaaa
b0 aaaab
b0 aaaac
b1111 aaaae

#214000
0aaaaa

#214500
1aaaaa

#215000
0aaaaa
b11 aaaae

#215500
1aaaaa
b0 aaaae
1aaaaf
1aaaag

#216000
0aaaaa

#216500
1aaaaa
b1000 aaaab
b1111 aaaac
b1011 aaaae
0aaaaf
0aaaag

#217000
0aaaaa

#217500
1aaaaa
b100 aaaab
b11 aaaac
b0 aaaae

#218000
0aaaaa

#218500
1aaaaa
b0 aaaab
b0 aaaac
b1 aaaae

#219000
0aaaaa

#219500
1aaaaa

#220000
0aaaaa
b100 aaaae

#220500
1aaaaa
b0 aaaae
1aaaaf
1aaaag

#221000
0aaaaa

#221500
1aaaaa
b1001 aaaab
b1 aaaac
b1 aaaae
0aaaaf
0aaaag

#222000
0aaaaa

#222500
1aaaaa
b1000 aaaab
b11 aaaac
b1000 aaaae

#223000
0aaaaa

#223500
1aaaaa
b0 aaaab
b0 aaaac
b11 aaaae

#224000
0aaaaa

#224500
1aaaaa

#225000
0aaaaa
b100 aaaae

#225500
1aaaaa
b0 aaaae
1aaaaf
1aaaag

#226000
0aaaaa

#226500
1aaaaa
b10 aaaab
b100 aaaac
b100 aaaae
0aaaaf
0aaaag

#227000
0aaaaa

#227500
1aaaaa
b1010 aaaab
b111 aaaac
b1111 aaaae

#228000
0aaaaa

#228500
1aaaaa
b0 aaaab
b0 aaaac
b101 aaaae

#229000
0aaaaa

#229500
1aaaaa

#230000
0aaaaa
b100 aaaae

#230500
1aaaaa
b0 aaaae
1aaaaf
1aaaag

#231000
0aaaaa

#231500
1aaaaa
b10 aaaab
b1111 aaaac
b10 aaaae
0aaaaf
0aaaag

#232000
0aaaaa

#232500
1aaaaa
b11 aaaab
b101 aaaac
b1000 aaaae

#233000
0aaaaa

#233500
1aaaaa
b0 aaaab
b0 aaaac
b100 aaaae

#234000
0aaaaa

#234500
1aaaaa

#235000
0aaaaa

#235500
1aaaaa
b0 aaaae
1aaaaf
1aaaag

#236000
0aaaaa

#236500
1aaaaa
b101 aaaab
b111 aaaac
b101 aaaae
0aaaaf
0aaaag

#237000
0aaaaa

#237500
1aaaaa
b1001 aaaab

#238000
0aaaaa
b11 aaaac
b1000 aaaae

#238500
1aaaaa
b0 aaaab
b0 aaaac
b1111 aaaae

#239000
0aaaaa

#239500
1aaaaa

#240000
0aaaaa
b11 aaaae

#240500
1aaaaa
b0 aaaae
1aaaaf
1aaaag

#241000
0aaaaa

#241500
1aaaaa
b1011 aaaab
b110 aaaac
b1101 aaaae
0aaaaf
0aaaag

#242000
0aaaaa

#242500
1aaaaa
b111 aaaab
b101 aaaac
b1011 aaaae

#243000
0aaaaa

#243500
1aaaaa
b0 aaaab
b0 aaaac
b1000 aaaae

#244000
0aaaaa

#244500
1aaaaa

#245000
0aaaaa
b11 aaaae

#245500
1aaaaa
b0 aaaae
1aaaaf
1aaaag

#246000
0aaaaa

#246500
1aaaaa
b111 aaaab
b1000 aaaac
0aaaaf
0aaaag

#247000
0aaaaa

#247500
1aaaaa
b110 aaaab
b1100 aaaae

#248000
0aaaaa

#248500
1aaaaa
b0 aaaab
b0 aaaac
b11 aaaae

#249000
0aaaaa

#249500
1aaaaa

#250000
0aaaaa

#250500
1aaaaa
b0 aaaae
1aaaaf
1aaaag

#251000
0aaaaa

#251500
1aaaaa
b110 aaaab
b1110 aaaac
b1110 aaaae
0aaaaf
0aaaag

#252000
0aaaaa

#252500
1aaaaa
b111 aaaab
b10 aaaac
b1111 aaaae

#253000
0aaaaa

#253500
1aaaaa
b0 aaaab
b0 aaaac
b1 aaaae

#254000
0aaaaa

#254500
1aaaaa

#255000
0aaaaa
b11 aaaae

#255500
1aaaaa
b0 aaaae
1aaaaf
1aaaag

#256000
0aaaaa

#256500
1aaaaa
b1 aaaab
b1000 aaaac
b110 aaaae
0aaaaf
0aaaag

#257000
0aaaaa

#257500
1aaaaa
b110 aaaab
b100 aaaac
b0 aaaae

#258000
0aaaaa

#258500
1aaaaa
b0 aaaab
b0 aaaac
b10 aaaae

#259000
0aaaaa

#259500
1aaaaa

#260000
0aaaaa
b11 aaaae

#260500
1aaaaa
b0 aaaae
1aaaaf
1aaaag

#261000
0aaaaa

#261500
1aaaaa
b1111 aaaab
b1001 aaaac
b101 aaaae
0aaaaf
0aaaag

#262000
0aaaaa

#262500
1aaaaa
b101 aaaab
b1000 aaaac
b1100 aaaae

#263000
0aaaaa

#263500
1aaaaa
b0 aaaab
b0 aaaac
b10 aaaae

#264000
0aaaaa

#264500
1aaaaa

#265000
0aaaaa
b11 aaaae

#265500
1aaaaa
b0 aaaae
1aaaaf
1aaaag

#266000
0aaaaa

#266500
1aaaaa
b100 aaaab
b10 aaaac
b1 aaaae
0aaaaf
0aaaag

#267000
0aaaaa

#267500
1aaaaa
b111 aaaab
b1010 aaaac
b10 aaaae

#268000
0aaaaa

#268500
1aaaaa
b0 aaaab
b0 aaaac
b11 aaaae

#269000
0aaaaa

#269500
1aaaaa

#270000
0aaaaa

#270500
1aaaaa
b0 aaaae
1aaaaf
1aaaag

#271000
0aaaaa

#271500
1aaaaa
b1000 aaaab
b10 aaaac
b1110 aaaae
0aaaaf
0aaaag

#272000
0aaaaa

#272500
1aaaaa
b1010 aaaab
b11 aaaac
b1001 aaaae

#273000
0aaaaa

#273500
1aaaaa
b0 aaaab
b0 aaaac
b100 aaaae

#274000
0aaaaa

#274500
1aaaaa

#275000
0aaaaa
b11 aaaae

#275500
1aaaaa
b0 aaaae
1aaaaf
1aaaag

#276000
0aaaaa

#276500
1aaaaa
b1110 aaaab
b101 aaaac
b1001 aaaae
0aaaaf
0aaaag

#277000
0aaaaa

#277500
1aaaaa
b111 aaaab
b1001 aaaac

#278000
0aaaaa

#278500
1aaaaa
b0 aaaab
b0 aaaac
b111 aaaae

#279000
0aaaaa

#279500
1aaaaa

#280000
0aaaaa
b11 aaaae

#280500
1aaaaa
b0 aaaae
1aaaaf
1aaaag

#281000
0aaaaa

#281500
1aaaaa
b1011 aaaab
b1011 aaaac
b110 aaaae
0aaaaf
0aaaag

#282000
0aaaaa

#282500
1aaaaa
b100 aaaab
b111 aaaac
b111 aaaae

#283000
0aaaaa

#283500
1aaaaa
b0 aaaab
b0 aaaac
b1100 aaaae

#284000
0aaaaa

#284500
1aaaaa

#285000
0aaaaa
b11 aaaae

#285500
1aaaaa
b0 aaaae
1aaaaf
1aaaag

#286000
0aaaaa

#286500
1aaaaa
b1111 aaaab
b111 aaaac
0aaaaf
0aaaag

#287000
0aaaaa

#287500
1aaaaa
b100 aaaab
b110 aaaac
b1101 aaaae

#288000
0aaaaa

#288500
1aaaaa
b0 aaaab
b0 aaaac
b0 aaaae

#289000
0aaaaa

#289500
1aaaaa

#290000
0aaaaa
b100 aaaae

#290500
1aaaaa
b0 aaaae
1aaaaf
1aaaag

#291000
0aaaaa

#291500
1aaaaa
b10 aaaab
b110 aaaac
b1110 aaaae
0aaaaf
0aaaag

#292000
0aaaaa

#292500
1aaaaa
b1001 aaaab
b111 aaaac
b1000 aaaae

#293000
0aaaaa

#293500
1aaaaa
b0 aaaab
b0 aaaac
b11 aaaae

#294000
0aaaaa

#294500
1aaaaa

#295000
0aaaaa
b100 aaaae

#295500
1aaaaa
b0 aaaae
1aaaaf
1aaaag

#296000
0aaaaa

#296500
1aaaaa
b1100 aaaab
b1 aaaac
b1011 aaaae
0aaaaf
0aaaag

#297000
0aaaaa

#297500
1aaaaa
b110 aaaab
b110 aaaac
b111 aaaae

#298000
0aaaaa

#298500
1aaaaa
b0 aaaab
b0 aaaac
b100 aaaae

#299000
0aaaaa

#299500
1aaaaa

#300000
0aaaaa

#300500
1aaaaa
b0 aaaae
1aaaaf
1aaaag

#301000
0aaaaa

#301500
1aaaaa
b111 aaaab
b1111 aaaac
b1001 aaaae
0aaaaf
0aaaag

#302000
0aaaaa

#302500
1aaaaa
b1000 aaaab
b101 aaaac
b1101 aaaae

#303000
0aaaaa

#303500
1aaaaa
b0 aaaab
b0 aaaac
b11 aaaae

#304000
0aaaaa

#304500
1aaaaa

#305000
0aaaaa
b100 aaaae

#305500
1aaaaa
b0 aaaae
1aaaaf
1aaaag

#306000
0aaaaa

#306500
1aaaaa
b110 aaaab
b100 aaaac
b1111 aaaae
0aaaaf
0aaaag

#307000
0aaaaa

#307500
1aaaaa
b1010 aaaab
b111 aaaac

#308000
0aaaaa

#308500
1aaaaa
b0 aaaab
b0 aaaac
b10 aaaae

#309000
0aaaaa

#309500
1aaaaa

#310000
0aaaaa
b100 aaaae

#310500
1aaaaa
b0 aaaae
1aaaaf
1aaaag

#311000
0aaaaa

#311500
1aaaaa
b10 aaaab
b1000 aaaac
b1110 aaaae
0aaaaf
0aaaag

#312000
0aaaaa

#312500
1aaaaa
b101 aaaab
b1010 aaaac
b1101 aaaae

#313000
0aaaaa

#313500
1aaaaa
b0 aaaab
b0 aaaac
b0 aaaae

#314000
0aaaaa

#314500
1aaaaa

#315000
0aaaaa
b100 aaaae

#315500
1aaaaa
b0 aaaae
1aaaaf
1aaaag

#316000
0aaaaa

#316500
1aaaaa
b101 aaaab
b1110 aaaac
b1100 aaaae
0aaaaf
0aaaag

#317000
0aaaaa

#317500
1aaaaa
b1010 aaaab
b111 aaaac
b0 aaaae

#318000
0aaaaa

#318500
1aaaaa
b0 aaaab
b0 aaaac

#319000
0aaaaa

#319500
1aaaaa

#320000
0aaaaa
b100 aaaae

#320500
1aaaaa
b0 aaaae
1aaaaf
1aaaag

#321000
0aaaaa

#321500
1aaaaa
b1011 aaaac
b10 aaaae
0aaaaf
0aaaag

#322000
0aaaaa

#322500
1aaaaa
b1000 aaaab
b100 aaaac
b1111 aaaae

#323000
0aaaaa

#323500
1aaaaa
b0 aaaab
b0 aaaac
b0 aaaae

#324000
0aaaaa

#324500
1aaaaa

#325000
0aaaaa
b100 aaaae

#325500
1aaaaa
b0 aaaae
1aaaaf
1aaaag

#326000
0aaaaa

#326500
1aaaaa
b11 aaaab
b1111 aaaac
b1111 aaaae
0aaaaf
0aaaag

#327000
0aaaaa

#327500
1aaaaa
b100 aaaab
b100 aaaac
b1 aaaae

#328000
0aaaaa

#328500
1aaaaa
b0 aaaab
b0 aaaac
b100 aaaae

#329000
0aaaaa

#329500
1aaaaa

#330000
0aaaaa

#330500
1aaaaa
b0 aaaae
1aaaaf
1aaaag

#331000
0aaaaa

#331500
1aaaaa
b111 aaaab
b10 aaaac
b1 aaaae
0aaaaf
0aaaag

#332000
0aaaaa

#332500
1aaaaa
b1100 aaaab
b1001 aaaac
b111 aaaae

#333000
0aaaaa

#333500
1aaaaa
b0 aaaab
b0 aaaac
b110 aaaae

#334000
0aaaaa

#334500
1aaaaa

#335000
0aaaaa
b100 aaaae

#335500
1aaaaa
b0 aaaae
1aaaaf
1aaaag

#336000
0aaaaa

#336500
1aaaaa
b1000 aaaab
b1100 aaaac
b111 aaaae
0aaaaf
0aaaag

#337000
0aaaaa

#337500
1aaaaa
b111 aaaab
b110 aaaac
b1010 aaaae

#338000
0aaaaa

#338500
1aaaaa
b0 aaaab
b0 aaaac
b101 aaaae

#339000
0aaaaa

#339500
1aaaaa

#340000
0aaaaa
b100 aaaae

#340500
1aaaaa
b0 aaaae
1aaaaf
1aaaag

#341000
0aaaaa

#341500
1aaaaa
b110 aaaab
b111 aaaac
b101 aaaae
0aaaaf
0aaaag

#342000
0aaaaa

#342500
1aaaaa
b1010 aaaab
b1000 aaaac
b100 aaaae

