2_Splited_IO/simulation/sc_fir8.vcd
$date
     Mar 27, 2024       11:56:15
$end

$version
 SystemC 3.0.0_pub_rev_20231124-Accellera --- Mar 26 2024 09:40:07
$end

$timescale
     100 ps
$end

$scope module SystemC $end
$var wire    4  aaaaa  X_0 [3:0]  $end
$var wire    4  aaaab  Y_0 [3:0]  $end
$var wire    4  aaaac  X_1 [3:0]  $end
$var wire    4  aaaad  Y_1 [3:0]  $end
$var wire    4  aaaae  X_2 [3:0]  $end
$var wire    4  aaaaf  Y_2 [3:0]  $end
$var wire    4  aaaag  X_3 [3:0]  $end
$var wire    4  aaaah  Y_3 [3:0]  $end
$var wire    4  aaaai  X_4 [3:0]  $end
$var wire    4  aaaaj  Y_4 [3:0]  $end
$var wire    4  aaaak  X_5 [3:0]  $end
$var wire    4  aaaal  Y_5 [3:0]  $end
$var wire    4  aaaam  X_6 [3:0]  $end
$var wire    4  aaaan  Y_6 [3:0]  $end
$var wire    4  aaaao  Yout [3:0]  $end
$var wire    4  aaaap  Yin [3:0]  $end
$var wire    4  aaaaq  Xout [3:0]  $end
$var wire    4  aaaar  Xin [3:0]  $end
$var wire    1  aaaas  clk       $end
$upscope $end
$enddefinitions  $end

$comment
All initial values are dumped below at time 0 sec = 0 timescale units.
$end

$dumpvars
b0 aaaaa
b0 aaaab
b0 aaaac
b0 aaaad
b0 aaaae
b0 aaaaf
b0 aaaag
b0 aaaah
b0 aaaai
b0 aaaaj
b0 aaaak
b0 aaaal
b0 aaaam
b0 aaaan
b0 aaaao
b0 aaaap
b0 aaaaq
b0 aaaar
0aaaas
$end

#500
1aaaas

#1000
0aaaas

#1500
1aaaas

#2000
0aaaas

#2500
b1100 aaaar
1aaaas

#3000
0aaaas

#3500
1aaaas

#4000
0aaaas

#4500
b1111 aaaar
1aaaas

#5000
0aaaas

#5500
1aaaas

#6000
0aaaas

#6500
b101 aaaar
1aaaas

#7000
0aaaas

#7500
1aaaas

#8000
b1100 aaaaa
0aaaas

#8500
b1010 aaaar
1aaaas

#9000
0aaaas

#9500
1aaaas

#10000
b1111 aaaaa
0aaaas

#10500
b1011 aaaar
1aaaas

#11000
0aaaas

#11500
1aaaas

#12000
b101 aaaaa
0aaaas

#12500
b11 aaaar
1aaaas

#13000
b1100 aaaac
0aaaas

#13500
1aaaas

#14000
b1010 aaaaa
0aaaas

#14500
b110 aaaar
1aaaas

#15000
b1111 aaaac
0aaaas

#15500
1aaaas

#16000
b1011 aaaaa
0aaaas

#16500
b1111 aaaar
1aaaas

#17000
b101 aaaac
0aaaas

#17500
1aaaas

#18000
b11 aaaaa
b1100 aaaae
0aaaas

#18500
b101 aaaar
1aaaas

#19000
b1010 aaaac
0aaaas

#19500
1aaaas

#20000
b110 aaaaa
b1111 aaaae
0aaaas

#20500
b1111 aaaar
1aaaas

#21000
b1011 aaaac
0aaaas

#21500
1aaaas

#22000
b1111 aaaaa
b101 aaaae
0aaaas

#22500
b101 aaaar
1aaaas

#23000
b11 aaaac
b1100 aaaag
0aaaas

#23500
1aaaas

#24000
b101 aaaaa
b1010 aaaae
b1 aaaaf
0aaaas

#24500
b1111 aaaar
1aaaas

#25000
b110 aaaac
b1111 aaaag
0aaaas

#25500
1aaaas

#26000
b1111 aaaaa
b1011 aaaae
0aaaas

#26500
b1000 aaaar
1aaaas

#27000
b1111 aaaac
b101 aaaag
0aaaas

#27500
1aaaas

#28000
b101 aaaaa
b11 aaaae
b0 aaaaf
b1100 aaaai
0aaaas

#28500
b1100 aaaar
1aaaas

#29000
b101 aaaac
b1010 aaaag
b1 aaaah
0aaaas

#29500
1aaaas

#30000
b1111 aaaaa
b110 aaaae
b1 aaaaf
b1111 aaaai
0aaaas

#30500
b1101 aaaar
1aaaas

#31000
b1111 aaaac
b1011 aaaag
b10 aaaah
0aaaas

#31500
1aaaas

#32000
b1000 aaaaa
b1111 aaaae
b101 aaaai
0aaaas

#32500
b1 aaaar
1aaaas

#33000
b101 aaaac
b11 aaaag
b0 aaaah
b1100 aaaak
0aaaas

#33500
1aaaas

#34000
b1100 aaaaa
b101 aaaae
b0 aaaaf
b1 aaaah
b1010 aaaai
b1 aaaaj
0aaaas

#34500
b1000 aaaar
1aaaas

#35000
b1111 aaaac
b110 aaaag
b10 aaaah
b1111 aaaak
0aaaas

#35500
1aaaas

#36000
b1101 aaaaa
b1111 aaaae
b1011 aaaai
b10 aaaaj
0aaaas

#36500
b101 aaaar
1aaaas

#37000
b1000 aaaac
b1111 aaaag
b101 aaaak
0aaaas

#37500
1aaaas

#38000
b1 aaaaa
b101 aaaae
b1 aaaaf
b1 aaaah
b11 aaaai
b0 aaaaj
b1100 aaaam
0aaaas

#38500
b1001 aaaar
1aaaas

#39000
b1100 aaaac
b101 aaaag
b0 aaaah
b1 aaaaj
b1010 aaaak
b1 aaaal
0aaaas

#39500
1aaaas

#40000
b1000 aaaaa
b1111 aaaae
b0 aaaaf
b1 aaaah
b110 aaaai
b10 aaaaj
b1111 aaaam
0aaaas

#40500
b0 aaaar
1aaaas

#41000
b1101 aaaac
b1111 aaaag
b11 aaaaj
b1011 aaaak
0aaaas

#41500
1aaaas

#42000
b101 aaaaa
b1000 aaaae
b1 aaaaf
b1111 aaaai
b101 aaaam
0aaaas

#42500
b1000 aaaar
1aaaas

#43000
b1 aaaac
b101 aaaag
b11 aaaah
b1 aaaaj
b11 aaaak
b0 aaaal
b1100 aaaaq
0aaaas

#43500
1aaaas

#44000
b1001 aaaaa
b1100 aaaae
b0 aaaaf
b10 aaaah
b101 aaaai
b1 aaaal
b1010 aaaam
0aaaas

#44500
b100 aaaar
1aaaas

#45000
b1000 aaaac
b1111 aaaag
b0 aaaah
b10 aaaaj
b110 aaaak
b10 aaaal
b1111 aaaaq
0aaaas

#45500
1aaaas

#46000
b0 aaaaa
b1101 aaaae
b1 aaaaf
b1111 aaaai
b11 aaaal
b1011 aaaam
0aaaas

#46500
b110 aaaar
1aaaas

#47000
b101 aaaac
b1000 aaaag
b10 aaaah
b1111 aaaak
b101 aaaaq
0aaaas

#47500
1aaaas

#48000
b1000 aaaaa
b1 aaaae
b0 aaaaf
b11 aaaah
b101 aaaai
b11 aaaaj
b1 aaaal
b11 aaaam
0aaaas

#48500
b1000 aaaar
1aaaas

#49000
b1001 aaaac
b1100 aaaag
b1 aaaah
b10 aaaaj
b101 aaaak
b1 aaaan
b1010 aaaaq
0aaaas

#49500
1aaaas

#50000
b100 aaaaa
b1000 aaaae
b1 aaaaf
b0 aaaah
b1111 aaaai
b1 aaaaj
b10 aaaal
b110 aaaam
0aaaas

#50500
b100 aaaar
1aaaas

#51000
b0 aaaac
b1101 aaaag
b10 aaaah
b1111 aaaak
b11 aaaal
b1011 aaaaq
0aaaas

#51500
1aaaas

#52000
b110 aaaaa
b101 aaaae
b11 aaaah
b1000 aaaai
b11 aaaaj
b1111 aaaam
0aaaas

#52500
b1100 aaaar
1aaaas

#53000
b1000 aaaac
b1 aaaag
b10 aaaah
b101 aaaaj
b101 aaaak
b10 aaaal
b0 aaaan
b11 aaaaq
0aaaas

#53500
1aaaas

#54000
b1000 aaaaa
b1001 aaaae
b0 aaaaf
b1 aaaah
b1100 aaaai
b10 aaaaj
b101 aaaam
b1 aaaan
0aaaas

#54500
b101 aaaar
1aaaas

#55000
b100 aaaac
b1000 aaaag
b0 aaaaj
b1111 aaaak
b10 aaaan
b110 aaaaq
0aaaas

#55500
1aaaas

#56000
b100 aaaaa
b0 aaaae
b10 aaaah
b1101 aaaai
b10 aaaaj
b1111 aaaam
b11 aaaan
0aaaas

#56500
b1000 aaaar
1aaaas

#57000
b110 aaaac
b101 aaaag
b100 aaaaj
b1000 aaaak
b11 aaaal
b1111 aaaaq
0aaaas

#57500
1aaaas

#58000
b1100 aaaaa
b1000 aaaae
b1 aaaah
b1 aaaai
b100 aaaal
b101 aaaam
b1 aaaan
0aaaas

#58500
b110 aaaar
1aaaas

#59000
b1000 aaaac
b1001 aaaag
b0 aaaah
b10 aaaaj
b1100 aaaak
b10 aaaal
b1 aaaao
b101 aaaaq
0aaaas

#59500
1aaaas

#60000
b101 aaaaa
b100 aaaae
b1 aaaah
b1000 aaaai
b1 aaaaj
b1 aaaal
b1111 aaaam
b10 aaaan
0aaaas

#60500
b10 aaaar
1aaaas

#61000
b100 aaaac
b0 aaaag
b10 aaaah
b11 aaaaj
b1101 aaaak
b10 aaaal
b11 aaaan
b1111 aaaaq
0aaaas

#61500
1aaaas

#62000
b1000 aaaaa
b110 aaaae
b101 aaaai
b100 aaaaj
b100 aaaal
b1000 aaaam
0aaaas

#62500
b100 aaaar
1aaaas

#63000
b1100 aaaac
b1000 aaaag
b1 aaaah
b1 aaaak
b110 aaaal
b10 aaaan
b0 aaaao
b101 aaaaq
0aaaas

#63500
1aaaas

#64000
b110 aaaaa
b1000 aaaae
b0 aaaah
b1001 aaaai
b1 aaaaj
b11 aaaal
b1100 aaaam
b1 aaaao
0aaaas

#64500
b1011 aaaar
1aaaas

#65000
b101 aaaac
b100 aaaag
b1 aaaah
b1000 aaaak
b1 aaaal
b10 aaaao
b1111 aaaaq
0aaaas

#65500
1aaaas

#66000
b10 aaaaa
b100 aaaae
b0 aaaai
b11 aaaaj
b11 aaaal
b1101 aaaam
b11 aaaao
0aaaas

#66500
b110 aaaar
1aaaas

#67000
b1000 aaaac
b110 aaaag
b0 aaaah
b101 aaaak
b101 aaaal
b11 aaaan
b1000 aaaaq
0aaaas

#67500
1aaaas

#68000
b100 aaaaa
b1100 aaaae
b1000 aaaai
b1 aaaaj
b1 aaaam
b100 aaaan
b1 aaaao
0aaaas

#68500
1aaaas

#69000
b110 aaaac
b1000 aaaag
b1 aaaah
b0 aaaaj
b1001 aaaak
b10 aaaal
b10 aaaan
b1100 aaaaq
0aaaas

#69500
1aaaas

#70000
b1011 aaaaa
b101 aaaae
b100 aaaai
b10 aaaaj
b1 aaaal
b1000 aaaam
b1 aaaan
b10 aaaao
0aaaas

#70500
b1011 aaaar
1aaaas

#71000
b10 aaaac
b100 aaaag
b0 aaaah
b11 aaaaj
b0 aaaak
b11 aaaal
b10 aaaan
b11 aaaao
b1101 aaaaq
0aaaas

#71500
1aaaas

#72000
b110 aaaaa
b1000 aaaae
b110 aaaai
b10 aaaaj
b100 aaaal
b101 aaaam
b100 aaaan
0aaaas

#72500
b100 aaaar
1aaaas

#73000
b100 aaaac
b1100 aaaag
b1 aaaaj
b1000 aaaak
b110 aaaan
b10 aaaao
b1 aaaaq
0aaaas

#73500
1aaaas

#74000
b110 aaaae
b1 aaaaf
b1000 aaaai
b1 aaaal
b1001 aaaam
b11 aaaan
0aaaas

#74500
b1001 aaaar
1aaaas

#75000
b1011 aaaac
b101 aaaag
b1 aaaah
b10 aaaaj
b100 aaaak
b1 aaaan
b1000 aaaaq
0aaaas

#75500
1aaaas

#76000
b1011 aaaaa
b10 aaaae
b0 aaaaf
b100 aaaai
b1 aaaaj
b11 aaaal
b0 aaaam
b11 aaaan
0aaaas

#76500
b101 aaaar
1aaaas

#77000
b110 aaaac
b1000 aaaag
b0 aaaah
b0 aaaaj
b110 aaaak
b101 aaaan
b11 aaaao
b101 aaaaq
0aaaas

#77500
1aaaas

#78000
b100 aaaaa
b100 aaaae
b1100 aaaai
b1 aaaal
b1000 aaaam
b100 aaaao
0aaaas

#78500
b100 aaaar
1aaaas

#79000
b110 aaaag
b1 aaaah
b1 aaaaj
b1000 aaaak
b0 aaaal
b10 aaaan
b10 aaaao
b1001 aaaaq
0aaaas

#79500
1aaaas

#80000
b1001 aaaaa
b1011 aaaae
b101 aaaai
b10 aaaaj
b10 aaaal
b100 aaaam
b1 aaaan
b1 aaaao
0aaaas

#80500
b1 aaaar
1aaaas

#81000
b1011 aaaac
b10 aaaag
b0 aaaah
b1 aaaaj
b100 aaaak
b11 aaaal
b11 aaaan
b10 aaaao
b0 aaaaq
0aaaas

#81500
1aaaas

#82000
b101 aaaaa
b110 aaaae
b1000 aaaai
b0 aaaaj
b10 aaaal
b110 aaaam
b100 aaaan
b100 aaaao
0aaaas

#82500
b1001 aaaar
1aaaas

#83000
b100 aaaac
b100 aaaag
b1 aaaah
b1100 aaaak
b1 aaaal
b110 aaaao
b1000 aaaaq
0aaaas

#83500
1aaaas

#84000
b100 aaaaa
b10 aaaah
b110 aaaai
b1 aaaaj
b1000 aaaam
b1 aaaan
b11 aaaao
0aaaas

#84500
b10 aaaar
1aaaas

#85000
b1001 aaaac
b1011 aaaag
b1 aaaah
b10 aaaaj
b101 aaaak
b10 aaaal
b1 aaaao
b100 aaaaq
0aaaas

#85500
1aaaas

#86000
b1 aaaaa
b1011 aaaae
b1 aaaaf
b0 aaaah
b10 aaaai
b1 aaaaj
b1 aaaal
b100 aaaam
b11 aaaan
b11 aaaao
0aaaas

#86500
b1010 aaaar
1aaaas

#87000
b101 aaaac
b110 aaaag
b0 aaaaj
b1000 aaaak
b0 aaaal
b101 aaaao
b110 aaaaq
0aaaas

#87500
1aaaas

#88000
b1001 aaaaa
b100 aaaae
b0 aaaaf
b100 aaaai
b1 aaaaj
b1100 aaaam
b1 aaaan
0aaaas

#88500
1aaaas

#89000
b100 aaaac
b10 aaaaj
b110 aaaak
b10 aaaal
b0 aaaan
b10 aaaao
b1000 aaaaq
0aaaas

#89500
1aaaas

#90000
b10 aaaaa
b1001 aaaae
b1011 aaaai
b1 aaaaj
b11 aaaal
b101 aaaam
b10 aaaan
b1 aaaao
0aaaas

#90500
b11 aaaar
1aaaas

#91000
b1 aaaac
b1011 aaaag
b1 aaaah
b0 aaaaj
b10 aaaak
b1 aaaal
b11 aaaan
b11 aaaao
b100 aaaaq
0aaaas

#91500
1aaaas

#92000
b1010 aaaaa
b101 aaaae
b1 aaaaf
b110 aaaai
b0 aaaal
b1000 aaaam
b10 aaaan
b100 aaaao
0aaaas

#92500
b1010 aaaar
1aaaas

#93000
b1001 aaaac
b100 aaaag
b0 aaaah
b1 aaaaj
b100 aaaak
b1 aaaan
b1100 aaaaq
0aaaas

#93500
1aaaas

#94000
b100 aaaae
b0 aaaaf
b10 aaaaj
b1 aaaal
b110 aaaam
b1 aaaao
0aaaas

#94500
b111 aaaar
1aaaas

#95000
b10 aaaac
b1001 aaaag
b1 aaaaj
b1011 aaaak
b10 aaaal
b10 aaaan
b101 aaaaq
0aaaas

#95500
1aaaas

#96000
b11 aaaaa
b1 aaaae
b1 aaaah
b1011 aaaai
b1 aaaal
b10 aaaam
b1 aaaan
b11 aaaao
0aaaas

#96500
b10 aaaar
1aaaas

#97000
b1010 aaaac
b101 aaaag
b10 aaaah
b110 aaaak
b0 aaaal
b0 aaaan
b1000 aaaaq
0aaaas

#97500
1aaaas

#98000
b1010 aaaaa
b1001 aaaae
b1 aaaah
b100 aaaai
b0 aaaaj
b1 aaaal
b100 aaaam
b1 aaaao
0aaaas

#98500
b100 aaaar
1aaaas

#99000
b100 aaaag
b0 aaaah
b10 aaaal
b10 aaaan
b0 aaaao
b110 aaaaq
0aaaas

#99500
1aaaas

#100000
b111 aaaaa
b10 aaaae
b1001 aaaai
b1 aaaal
b1011 aaaam
b11 aaaan
b10 aaaao
0aaaas

#100500
b110 aaaar
1aaaas

#101000
b11 aaaac
b1 aaaag
b1 aaaah
b1 aaaaj
b1011 aaaak
b1 aaaan
b11 aaaao
b10 aaaaq
0aaaas

#101500
1aaaas

#102000
b10 aaaaa
b1010 aaaae
b10 aaaah
b101 aaaai
b10 aaaaj
b110 aaaam
b0 aaaan
b10 aaaao
0aaaas

#102500
1aaaas

#103000
b1010 aaaac
b1001 aaaag
b1 aaaah
b1 aaaaj
b100 aaaak
b1 aaaao
b100 aaaaq
0aaaas

#103500
1aaaas

#104000
b100 aaaaa
b0 aaaah
b100 aaaai
b0 aaaaj
b10 aaaal
b1 aaaan
0aaaas

#104500
b1 aaaar
1aaaas

#105000
b111 aaaac
b10 aaaag
b1001 aaaak
b1 aaaal
b10 aaaan
b10 aaaao
b1011 aaaaq
0aaaas

#105500
1aaaas

#106000
b110 aaaaa
b11 aaaae
b1 aaaai
b10 aaaaj
b1011 aaaam
b1 aaaan
b1 aaaao
0aaaas

#106500
b1000 aaaar
1aaaas

#107000
b10 aaaac
b1010 aaaag
b11 aaaaj
b101 aaaak
b10 aaaal
b0 aaaan
b0 aaaao
b110 aaaaq
0aaaas

#107500
1aaaas

#108000
b1010 aaaae
b1001 aaaai
b1 aaaaj
b1 aaaal
b100 aaaam
b1 aaaan
0aaaas

#108500
b101 aaaar
1aaaas

#109000
b100 aaaac
b1 aaaah
b0 aaaaj
b100 aaaak
b0 aaaal
b10 aaaan
b10 aaaao
0aaaas

#109500
1aaaas

#110000
b1 aaaaa
b111 aaaae
b1 aaaaf
b10 aaaai
b1001 aaaam
b1 aaaan
b11 aaaao
0aaaas

#110500
b1000 aaaar
1aaaas

#111000
b110 aaaac
b11 aaaag
b0 aaaah
b1 aaaaj
b1 aaaak
b1 aaaal
b1 aaaao
b1011 aaaaq
0aaaas

#111500
1aaaas

#112000
b1000 aaaaa
b10 aaaae
b0 aaaaf
b1010 aaaai
b10 aaaaj
b10 aaaal
b101 aaaam
b0 aaaao
0aaaas

#112500
b111 aaaar
1aaaas

#113000
b1010 aaaag
b1 aaaah
b1 aaaaj
b1001 aaaak
b1 aaaal
b100 aaaaq
0aaaas

#113500
1aaaas

#114000
b101 aaaaa
b100 aaaae
b0 aaaal
b100 aaaam
b10 aaaan
b1 aaaao
0aaaas

#114500
b1011 aaaar
1aaaas

#115000
b1 aaaac
b111 aaaag
b10 aaaak
b1 aaaan
b10 aaaao
b1001 aaaaq
0aaaas

#115500
1aaaas

#116000
b1000 aaaaa
b110 aaaae
b11 aaaai
b0 aaaaj
b10 aaaal
b1 aaaam
b1 aaaao
0aaaas

#116500
b11 aaaar
1aaaas

#117000
b1000 aaaac
b10 aaaag
b0 aaaah
b1010 aaaak
b11 aaaal
b10 aaaan
b0 aaaao
b101 aaaaq
0aaaas

#117500
1aaaas

#118000
b111 aaaaa
b1010 aaaai
b1 aaaaj
b1 aaaal
b1001 aaaam
b1 aaaan
b1 aaaao
0aaaas

#118500
b101 aaaar
1aaaas

#119000
b101 aaaac
b100 aaaag
b1 aaaah
b10 aaaaj
b0 aaaal
b0 aaaan
b10 aaaao
b100 aaaaq
0aaaas

#119500
1aaaas

#120000
b1011 aaaaa
b1 aaaae
b10 aaaah
b111 aaaai
b10 aaaam
b1 aaaao
0aaaas

#120500
b1111 aaaar
1aaaas

#121000
b1000 aaaac
b110 aaaag
b1 aaaaj
b11 aaaak
b1 aaaal
b1 aaaan
b1 aaaaq
0aaaas

#121500
1aaaas

#122000
b11 aaaaa
b1000 aaaae
b1 aaaah
b10 aaaai
b0 aaaaj
b10 aaaal
b1010 aaaam
b10 aaaan
0aaaas

#122500
b1011 aaaar
1aaaas

#123000
b111 aaaac
b0 aaaah
b1 aaaaj
b1010 aaaak
b1 aaaan
b1001 aaaaq
0aaaas

#123500
1aaaas

#124000
b101 aaaaa
b101 aaaae
b100 aaaai
b10 aaaaj
b0 aaaan
b10 aaaao
0aaaas

#124500
1aaaas

#125000
b1011 aaaac
b1 aaaag
b111 aaaak
b1 aaaao
b10 aaaaq
0aaaas

#125500
1aaaas

#126000
b1111 aaaaa
b1000 aaaae
b110 aaaai
b1 aaaal
b11 aaaam
b10 aaaan
0aaaas

#126500
b110 aaaar
1aaaas

#127000
b11 aaaac
b1000 aaaag
b1 aaaaj
b10 aaaak
b0 aaaal
b11 aaaan
b10 aaaao
b1010 aaaaq
0aaaas

#127500
1aaaas

#128000
b1011 aaaaa
b111 aaaae
b0 aaaaj
b1 aaaal
b1010 aaaam
b1 aaaan
b1 aaaao
0aaaas

#128500
b11 aaaar
1aaaas

#129000
b101 aaaac
b101 aaaag
b1 aaaaj
b100 aaaak
b11 aaaal
b0 aaaan
b0 aaaao
0aaaas

#129500
1aaaas

#130000
b1011 aaaae
b1 aaaai
b10 aaaaj
b111 aaaam
0aaaas

#130500
b1010 aaaar
1aaaas

#131000
b1111 aaaac
b1000 aaaag
b110 aaaak
b1 aaaal
b1 aaaan
b1 aaaao
b11 aaaaq
0aaaas

#131500
1aaaas

#132000
b110 aaaaa
b11 aaaae
b1000 aaaai
b1 aaaaj
b0 aaaal
b10 aaaam
b10 aaaan
b10 aaaao
0aaaas

#132500
b111 aaaar
1aaaas

#133000
b1011 aaaac
b111 aaaag
b1 aaaah
b0 aaaaj
b1 aaaal
b1 aaaao
b1010 aaaaq
0aaaas

#133500
1aaaas

#134000
b11 aaaaa
b101 aaaae
b101 aaaai
b10 aaaal
b100 aaaam
b0 aaaao
0aaaas

#134500
b1000 aaaar
1aaaas

#135000
b1011 aaaag
b0 aaaah
b1 aaaak
b111 aaaaq
0aaaas

#135500
1aaaas

#136000
b1010 aaaaa
b1111 aaaae
b1 aaaaf
b1000 aaaai
b110 aaaam
b1 aaaan
b10 aaaao
0aaaas

#136500
b111 aaaar
1aaaas

#137000
b110 aaaac
b11 aaaag
b1 aaaah
b1000 aaaak
b1 aaaal
b0 aaaan
b11 aaaao
b10 aaaaq
0aaaas

#137500
1aaaas

#138000
b111 aaaaa
b1011 aaaae
b0 aaaaf
b111 aaaai
b1 aaaaj
b0 aaaal
b1 aaaan
b1 aaaao
0aaaas

#138500
b1011 aaaar
1aaaas

#139000
b11 aaaac
b101 aaaag
b0 aaaah
b101 aaaak
b1 aaaal
b11 aaaan
b0 aaaao
b100 aaaaq
0aaaas

#139500
1aaaas

#140000
b1000 aaaaa
b1011 aaaai
b0 aaaaj
b10 aaaal
b1 aaaam
0aaaas

#140500
b101 aaaar
1aaaas

#141000
b1010 aaaac
b1111 aaaag
b1 aaaah
b1000 aaaak
b1 aaaan
b1 aaaao
b110 aaaaq
0aaaas

#141500
1aaaas

#142000
b111 aaaaa
b110 aaaae
b1 aaaaf
b11 aaaai
b1 aaaaj
b1 aaaal
b1000 aaaam
b0 aaaan
b10 aaaao
0aaaas

#142500
b110 aaaar
1aaaas

#143000
b111 aaaac
b1011 aaaag
b0 aaaah
b10 aaaaj
b111 aaaak
b0 aaaal
b1 aaaan
0aaaas

#143500
1aaaas

#144000
b1011 aaaaa
b11 aaaae
b101 aaaai
b101 aaaam
b10 aaaan
0aaaas

#144500
b101 aaaar
1aaaas

#145000
b1000 aaaac
b1 aaaaj
b1011 aaaak
b1 aaaaq
0aaaas

#145500
1aaaas

#146000
b101 aaaaa
b1010 aaaae
b1 aaaah
b1111 aaaai
b1000 aaaam
b1 aaaao
0aaaas

#146500
b11 aaaar
1aaaas

#147000
b111 aaaac
b110 aaaag
b11 aaaah
b10 aaaaj
b11 aaaak
b1 aaaan
b0 aaaao
b1000 aaaaq
0aaaas

#147500
1aaaas

#148000
b110 aaaaa
b111 aaaae
b0 aaaaf
b10 aaaah
b1011 aaaai
b1 aaaaj
b1 aaaal
b111 aaaam
b0 aaaan
b1 aaaao
0aaaas

#148500
b10 aaaar
1aaaas

#149000
b1011 aaaac
b11 aaaag
b1 aaaah
b0 aaaaj
b101 aaaak
b1 aaaan
b11 aaaao
b101 aaaaq
0aaaas

#149500
1aaaas

#150000
b101 aaaaa
b1000 aaaae
b0 aaaal
b1011 aaaam
b10 aaaan
0aaaas

#150500
b1000 aaaar
1aaaas

#151000
b101 aaaac
b1010 aaaag
b1 aaaaj
b1111 aaaak
b1 aaaal
b1 aaaao
b1000 aaaaq
0aaaas

#151500
1aaaas

#152000
b11 aaaaa
b111 aaaae
b10 aaaah
b110 aaaai
b11 aaaaj
b10 aaaal
b11 aaaam
b1 aaaan
b0 aaaao
0aaaas

#152500
b11 aaaar
1aaaas

#153000
b110 aaaac
b111 aaaag
b1 aaaah
b10 aaaaj
b1011 aaaak
b0 aaaan
b1 aaaao
b111 aaaaq
0aaaas

#153500
1aaaas

#154000
b10 aaaaa
b1011 aaaae
b11 aaaai
b1 aaaaj
b101 aaaam
b10 aaaao
0aaaas

#154500
b101 aaaar
1aaaas

#155000
b101 aaaac
b1000 aaaag
b1 aaaal
b1011 aaaaq
0aaaas

#155500
1aaaas

#156000
b1000 aaaaa
b101 aaaae
b1010 aaaai
b10 aaaaj
b1111 aaaam
0aaaas

#156500
b1110 aaaar
1aaaas

#157000
b11 aaaac
b111 aaaag
b10 aaaah
b100 aaaaj
b110 aaaak
b11 aaaal
b1 aaaao
b11 aaaaq
0aaaas

#157500
1aaaas

#158000
b11 aaaaa
b110 aaaae
b1 aaaah
b111 aaaai
b11 aaaaj
b10 aaaal
b1011 aaaam
b1 aaaan
b0 aaaao
0aaaas

#158500
b111 aaaar
1aaaas

#159000
b10 aaaac
b1011 aaaag
b10 aaaaj
b11 aaaak
b1 aaaal
b1 aaaao
b101 aaaaq
0aaaas

#159500
1aaaas

#160000
b101 aaaaa
b101 aaaae
b1 aaaaf
b1000 aaaai
b1 aaaaj
b0 aaaan
b10 aaaao
0aaaas

#160500
b110 aaaar
1aaaas

#161000
b1000 aaaac
b101 aaaag
b1010 aaaak
b10 aaaal
b1 aaaan
b1111 aaaaq
0aaaas

#161500
1aaaas

#162000
b1110 aaaaa
b11 aaaae
b0 aaaaf
b111 aaaai
b11 aaaaj
b100 aaaal
b110 aaaam
b10 aaaan
b1 aaaao
0aaaas

#162500
1aaaas

#163000
b11 aaaac
b110 aaaag
b0 aaaah
b10 aaaaj
b111 aaaak
b10 aaaal
b0 aaaao
b1011 aaaaq
0aaaas

#163500
1aaaas

#164000
b111 aaaaa
b10 aaaae
b1011 aaaai
b1 aaaal
b11 aaaam
0aaaas

#164500
b0 aaaar
1aaaas

#165000
b101 aaaac
b101 aaaag
b1 aaaah
b1000 aaaak
b1 aaaan
0aaaas

#165500
1aaaas

#166000
b110 aaaaa
b1000 aaaae
b101 aaaai
b10 aaaal
b1010 aaaam
0aaaas

#166500
b1001 aaaar
1aaaas

#167000
b1110 aaaac
b11 aaaag
b0 aaaah
b11 aaaaj
b111 aaaak
b101 aaaal
b11 aaaan
b110 aaaaq
0aaaas

#167500
1aaaas

#168000
b11 aaaae
b110 aaaai
b10 aaaaj
b100 aaaal
b111 aaaam
b10 aaaan
b1 aaaao
0aaaas

#168500
b1101 aaaar
1aaaas

#169000
b111 aaaac
b10 aaaag
b1011 aaaak
b10 aaaal
b1 aaaan
b11 aaaaq
0aaaas

#169500
1aaaas

#170000
b0 aaaaa
b101 aaaae
b1 aaaah
b101 aaaai
b1 aaaal
b1000 aaaam
b0 aaaao
0aaaas

#170500
b10 aaaar
1aaaas

#171000
b110 aaaac
b1000 aaaag
b101 aaaak
b10 aaaan
b1 aaaao
b1010 aaaaq
0aaaas

#171500
1aaaas

#172000
b1001 aaaaa
b1110 aaaae
b0 aaaah
b11 aaaai
b1 aaaaj
b11 aaaal
b111 aaaam
b100 aaaan
b10 aaaao
0aaaas

#172500
b1001 aaaar
1aaaas

#173000
b11 aaaag
b0 aaaaj
b110 aaaak
b10 aaaal
b10 aaaan
b111 aaaaq
0aaaas

#173500
1aaaas

#174000
b1101 aaaaa
b111 aaaae
b10 aaaai
b1011 aaaam
b1 aaaan
0aaaas

#174500
b111 aaaar
1aaaas

#175000
b0 aaaac
b101 aaaag
b1 aaaaj
b101 aaaak
b11 aaaal
b1 aaaao
b1000 aaaaq
0aaaas

#175500
1aaaas

#176000
b10 aaaaa
b110 aaaae
b1000 aaaai
b101 aaaam
b10 aaaan
0aaaas

#176500
b1001 aaaar
1aaaas

#177000
b1001 aaaac
b1110 aaaag
b1 aaaah
b0 aaaaj
b11 aaaak
b101 aaaan
b11 aaaao
b111 aaaaq
0aaaas

#177500
1aaaas

#178000
b1001 aaaaa
b1 aaaaf
b11 aaaai
b10 aaaal
b110 aaaam
b100 aaaan
b10 aaaao
0aaaas

#178500
b111 aaaar
1aaaas

#179000
b1101 aaaac
b111 aaaag
b0 aaaah
b10 aaaak
b10 aaaan
b1 aaaao
b1011 aaaaq
0aaaas

#179500
1aaaas

#180000
b111 aaaaa
b0 aaaae
b0 aaaaf
b101 aaaai
b1 aaaaj
b101 aaaam
b1 aaaan
0aaaas

#180500
b1 aaaar
1aaaas

#181000
b10 aaaac
b110 aaaag
b1000 aaaak
b10 aaaao
b101 aaaaq
0aaaas

#181500
1aaaas

#182000
b1001 aaaaa
b1001 aaaae
b1110 aaaai
b1 aaaal
b11 aaaam
b11 aaaan
b100 aaaao
0aaaas

#182500
b111 aaaar
1aaaas

#183000
b1001 aaaac
b1 aaaah
b11 aaaak
b0 aaaal
b10 aaaan
b10 aaaao
b110 aaaaq
0aaaas

#183500
1aaaas

#184000
b111 aaaaa
b1101 aaaae
b111 aaaai
b0 aaaaj
b10 aaaam
b1 aaaao
0aaaas

#184500
b1011 aaaar
1aaaas

#185000
b111 aaaac
b0 aaaag
b101 aaaak
b1 aaaal
b11 aaaan
b101 aaaaq
0aaaas

#185500
1aaaas

#186000
b1 aaaaa
b10 aaaae
b110 aaaai
b1000 aaaam
b10 aaaao
0aaaas

#186500
b111 aaaar
1aaaas

#187000
b1001 aaaac
b1001 aaaag
b0 aaaah
b1 aaaaj
b1110 aaaak
b0 aaaal
b101 aaaao
b11 aaaaq
0aaaas

#187500
1aaaas

#188000
b111 aaaaa
b1001 aaaae
b1 aaaah
b10 aaaaj
b11 aaaam
b10 aaaan
b100 aaaao
0aaaas

#188500
b110 aaaar
1aaaas

#189000
b111 aaaac
b1101 aaaag
b1 aaaaj
b111 aaaak
b10 aaaao
b10 aaaaq
0aaaas

#189500
1aaaas

#190000
b1011 aaaaa
b111 aaaae
b1 aaaaf
b0 aaaah
b0 aaaai
b1 aaaal
b101 aaaam
b1 aaaao
0aaaas

#190500
b101 aaaar
1aaaas

#191000
b1 aaaac
b10 aaaag
b110 aaaak
b1000 aaaaq
0aaaas

