2_Splited_IO/simulation/sc_fir8_tb.vcd
$date
     Mar 27, 2024       11:56:15
$end

$version
 SystemC 3.0.0_pub_rev_20231124-Accellera --- Mar 26 2024 09:40:07
$end

$timescale
     100 ps
$end

$scope module SystemC $end
$var wire    1  aaaaa  clk       $end
$var wire    4  aaaab  Xin [3:0]  $end
$var wire    4  aaaac  Xout [3:0]  $end
$var wire    4  aaaad  Yin [3:0]  $end
$var wire    4  aaaae  Yout [3:0]  $end
$upscope $end
$enddefinitions  $end

$comment
All initial values are dumped below at time 0 sec = 0 timescale units.
$end

$dumpvars
0aaaaa
b0 aaaab
b0 aaaac
b0 aaaad
b0 aaaae
$end

#500
1aaaaa

#1000
0aaaaa

#1500
1aaaaa

#2000
0aaaaa

#2500
1aaaaa
b1100 aaaab

#3000
0aaaaa

#3500
1aaaaa

#4000
0aaaaa

#4500
1aaaaa
b1111 aaaab

#5000
0aaaaa

#5500
1aaaaa

#6000
0aaaaa

#6500
1aaaaa
b101 aaaab

#7000
0aaaaa

#7500
1aaaaa

#8000
0aaaaa

#8500
1aaaaa
b1010 aaaab

#9000
0aaaaa

#9500
1aaaaa

#10000
0aaaaa

#10500
1aaaaa
b1011 aaaab

#11000
0aaaaa

#11500
1aaaaa

#12000
0aaaaa

#12500
1aaaaa
b11 aaaab

#13000
0aaaaa

#13500
1aaaaa

#14000
0aaaaa

#14500
1aaaaa
b110 aaaab

#15000
0aaaaa

#15500
1aaaaa

#16000
0aaaaa

#16500
1aaaaa
b1111 aaaab

#17000
0aaaaa

#17500
1aaaaa

#18000
0aaaaa

#18500
1aaaaa
b101 aaaab

#19000
0aaaaa

#19500
1aaaaa

#20000
0aaaaa

#20500
1aaaaa
b1111 aaaab

#21000
0aaaaa

#21500
1aaaaa

#22000
0aaaaa

#22500
1aaaaa
b101 aaaab

#23000
0aaaaa

#23500
1aaaaa

#24000
0aaaaa

#24500
1aaaaa
b1111 aaaab

#25000
0aaaaa

#25500
1aaaaa

#26000
0aaaaa

#26500
1aaaaa
b1000 aaaab

#27000
0aaaaa

#27500
1aaaaa

#28000
0aaaaa

#28500
1aaaaa
b1100 aaaab

#29000
0aaaaa

#29500
1aaaaa

#30000
0aaaaa

#30500
1aaaaa
b1101 aaaab

#31000
0aaaaa

#31500
1aaaaa

#32000
0aaaaa

#32500
1aaaaa
b1 aaaab

#33000
0aaaaa

#33500
1aaaaa

#34000
0aaaaa

#34500
1aaaaa
b1000 aaaab

#35000
0aaaaa

#35500
1aaaaa

#36000
0aaaaa

#36500
1aaaaa
b101 aaaab

#37000
0aaaaa

#37500
1aaaaa

#38000
0aaaaa

#38500
1aaaaa
b1001 aaaab

#39000
0aaaaa

#39500
1aaaaa

#40000
0aaaaa

#40500
1aaaaa
b0 aaaab

#41000
0aaaaa

#41500
1aaaaa

#42000
0aaaaa

#42500
1aaaaa
b1000 aaaab

#43000
0aaaaa
b1100 aaaac

#43500
1aaaaa

#44000
0aaaaa

#44500
1aaaaa
b100 aaaab

#45000
0aaaaa
b1111 aaaac

#45500
1aaaaa

#46000
0aaaaa

#46500
1aaaaa
b110 aaaab

#47000
0aaaaa
b101 aaaac

#47500
1aaaaa

#48000
0aaaaa

#48500
1aaaaa
b1000 aaaab

#49000
0aaaaa
b1010 aaaac

#49500
1aaaaa

#50000
0aaaaa

#50500
1aaaaa
b100 aaaab

#51000
0aaaaa
b1011 aaaac

#51500
1aaaaa

#52000
0aaaaa

#52500
1aaaaa
b1100 aaaab

#53000
0aaaaa
b11 aaaac

#53500
1aaaaa

#54000
0aaaaa

#54500
1aaaaa
b101 aaaab

#55000
0aaaaa
b110 aaaac

#55500
1aaaaa

#56000
0aaaaa

#56500
1aaaaa
b1000 aaaab

#57000
0aaaaa
b1111 aaaac

#57500
1aaaaa

#58000
0aaaaa

#58500
1aaaaa
b110 aaaab

#59000
0aaaaa
b101 aaaac
b1 aaaae

#59500
1aaaaa

#60000
0aaaaa

#60500
1aaaaa
b10 aaaab

#61000
0aaaaa
b1111 aaaac

#61500
1aaaaa

#62000
0aaaaa

#62500
1aaaaa
b100 aaaab

#63000
0aaaaa
b101 aaaac
b0 aaaae

#63500
1aaaaa

#64000
0aaaaa
b1 aaaae

#64500
1aaaaa
b1011 aaaab

#65000
0aaaaa
b1111 aaaac
b10 aaaae

#65500
1aaaaa

#66000
0aaaaa
b11 aaaae

#66500
1aaaaa
b110 aaaab

#67000
0aaaaa
b1000 aaaac

#67500
1aaaaa

#68000
0aaaaa
b1 aaaae

#68500
1aaaaa

#69000
0aaaaa
b1100 aaaac

#69500
1aaaaa

#70000
0aaaaa
b10 aaaae

#70500
1aaaaa
b1011 aaaab

#71000
0aaaaa
b1101 aaaac
b11 aaaae

#71500
1aaaaa

#72000
0aaaaa

#72500
1aaaaa
b100 aaaab

#73000
0aaaaa
b1 aaaac
b10 aaaae

#73500
1aaaaa

#74000
0aaaaa

#74500
1aaaaa
b1001 aaaab

#75000
0aaaaa
b1000 aaaac

#75500
1aaaaa

#76000
0aaaaa

#76500
1aaaaa
b101 aaaab

#77000
0aaaaa
b101 aaaac
b11 aaaae

#77500
1aaaaa

#78000
0aaaaa
b100 aaaae

#78500
1aaaaa
b100 aaaab

#79000
0aaaaa
b1001 aaaac
b10 aaaae

#79500
1aaaaa

#80000
0aaaaa
b1 aaaae

#80500
1aaaaa
b1 aaaab

#81000
0aaaaa
b0 aaaac
b10 aaaae

#81500
1aaaaa

#82000
0aaaaa
b100 aaaae

#82500
1aaaaa
b1001 aaaab

#83000
0aaaaa
b1000 aaaac
b110 aaaae

#83500
1aaaaa

#84000
0aaaaa
b11 aaaae

#84500
1aaaaa
b10 aaaab

#85000
0aaaaa
b100 aaaac
b1 aaaae

#85500
1aaaaa

#86000
0aaaaa
b11 aaaae

#86500
1aaaaa
b1010 aaaab

#87000
0aaaaa
b110 aaaac
b101 aaaae

#87500
1aaaaa

#88000
0aaaaa

#88500
1aaaaa

#89000
0aaaaa
b1000 aaaac
b10 aaaae

#89500
1aaaaa

#90000
0aaaaa
b1 aaaae

#90500
1aaaaa
b11 aaaab

#91000
0aaaaa
b100 aaaac
b11 aaaae

#91500
1aaaaa

#92000
0aaaaa
b100 aaaae

#92500
1aaaaa
b1010 aaaab

#93000
0aaaaa
b1100 aaaac

#93500
1aaaaa

#94000
0aaaaa
b1 aaaae

#94500
1aaaaa
b111 aaaab

#95000
0aaaaa
b101 aaaac

#95500
1aaaaa

#96000
0aaaaa
b11 aaaae

#96500
1aaaaa
b10 aaaab

#97000
0aaaaa
b1000 aaaac

#97500
1aaaaa

#98000
0aaaaa
b1 aaaae

#98500
1aaaaa
b100 aaaab

#99000
0aaaaa
b110 aaaac
b0 aaaae

#99500
1aaaaa

#100000
0aaaaa
b10 aaaae

#100500
1aaaaa
b110 aaaab

#101000
0aaaaa
b10 aaaac
b11 aaaae

#101500
1aaaaa

#102000
0aaaaa
b10 aaaae

#102500
1aaaaa

#103000
0aaaaa
b100 aaaac
b1 aaaae

#103500
1aaaaa

#104000
0aaaaa

#104500
1aaaaa
b1 aaaab

#105000
0aaaaa
b1011 aaaac
b10 aaaae

#105500
1aaaaa

#106000
0aaaaa
b1 aaaae

#106500
1aaaaa
b1000 aaaab

#107000
0aaaaa
b110 aaaac
b0 aaaae

#107500
1aaaaa

#108000
0aaaaa

#108500
1aaaaa
b101 aaaab

#109000
0aaaaa
b10 aaaae

#109500
1aaaaa

#110000
0aaaaa
b11 aaaae

#110500
1aaaaa
b1000 aaaab

#111000
0aaaaa
b1011 aaaac
b1 aaaae

#111500
1aaaaa

#112000
0aaaaa
b0 aaaae

#112500
1aaaaa
b111 aaaab

#113000
0aaaaa
b100 aaaac

#113500
1aaaaa

#114000
0aaaaa
b1 aaaae

#114500
1aaaaa
b1011 aaaab

#115000
0aaaaa
b1001 aaaac
b10 aaaae

#115500
1aaaaa

#116000
0aaaaa
b1 aaaae

#116500
1aaaaa
b11 aaaab

#117000
0aaaaa
b101 aaaac
b0 aaaae

#117500
1aaaaa

#118000
0aaaaa
b1 aaaae

#118500
1aaaaa
b101 aaaab

#119000
0aaaaa
b100 aaaac
b10 aaaae

#119500
1aaaaa

#120000
0aaaaa
b1 aaaae

#120500
1aaaaa
b1111 aaaab

#121000
0aaaaa
b1 aaaac

#121500
1aaaaa

#122000
0aaaaa

#122500
1aaaaa
b1011 aaaab

#123000
0aaaaa
b1001 aaaac

#123500
1aaaaa

#124000
0aaaaa
b10 aaaae

#124500
1aaaaa

#125000
0aaaaa
b10 aaaac
b1 aaaae

#125500
1aaaaa

#126000
0aaaaa

#126500
1aaaaa
b110 aaaab

#127000
0aaaaa
b1010 aaaac
b10 aaaae

#127500
1aaaaa

#128000
0aaaaa
b1 aaaae

#128500
1aaaaa
b11 aaaab

#129000
0aaaaa
b0 aaaae

#129500
1aaaaa

#130000
0aaaaa

#130500
1aaaaa
b1010 aaaab

#131000
0aaaaa
b11 aaaac
b1 aaaae

#131500
1aaaaa

#132000
0aaaaa
b10 aaaae

#132500
1aaaaa
b111 aaaab

#133000
0aaaaa
b1010 aaaac
b1 aaaae

#133500
1aaaaa

#134000
0aaaaa
b0 aaaae

#134500
1aaaaa
b1000 aaaab

#135000
0aaaaa
b111 aaaac

#135500
1aaaaa

#136000
0aaaaa
b10 aaaae

#136500
1aaaaa
b111 aaaab

#137000
0aaaaa
b10 aaaac
b11 aaaae

#137500
1aaaaa

#138000
0aaaaa
b1 aaaae

#138500
1aaaaa
b1011 aaaab

#139000
0aaaaa
b100 aaaac
b0 aaaae

#139500
1aaaaa

#140000
0aaaaa

#140500
1aaaaa
b101 aaaab

#141000
0aaaaa
b110 aaaac
b1 aaaae

#141500
1aaaaa

#142000
0aaaaa
b10 aaaae

#142500
1aaaaa
b110 aaaab

#143000
0aaaaa

#143500
1aaaaa

#144000
0aaaaa

#144500
1aaaaa
b101 aaaab

#145000
0aaaaa
b1 aaaac

#145500
1aaaaa

#146000
0aaaaa
b1 aaaae

#146500
1aaaaa
b11 aaaab

#147000
0aaaaa
b1000 aaaac
b0 aaaae

#147500
1aaaaa

#148000
0aaaaa
b1 aaaae

#148500
1aaaaa
b10 aaaab

#149000
0aaaaa
b101 aaaac
b11 aaaae

#149500
1aaaaa

#150000
0aaaaa

#150500
1aaaaa
b1000 aaaab

#151000
0aaaaa
b1000 aaaac
b1 aaaae

#151500
1aaaaa

#152000
0aaaaa
b0 aaaae

#152500
1aaaaa
b11 aaaab

#153000
0aaaaa
b111 aaaac
b1 aaaae

#153500
1aaaaa

#154000
0aaaaa
b10 aaaae

#154500
1aaaaa
b101 aaaab

#155000
0aaaaa
b1011 aaaac

#155500
1aaaaa

#156000
0aaaaa

#156500
1aaaaa
b1110 aaaab

#157000
0aaaaa
b11 aaaac
b1 aaaae

#157500
1aaaaa

#158000
0aaaaa
b0 aaaae

#158500
1aaaaa
b111 aaaab

#159000
0aaaaa
b101 aaaac
b1 aaaae

#159500
1aaaaa

#160000
0aaaaa
b10 aaaae

#160500
1aaaaa
b110 aaaab

#161000
0aaaaa
b1111 aaaac

#161500
1aaaaa

#162000
0aaaaa
b1 aaaae

#162500
1aaaaa

#163000
0aaaaa
b1011 aaaac
b0 aaaae

#163500
1aaaaa

#164000
0aaaaa

#164500
1aaaaa
b0 aaaab

#165000
0aaaaa

#165500
1aaaaa

#166000
0aaaaa

#166500
1aaaaa
b1001 aaaab

#167000
0aaaaa
b110 aaaac

#167500
1aaaaa

#168000
0aaaaa
b1 aaaae

#168500
1aaaaa
b1101 aaaab

#169000
0aaaaa
b11 aaaac

#169500
1aaaaa

#170000
0aaaaa
b0 aaaae

#170500
1aaaaa
b10 aaaab

#171000
0aaaaa
b1010 aaaac
b1 aaaae

#171500
1aaaaa

#172000
0aaaaa
b10 aaaae

#172500
1aaaaa
b1001 aaaab

#173000
0aaaaa
b111 aaaac

#173500
1aaaaa

#174000
0aaaaa

#174500
1aaaaa
b111 aaaab

#175000
0aaaaa
b1000 aaaac
b1 aaaae

#175500
1aaaaa

#176000
0aaaaa

#176500
1aaaaa
b1001 aaaab

#177000
0aaaaa
b111 aaaac
b11 aaaae

#177500
1aaaaa

#178000
0aaaaa
b10 aaaae

#178500
1aaaaa
b111 aaaab

#179000
0aaaaa
b1011 aaaac
b1 aaaae

#179500
1aaaaa

#180000
0aaaaa

#180500
1aaaaa
b1 aaaab

#181000
0aaaaa
b101 aaaac
b10 aaaae

#181500
1aaaaa

#182000
0aaaaa
b100 aaaae

#182500
1aaaaa
b111 aaaab

#183000
0aaaaa
b110 aaaac
b10 aaaae

#183500
1aaaaa

#184000
0aaaaa
b1 aaaae

#184500
1aaaaa
b1011 aaaab

#185000
0aaaaa
b101 aaaac

#185500
1aaaaa

#186000
0aaaaa
b10 aaaae

#186500
1aaaaa
b111 aaaab

#187000
0aaaaa
b11 aaaac
b101 aaaae

#187500
1aaaaa

#188000
0aaaaa
b100 aaaae

#188500
1aaaaa
b110 aaaab

#189000
0aaaaa
b10 aaaac
b10 aaaae

#189500
1aaaaa

#190000
0aaaaa
b1 aaaae

#190500
1aaaaa
b101 aaaab

#191000
0aaaaa
b1000 aaaac

#191500
1aaaaa

#192000
0aaaaa
b11 aaaae

#192500
1aaaaa
b1111 aaaab

#193000
0aaaaa
b11 aaaac
b10 aaaae

#193500
1aaaaa

#194000
0aaaaa

#194500
1aaaaa
b1000 aaaab

#195000
0aaaaa
b101 aaaac
b11 aaaae

#195500
1aaaaa

#196000
0aaaaa

#196500
1aaaaa
b1111 aaaab

#197000
0aaaaa
b1110 aaaac

#197500
1aaaaa

#198000
0aaaaa
b10 aaaae

#198500
1aaaaa
b10 aaaab

#199000
0aaaaa
b111 aaaac

#199500
1aaaaa

#200000
0aaaaa

#200500
1aaaaa
b1100 aaaab

#201000
0aaaaa
b110 aaaac

#201500
1aaaaa

#202000
0aaaaa
b1 aaaae

#202500
1aaaaa
b111 aaaab

#203000
0aaaaa
b0 aaaae

#203500
1aaaaa

#204000
0aaaaa

#204500
1aaaaa
b1001 aaaab

#205000
0aaaaa
b0 aaaac
b1 aaaae

#205500
1aaaaa

#206000
0aaaaa

#206500
1aaaaa
b111 aaaab

#207000
0aaaaa
b1001 aaaac
b0 aaaae

#207500
1aaaaa

#208000
0aaaaa

#208500
1aaaaa
b1011 aaaab

#209000
0aaaaa
b1101 aaaac

#209500
1aaaaa

#210000
0aaaaa
b1 aaaae

#210500
1aaaaa
b11 aaaab

#211000
0aaaaa
b10 aaaac

#211500
1aaaaa

#212000
0aaaaa

#212500
1aaaaa
b111 aaaab

#213000
0aaaaa
b1001 aaaac
b10 aaaae

#213500
1aaaaa

#214000
0aaaaa
b1 aaaae

#214500
1aaaaa

#215000
0aaaaa
b111 aaaac
b0 aaaae

#215500
1aaaaa

#216000
0aaaaa

#216500
1aaaaa
b1000 aaaab

#217000
0aaaaa
b1001 aaaac
b1 aaaae

#217500
1aaaaa

#218000
0aaaaa
b10 aaaae

#218500
1aaaaa
b100 aaaab

#219000
0aaaaa
b111 aaaac
b1 aaaae

#219500
1aaaaa

#220000
0aaaaa

#220500
1aaaaa
b1111 aaaab

#221000
0aaaaa
b1 aaaac

#221500
1aaaaa

#222000
0aaaaa
b0 aaaae

#222500
1aaaaa
b1000 aaaab

#223000
0aaaaa
b111 aaaac
b1 aaaae

#223500
1aaaaa

#224000
0aaaaa

#224500
1aaaaa
b1011 aaaab

#225000
0aaaaa
b1011 aaaac
b10 aaaae

#225500
1aaaaa

#226000
0aaaaa

#226500
1aaaaa
b1000 aaaab

#227000
0aaaaa
b111 aaaac
b0 aaaae

#227500
1aaaaa

#228000
0aaaaa
b10 aaaae

#228500
1aaaaa
b1101 aaaab

#229000
0aaaaa
b110 aaaac
b11 aaaae

#229500
1aaaaa

#230000
0aaaaa
b10 aaaae

#230500
1aaaaa
b1001 aaaab

#231000
0aaaaa
b101 aaaac
b1 aaaae

#231500
1aaaaa

#232000
0aaaaa
b0 aaaae

#232500
1aaaaa
b1111 aaaab

#233000
0aaaaa
b1111 aaaac
b1 aaaae

#233500
1aaaaa

#234000
0aaaaa
b10 aaaae

#234500
1aaaaa
b1001 aaaab

#235000
0aaaaa
b1000 aaaac

#235500
1aaaaa

#236000
0aaaaa

#236500
1aaaaa
b1111 aaaab

#237000
0aaaaa
b1111 aaaac
b1 aaaae

#237500
1aaaaa

#238000
0aaaaa

#238500
1aaaaa
b1000 aaaab

#239000
0aaaaa
b10 aaaac
b10 aaaae

#239500
1aaaaa

#240000
0aaaaa
b11 aaaae

#240500
1aaaaa
b1001 aaaab

#241000
0aaaaa
b1100 aaaac
b100 aaaae

#241500
1aaaaa

#242000
0aaaaa
b10 aaaae

#242500
1aaaaa
b100 aaaab

#243000
0aaaaa
b111 aaaac
b1 aaaae

#243500
1aaaaa

#244000
0aaaaa
b10 aaaae

#244500
1aaaaa
b1110 aaaab

#245000
0aaaaa
b1001 aaaac

#245500
1aaaaa

#246000
0aaaaa

#246500
1aaaaa
b1001 aaaab

#247000
0aaaaa
b111 aaaac
b1 aaaae

#247500
1aaaaa

#248000
0aaaaa

#248500
1aaaaa
b1011 aaaab

#249000
0aaaaa
b1011 aaaac
b10 aaaae

#249500
1aaaaa

#250000
0aaaaa
b1 aaaae

#250500
1aaaaa
b110 aaaab

#251000
0aaaaa
b11 aaaac

#251500
1aaaaa

#252000
0aaaaa

#252500
1aaaaa
b1 aaaab

#253000
0aaaaa
b111 aaaac
b10 aaaae

#253500
1aaaaa

#254000
0aaaaa
b100 aaaae

#254500
1aaaaa
b11 aaaab

#255000
0aaaaa
b10 aaaae

#255500
1aaaaa

#256000
0aaaaa

#256500
1aaaaa
b110 aaaab

#257000
0aaaaa
b1000 aaaac
b11 aaaae

#257500
1aaaaa

#258000
0aaaaa

#258500
1aaaaa
b111 aaaab

#259000
0aaaaa
b100 aaaac
b100 aaaae

#259500
1aaaaa

#260000
0aaaaa
b11 aaaae

#260500
1aaaaa
b100 aaaab

#261000
0aaaaa
b1111 aaaac
b10 aaaae

#261500
1aaaaa

#262000
0aaaaa

#262500
1aaaaa
b110 aaaab

#263000
0aaaaa
b1000 aaaac
b11 aaaae

#263500
1aaaaa

#264000
0aaaaa
b100 aaaae

#264500
1aaaaa
b1001 aaaab

#265000
0aaaaa
b1011 aaaac
b11 aaaae

#265500
1aaaaa

#266000
0aaaaa
b10 aaaae

#266500
1aaaaa
b111 aaaab

#267000
0aaaaa
b1000 aaaac

#267500
1aaaaa

#268000
0aaaaa
b11 aaaae

#268500
1aaaaa

#269000
0aaaaa
b1101 aaaac

#269500
1aaaaa

#270000
0aaaaa
b10 aaaae

#270500
1aaaaa
b110 aaaab

#271000
0aaaaa
b1001 aaaac

#271500
1aaaaa

#272000
0aaaaa

#272500
1aaaaa
b1100 aaaab

#273000
0aaaaa
b1111 aaaac

#273500
1aaaaa

#274000
0aaaaa

#274500
1aaaaa
b1101 aaaab

#275000
0aaaaa
b1001 aaaac

#275500
1aaaaa

#276000
0aaaaa

#276500
1aaaaa
b101 aaaab

#277000
0aaaaa
b1111 aaaac

#277500
1aaaaa

#278000
0aaaaa

#278500
1aaaaa
b1000 aaaab

#279000
0aaaaa
b1000 aaaac
b1 aaaae

#279500
1aaaaa

#280000
0aaaaa

#280500
1aaaaa
b111 aaaab

#281000
0aaaaa
b1001 aaaac
b11 aaaae

#281500
1aaaaa

#282000
0aaaaa
b100 aaaae

#282500
1aaaaa
b100 aaaab

#283000
0aaaaa
b100 aaaac

#283500
1aaaaa

#284000
0aaaaa
b11 aaaae

#284500
1aaaaa
b101 aaaab

#285000
0aaaaa
b1110 aaaac
b10 aaaae

#285500
1aaaaa

#286000
0aaaaa

#286500
1aaaaa
b110 aaaab

#287000
0aaaaa
b1001 aaaac
b100 aaaae

#287500
1aaaaa

#288000
0aaaaa

#288500
1aaaaa
b0 aaaab

#289000
0aaaaa
b1011 aaaac
b11 aaaae

#289500
1aaaaa

#290000
0aaaaa

#290500
1aaaaa
b11 aaaab

#291000
0aaaaa
b110 aaaac

#291500
1aaaaa

#292000
0aaaaa
b100 aaaae

#292500
1aaaaa
b111 aaaab

#293000
0aaaaa
b1 aaaac

#293500
1aaaaa

#294000
0aaaaa

#294500
1aaaaa

#295000
0aaaaa
b11 aaaac

#295500
1aaaaa

#296000
0aaaaa

#296500
1aaaaa
b1001 aaaab

#297000
0aaaaa
b110 aaaac

#297500
1aaaaa

#298000
0aaaaa

#298500
1aaaaa

#299000
0aaaaa
b111 aaaac

#299500
1aaaaa

#300000
0aaaaa

#300500
1aaaaa
b11 aaaab

#301000
0aaaaa
b100 aaaac

#301500
1aaaaa

#302000
0aaaaa
b11 aaaae

#302500
1aaaaa
b1101 aaaab

#303000
0aaaaa
b110 aaaac
b100 aaaae

#303500
1aaaaa

#304000
0aaaaa

#304500
1aaaaa
b10 aaaab

#305000
0aaaaa
b1001 aaaac
b11 aaaae

#305500
1aaaaa

#306000
0aaaaa
b100 aaaae

#306500
1aaaaa
b1010 aaaab

#307000
0aaaaa
b111 aaaac
b10 aaaae

#307500
1aaaaa

#308000
0aaaaa
b11 aaaae

#308500
1aaaaa
b1110 aaaab

#309000
0aaaaa
b10 aaaae

#309500
1aaaaa

#310000
0aaaaa
b1 aaaae

#310500
1aaaaa
b101 aaaab

#311000
0aaaaa
b110 aaaac
b10 aaaae

#311500
1aaaaa

#312000
0aaaaa
b1 aaaae

#312500
1aaaaa
b10 aaaab

#313000
0aaaaa
b1100 aaaac

#313500
1aaaaa

#314000
0aaaaa

#314500
1aaaaa
b110 aaaab

#315000
0aaaaa
b1101 aaaac

#315500
1aaaaa

#316000
0aaaaa
b10 aaaae

#316500
1aaaaa
b1011 aaaab

#317000
0aaaaa
b101 aaaac
b1 aaaae

#317500
1aaaaa

#318000
0aaaaa
b0 aaaae

#318500
1aaaaa
b1010 aaaab

#319000
0aaaaa
b1000 aaaac

#319500
1aaaaa

#320000
0aaaaa
b1 aaaae

#320500
1aaaaa
b1111 aaaab

#321000
0aaaaa
b111 aaaac
b10 aaaae

#321500
1aaaaa

#322000
0aaaaa
b1 aaaae

#322500
1aaaaa
b1000 aaaab

#323000
0aaaaa
b100 aaaac
b0 aaaae

#323500
1aaaaa

#324000
0aaaaa

#324500
1aaaaa
b1111 aaaab

#325000
0aaaaa
b101 aaaac

#325500
1aaaaa

#326000
0aaaaa
b1 aaaae

#326500
1aaaaa
b111 aaaab

#327000
0aaaaa
b110 aaaac

#327500
1aaaaa

#328000
0aaaaa

#328500
1aaaaa

#329000
0aaaaa
b0 aaaac
b10 aaaae

#329500
1aaaaa

#330000
0aaaaa
b1 aaaae

#330500
1aaaaa
b1001 aaaab

#331000
0aaaaa
b11 aaaac
b10 aaaae

#331500
1aaaaa

#332000
0aaaaa

#332500
1aaaaa
b1101 aaaab

#333000
0aaaaa
b111 aaaac
b1 aaaae

#333500
1aaaaa

#334000
0aaaaa
b10 aaaae

#334500
1aaaaa
b1001 aaaab

#335000
0aaaaa
b1 aaaae

#335500
1aaaaa

#336000
0aaaaa

#336500
1aaaaa
b110 aaaab

#337000
0aaaaa
b1001 aaaac

#337500
1aaaaa

#338000
0aaaaa
b0 aaaae

#338500
1aaaaa
b100 aaaab

#339000
0aaaaa
b1 aaaae

#339500
1aaaaa

#340000
0aaaaa
b10 aaaae

#340500
1aaaaa
b0 aaaab

#341000
0aaaaa
b11 aaaac

#341500
1aaaaa

#342000
0aaaaa

#342500
1aaaaa
b1010 aaaab

#343000
0aaaaa
b1101 aaaac
b1 aaaae

#343500
1aaaaa

#344000
0aaaaa

#344500
1aaaaa
b100 aaaab

#345000
0aaaaa
b10 aaaac
b10 aaaae

#345500
1aaaaa

#346000
0aaaaa

#346500
1aaaaa
b110 aaaab

#347000
0aaaaa
b1010 aaaac

#347500
1aaaaa

#348000
0aaaaa
b1 aaaae

#348500
1aaaaa
b101 aaaab

#349000
0aaaaa
b1110 aaaac
b0 aaaae

#349500
1aaaaa

#350000
0aaaaa

#350500
1aaaaa
b1010 aaaab

#351000
0aaaaa
b101 aaaac

#351500
1aaaaa

#352000
0aaaaa

#352500
1aaaaa
b1101 aaaab

#353000
0aaaaa
b10 aaaac

#353500
1aaaaa

#354000
0aaaaa

#354500
1aaaaa
b111 aaaab

#355000
0aaaaa
b110 aaaac

#355500
1aaaaa

#356000
0aaaaa

#356500
1aaaaa
b100 aaaab

#357000
0aaaaa
b1011 aaaac

#357500
1aaaaa

#358000
0aaaaa
b1 aaaae

#358500
1aaaaa
b1100 aaaab

#359000
0aaaaa
b1010 aaaac
b10 aaaae

#359500
1aaaaa

#360000
0aaaaa

#360500
1aaaaa
b1011 aaaab

#361000
0aaaaa
b1111 aaaac
b1 aaaae

#361500
1aaaaa

#362000
0aaaaa
b0 aaaae

#362500
1aaaaa
b111 aaaab

#363000
0aaaaa
b1000 aaaac
b1 aaaae

#363500
1aaaaa

#364000
0aaaaa
b11 aaaae

#364500
1aaaaa
b0 aaaab

#365000
0aaaaa
b1111 aaaac

#365500
1aaaaa

#366000
0aaaaa
b10 aaaae

#366500
1aaaaa
b1001 aaaab

#367000
0aaaaa
b111 aaaac
b0 aaaae

#367500
1aaaaa

#368000
0aaaaa
b1 aaaae

#368500
1aaaaa
b110 aaaab

#369000
0aaaaa
b10 aaaae

#369500
1aaaaa

#370000
0aaaaa
b11 aaaae

#370500
1aaaaa

#371000
0aaaaa
b1001 aaaac
b10 aaaae

#371500
1aaaaa

#372000
0aaaaa
b0 aaaae

#372500
1aaaaa

#373000
0aaaaa
b1101 aaaac
b10 aaaae

#373500
1aaaaa

#374000
0aaaaa
b11 aaaae

#374500
1aaaaa
b1100 aaaab

#375000
0aaaaa
b1001 aaaac
b100 aaaae

#375500
1aaaaa

#376000
0aaaaa

#376500
1aaaaa
b1101 aaaab

#377000
0aaaaa
b110 aaaac
b1 aaaae

#377500
1aaaaa

#378000
0aaaaa
b10 aaaae

#378500
1aaaaa
b1000 aaaab

#379000
0aaaaa
b100 aaaac
b1 aaaae

#379500
1aaaaa

#380000
0aaaaa
b10 aaaae

#380500
1aaaaa

#381000
0aaaaa
b0 aaaac
b11 aaaae

#381500
1aaaaa

#382000
0aaaaa

#382500
1aaaaa
b1011 aaaab

#383000
0aaaaa
b1010 aaaac

#383500
1aaaaa

#384000
0aaaaa
b10 aaaae

#384500
1aaaaa
b111 aaaab

#385000
0aaaaa
b100 aaaac

#385500
1aaaaa

#386000
0aaaaa
b11 aaaae

#386500
1aaaaa
b1001 aaaab

#387000
0aaaaa
b110 aaaac
b101 aaaae

#387500
1aaaaa

#388000
0aaaaa

#388500
1aaaaa
b1 aaaab

#389000
0aaaaa
b101 aaaac
b100 aaaae

#389500
1aaaaa

#390000
0aaaaa

#390500
1aaaaa
b1001 aaaab

#391000
0aaaaa
b1010 aaaac
b101 aaaae

#391500
1aaaaa

#392000
0aaaaa

#392500
1aaaaa
b10 aaaab

#393000
0aaaaa
b1101 aaaac
b11 aaaae

#393500
1aaaaa

#394000
0aaaaa
b10 aaaae

#394500
1aaaaa
b1000 aaaab

#395000
0aaaaa
b111 aaaac
b1 aaaae

#395500
1aaaaa

#396000
0aaaaa
b10 aaaae

#396500
1aaaaa
b110 aaaab

#397000
0aaaaa
b100 aaaac
b11 aaaae

#397500
1aaaaa

#398000
0aaaaa
b10 aaaae

#398500
1aaaaa
b101 aaaab

#399000
0aaaaa
b1100 aaaac

#399500
1aaaaa

#400000
0aaaaa

#400500
1aaaaa
b1000 aaaab

#401000
0aaaaa
b1011 aaaac
b1 aaaae

#401500
1aaaaa

#402000
0aaaaa

#402500
1aaaaa
b111 aaaab

#403000
0aaaaa
b111 aaaac
b0 aaaae

#403500
1aaaaa

#404000
0aaaaa
b10 aaaae

#404500
1aaaaa
b1100 aaaab

#405000
0aaaaa
b0 aaaac

#405500
1aaaaa

#406000
0aaaaa
b0 aaaae

#406500
1aaaaa
b1000 aaaab

#407000
0aaaaa
b1001 aaaac
b1 aaaae

#407500
1aaaaa

#408000
0aaaaa

#408500
1aaaaa
b1001 aaaab

#409000
0aaaaa
b110 aaaac
b10 aaaae

#409500
1aaaaa

#410000
0aaaaa

#410500
1aaaaa
b111 aaaab

#411000
0aaaaa
b0 aaaae

#411500
1aaaaa

#412000
0aaaaa
b1 aaaae

#412500
1aaaaa
b1000 aaaab

#413000
0aaaaa

#413500
1aaaaa

#414000
0aaaaa

#414500
1aaaaa
b1010 aaaab

#415000
0aaaaa
b1100 aaaac
b10 aaaae

#415500
1aaaaa

#416000
0aaaaa

#416500
1aaaaa
b10 aaaab

#417000
0aaaaa
b1101 aaaac
b11 aaaae

#417500
1aaaaa

#418000
0aaaaa
b10 aaaae

#418500
1aaaaa
b1010 aaaab

#419000
0aaaaa
b1000 aaaac
b1 aaaae

#419500
1aaaaa

#420000
0aaaaa
b10 aaaae

#420500
1aaaaa
b0 aaaab

#421000
0aaaaa

#421500
1aaaaa

#422000
0aaaaa
b11 aaaae

#422500
1aaaaa
b111 aaaab

#423000
0aaaaa
b1011 aaaac

#423500
1aaaaa

#424000
0aaaaa

#424500
1aaaaa
b1100 aaaab

#425000
0aaaaa
b111 aaaac

#425500
1aaaaa

#426000
0aaaaa
b1 aaaae

#426500
1aaaaa
b111 aaaab

#427000
0aaaaa
b1001 aaaac

#427500
1aaaaa

#428000
0aaaaa
b10 aaaae

#428500
1aaaaa
b1101 aaaab

#429000
0aaaaa
b1 aaaac

#429500
1aaaaa

#430000
0aaaaa

#430500
1aaaaa
b1000 aaaab

#431000
0aaaaa
b1001 aaaac
b11 aaaae

#431500
1aaaaa

#432000
0aaaaa
b10 aaaae

#432500
1aaaaa
b1100 aaaab

#433000
0aaaaa
b10 aaaac
b11 aaaae

#433500
1aaaaa

