1_Parallel_IO/simulation/sc_fir8.vcd
$date
     Mar 26, 2024       18:39:17
$end

$version
 SystemC 3.0.0_pub_rev_20231124-Accellera --- Mar 26 2024 09:40:07
$end

$timescale
     100 ps
$end

$scope module SystemC $end
$var wire    8  aaaaa  X_0 [7:0]  $end
$var wire   16  aaaab  Y_0 [15:0]  $end
$var wire    8  aaaac  X_1 [7:0]  $end
$var wire   16  aaaad  Y_1 [15:0]  $end
$var wire    8  aaaae  X_2 [7:0]  $end
$var wire   16  aaaaf  Y_2 [15:0]  $end
$var wire    8  aaaag  X_3 [7:0]  $end
$var wire   16  aaaah  Y_3 [15:0]  $end
$var wire    8  aaaai  X_4 [7:0]  $end
$var wire   16  aaaaj  Y_4 [15:0]  $end
$var wire    8  aaaak  X_5 [7:0]  $end
$var wire   16  aaaal  Y_5 [15:0]  $end
$var wire    8  aaaam  X_6 [7:0]  $end
$var wire   16  aaaan  Y_6 [15:0]  $end
$var wire   16  aaaao  Yout [15:0]  $end
$var wire   16  aaaap  Yin [15:0]  $end
$var wire    8  aaaaq  Xout [7:0]  $end
$var wire    8  aaaar  Xin [7:0]  $end
$var wire    1  aaaas  clk       $end
$upscope $end
$enddefinitions  $end

$comment
All initial values are dumped below at time 0 sec = 0 timescale units.
$end

$dumpvars
b0 aaaaa
b0 aaaab
b0 aaaac
b0 aaaad
b0 aaaae
b0 aaaaf
b0 aaaag
b0 aaaah
b0 aaaai
b0 aaaaj
b0 aaaak
b0 aaaal
b0 aaaam
b0 aaaan
b0 aaaao
b0 aaaap
b0 aaaaq
b0 aaaar
0aaaas
$end

#500
b11011110 aaaar
1aaaas

#1000
0aaaas

#1500
b11011110 aaaaa
b1111101 aaaar
1aaaas

#2000
0aaaas

#2500
b1111101 aaaaa
b1101111000 aaaab
b11011110 aaaac
b1101010 aaaar
1aaaas

#3000
0aaaas

#3500
b1101010 aaaaa
b111110100 aaaab
b1111101 aaaac
b101001101000 aaaad
b11011110 aaaae
b1101001 aaaar
1aaaas

#4000
0aaaas

#4500
b1101001 aaaaa
b110101000 aaaab
b1101010 aaaac
b100101010100 aaaad
b1111101 aaaae
b1010110101110 aaaaf
b11011110 aaaag
b1111010 aaaar
1aaaas

#5000
0aaaas

#5500
b1111010 aaaaa
b110100100 aaaab
b1101001 aaaac
b11011101100 aaaad
b1101010 aaaae
b1011010011101 aaaaf
b1111101 aaaag
b1110101111100 aaaah
b11011110 aaaai
b1110010 aaaar
1aaaas

#6000
0aaaas

#6500
b1110010 aaaaa
b111101000 aaaab
b1111010 aaaac
b11010010100 aaaad
b1101001 aaaae
b1001110101110 aaaaf
b1101010 aaaag
b10011001001000 aaaah
b1111101 aaaai
b1110101111100 aaaaj
b11011110 aaaak
b1001010 aaaar
1aaaas

#7000
0aaaas

#7500
b1001010 aaaaa
b111001000 aaaab
b1110010 aaaac
b11101011100 aaaad
b1111010 aaaae
b1000100101101 aaaaf
b1101001 aaaag
b10010010110001 aaaah
b1101010 aaaai
b10111000010110 aaaaj
b1111101 aaaak
b1010110101110 aaaal
b11011110 aaaam
b1100111 aaaar
1aaaas

#8000
0aaaas

#8500
b1100111 aaaaa
b100101000 aaaab
b1001010 aaaac
b11101000000 aaaad
b1110010 aaaae
b1001001111110 aaaaf
b1111010 aaaag
b10000110100000 aaaah
b1101001 aaaai
b11010001011100 aaaaj
b1101010 aaaak
b10100110110001 aaaal
b1111101 aaaam
b101001101000 aaaan
b11011110 aaaaq
b10010110 aaaar
1aaaas

#9000
0aaaas

#9500
b10010110 aaaaa
b110011100 aaaab
b1100111 aaaac
b10101000000 aaaad
b1001010 aaaae
b1110010 aaaag
b10000101100001 aaaah
b1111010 aaaai
b11001010100011 aaaaj
b1101001 aaaak
b11100001110000 aaaal
b1101010 aaaam
b1101110001010 aaaan
b1101111000 aaaao
b1111101 aaaaq
b10101011 aaaar
1aaaas

#10000
0aaaas

#10500
b10101011 aaaaa
b1001011000 aaaab
b10010110 aaaac
b10111111100 aaaad
b1100111 aaaae
b111001111010 aaaaf
b1001010 aaaag
b10000110100010 aaaah
b1110010 aaaai
b11000111010100 aaaaj
b1111010 aaaak
b11111010011101 aaaal
b1101001 aaaam
b10111010101001 aaaan
b110001011100 aaaao
b1101010 aaaaq
b10100010 aaaar
1aaaas

#11000
0aaaas

#11500
b10100010 aaaaa
b1010101100 aaaab
b10101011 aaaac
b100010100100 aaaad
b10010110 aaaae
b111101001111 aaaaf
b1100111 aaaag
b1110001010010 aaaah
b1001010 aaaai
b11000010000101 aaaaj
b1110010 aaaak
b11111010001101 aaaal
b1111010 aaaam
b11110101011100 aaaan
b1110100110010 aaaao
b1101001 aaaaq
b1011000 aaaar
1aaaas

#12000
0aaaas

#12500
b1011000 aaaaa
b1010001000 aaaab
b10100010 aaaac
b101001011100 aaaad
b10101011 aaaae
b1010010100010 aaaaf
b10010110 aaaag
b1110000101000 aaaah
b1100111 aaaai
b10101101110110 aaaaj
b1001010 aaaak
b11110011110110 aaaal
b1110010 aaaam
b100010001010101 aaaan
b11000001001101 aaaao
b1111010 aaaaq
b1101111 aaaar
1aaaas

#13000
0aaaas

#13500
b1101111 aaaaa
b101100000 aaaab
b1011000 aaaac
b101001000100 aaaad
b10100010 aaaae
b1100101010111 aaaaf
b10101011 aaaag
b10001100111011 aaaah
b10010110 aaaai
b10101000000000 aaaaj
b1100111 aaaak
b11011110111111 aaaal
b1001010 aaaam
b100001111100101 aaaan
b11111101000100 aaaao
b1110010 aaaaq
b10111010 aaaar
1aaaas

#14000
0aaaas

#14500
b10111010 aaaaa
b110111100 aaaab
b1101111 aaaac
b11010101000 aaaad
b1011000 aaaae
b1101000101110 aaaaf
b10100010 aaaag
b10101101011000 aaaah
b10101011 aaaai
b11000000010100 aaaaj
b10010110 aaaak
b11010110000101 aaaal
b1100111 aaaam
b100000001101110 aaaan
b100011000011101 aaaao
b1001010 aaaaq
b1111011 aaaar
1aaaas

#15000
0aaaas

#15500
b1111011 aaaaa
b1011101000 aaaab
b10111010 aaaac
b11010010100 aaaad
b1101111 aaaae
b1001011011100 aaaaf
b1011000 aaaag
b10111011011011 aaaah
b10100010 aaaai
b11100111110001 aaaaj
b10101011 aaaak
b11100010100110 aaaal
b10010110 aaaam
b11110010010011 aaaan
b100010100001101 aaaao
b1100111 aaaaq
b1110000 aaaar
1aaaas

#16000
0aaaas

#16500
b1110000 aaaaa
b111101100 aaaab
b1111011 aaaac
b101001110100 aaaad
b10111010 aaaae
b1000101111111 aaaaf
b1101111 aaaag
b10010111011110 aaaah
b1011000 aaaai
b100000011011100 aaaaj
b10100010 aaaak
b100000011000111 aaaal
b10101011 aaaam
b11110010001101 aaaan
b100001000001010 aaaao
b10010110 aaaaq
b10110001 aaaar
1aaaas

#17000
0aaaas

#17500
b10110001 aaaaa
b111000000 aaaab
b1110000 aaaac
b100010101100 aaaad
b1111011 aaaae
b1100010111110 aaaaf
b10111010 aaaag
b10000110011010 aaaah
b1101111 aaaai
b11101010001011 aaaaj
b1011000 aaaak
b100100111000011 aaaal
b10100010 aaaam
b100000010101010 aaaan
b11111011101011 aaaao
b10101011 aaaaq
b1001011 aaaar
1aaaas

#18000
0aaaas

#18500
b1001011 aaaaa
b1011000100 aaaab
b10110001 aaaac
b11100101100 aaaad
b1110000 aaaae
b1011001110111 aaaaf
b1111011 aaaag
b10101000110011 aaaah
b10111010 aaaai
b11010010011100 aaaaj
b1101111 aaaak
b100100101110100 aaaal
b1011000 aaaam
b100100001011111 aaaan
b11111100111001 aaaao
b10100010 aaaaq
b11001101 aaaar
1aaaas

#19000
0aaaas

#19500
b11001101 aaaaa
b100101100 aaaab
b1001011 aaaac
b101000001100 aaaad
b10110001 aaaae
b1001110011100 aaaaf
b1110000 aaaag
b10100100010100 aaaah
b1111011 aaaai
b11101001001110 aaaaj
b10111010 aaaak
b100010101100010 aaaal
b1101111 aaaam
b100110111100011 aaaan
b100001100110010 aaaao
b1011000 aaaaq
b1010000 aaaar
1aaaas

#20000
0aaaas

#20500
b1010000 aaaaa
b1100110100 aaaab
b11001101 aaaac
b11001001000 aaaad
b1001011 aaaae
b1100001110101 aaaaf
b10110001 aaaag
b10010101010111 aaaah
b1110000 aaaai
b11101010001001 aaaaj
b1111011 aaaak
b100011011000110 aaaal
b10111010 aaaam
b100111010101000 aaaan
b100100110111111 aaaao
b1101111 aaaaq
b10101001 aaaar
1aaaas

#21000
0aaaas

#21500
b10101001 aaaaa
b101000000 aaaab
b1010000 aaaac
b101011001000 aaaad
b11001101 aaaae
b1000101011111 aaaaf
b1001011 aaaag
b10101100011110 aaaah
b10110001 aaaai
b11011111110100 aaaaj
b1110000 aaaak
b100011001010001 aaaal
b1111011 aaaam
b100111000011010 aaaan
b100111110011111 aaaao
b10111010 aaaaq
b1011011 aaaar
1aaaas

#22000
0aaaas

#22500
b1011011 aaaaa
b1010100100 aaaab
b10101001 aaaac
b11011110100 aaaad
b1010000 aaaae
b1101001001101 aaaaf
b11001101 aaaag
b10001001101011 aaaah
b1001011 aaaai
b11110011011001 aaaaj
b10110001 aaaak
b100010101111001 aaaal
b1110000 aaaam
b100110010001010 aaaan
b101000110010000 aaaao
b1111011 aaaaq
b1110010 aaaar
1aaaas

#23000
0aaaas

#23500
b1110010 aaaaa
b101101100 aaaab
b1011011 aaaac
b100100101100 aaaad
b10101001 aaaae
b1001010011000 aaaaf
b1010000 aaaag
b10110010011001 aaaah
b11001101 aaaai
b11010100010100 aaaaj
b1001011 aaaak
b100100100111101 aaaal
b10110001 aaaam
b100101110010001 aaaan
b101000000000110 aaaao
b1110000 aaaaq
b10000001 aaaar
1aaaas

#24000
0aaaas

#24500
b10000001 aaaaa
b111001000 aaaab
b1110010 aaaac
b11011101000 aaaad
b1011011 aaaae
b1011101110101 aaaaf
b10101001 aaaag
b10010011101101 aaaah
b1010000 aaaai
b11110110100101 aaaaj
b11001101 aaaak
b100010000101100 aaaal
b1001011 aaaam
b100110111000101 aaaan
b100111001001010 aaaao
b10110001 aaaaq
b110111 aaaar
1aaaas

#25000
0aaaas

#25500
b110111 aaaaa
b1000000100 aaaab
b10000001 aaaac
b11011000100 aaaad
b1110010 aaaae
b1001000001111 aaaaf
b1011011 aaaag
b10100100001010 aaaah
b10101001 aaaai
b11011100111001 aaaaj
b1010000 aaaak
b100100100011001 aaaal
b11001101 aaaam
b100110011000001 aaaan
b100111001010101 aaaao
b1001011 aaaaq
b10111111 aaaar
1aaaas

#26000
0aaaas

#26500
b10111111 aaaaa
b11011100 aaaab
b110111 aaaac
b11111010100 aaaad
b10000001 aaaae
b1001000001010 aaaaf
b1110010 aaaag
b10001110001011 aaaah
b1011011 aaaai
b11101101011111 aaaaj
b10101001 aaaak
b100010101110101 aaaal
b1010000 aaaam
b100110111001000 aaaan
b100111011110001 aaaao
b11001101 aaaaq
b1100010 aaaar
1aaaas

#27000
0aaaas

#27500
b1100010 aaaaa
b1011111100 aaaab
b10111111 aaaac
b10010011000 aaaad
b110111 aaaae
b1001101011101 aaaaf
b10000001 aaaag
b10000100110011 aaaah
b1110010 aaaai
b11010100100000 aaaaj
b1011011 aaaak
b100011110111010 aaaal
b10101001 aaaam
b100110011011001 aaaan
b100111111110101 aaaao
b1010000 aaaaq
b10000001 aaaar
1aaaas

#28000
0aaaas

#28500
b10000001 aaaaa
b110001000 aaaab
b1100010 aaaac
b100111010000 aaaad
b10111111 aaaae
b110100110011 aaaaf
b110111 aaaag
b10001100101100 aaaah
b10000001 aaaai
b11001010101111 aaaaj
b1110010 aaaak
b100010001000010 aaaal
b1011011 aaaam
b100110101100001 aaaan
b100111100001000 aaaao
b10101001 aaaaq
b1001011 aaaar
1aaaas

#29000
0aaaas

#29500
b1001011 aaaaa
b1000000100 aaaab
b10000001 aaaac
b11110010100 aaaad
b1100010 aaaae
b1011100111111 aaaaf
b10111111 aaaag
b1101010101011 aaaah
b110111 aaaai
b11001001010101 aaaaj
b10000001 aaaak
b100000001000010 aaaal
b1110010 aaaam
b100101111111110 aaaan
b100111101111101 aaaao
b1011011 aaaaq
b111011 aaaar
1aaaas

#30000
0aaaas

#30500
b111011 aaaaa
b100101100 aaaab
b1001011 aaaac
b10000001 aaaae
b1001101100010 aaaaf
b1100010 aaaag
b10011010010001 aaaah
b10111111 aaaai
b10101001111010 aaaaj
b110111 aaaak
b11111101001000 aaaal
b10000001 aaaam
b100100110011010 aaaan
b100111011001101 aaaao
b1110010 aaaaq
b1010001 aaaar
1aaaas

#31000
0aaaas

#31500
b1010001 aaaaa
b11101100 aaaab
b111011 aaaac
b10110001000 aaaad
b1001011 aaaae
b1010000101101 aaaaf
b10000001 aaaag
b10010001000011 aaaah
b1100010 aaaai
b11010000001001 aaaaj
b10111111 aaaak
b11011110110100 aaaal
b110111 aaaam
b100011001001110 aaaan
b100110111000110 aaaao
b10000001 aaaaq
b101110 aaaar
1aaaas

#32000
0aaaas

#32500
b101110 aaaaa
b101000100 aaaab
b1010001 aaaac
b1111110000 aaaad
b111011 aaaae
b111011100111 aaaaf
b1001011 aaaag
b10010010000100 aaaah
b10000001 aaaai
b11001110010101 aaaaj
b1100010 aaaak
b11110100100001 aaaal
b10111111 aaaam
b100000111011100 aaaan
b100101110011110 aaaao
b110111 aaaaq
b10110100 aaaar
1aaaas

#33000
0aaaas

#33500
b10110100 aaaaa
b10111000 aaaab
b101110 aaaac
b10010111000 aaaad
b1010001 aaaae
b101101001011 aaaaf
b111011 aaaag
b1111000100011 aaaah
b1001011 aaaai
b11010101100101 aaaaj
b10000001 aaaak
b11110110011011 aaaal
b1100010 aaaam
b100000010101000 aaaan
b100011100101010 aaaao
b10111111 aaaaq
b1001001 aaaar
1aaaas

#34000
0aaaas

#34500
b1001001 aaaaa
b1011010000 aaaab
b10110100 aaaac
b1101101100 aaaad
b101110 aaaae
b101111011001 aaaaf
b1010001 aaaag
b1011010111101 aaaah
b111011 aaaai
b10111001111010 aaaaj
b1001011 aaaak
b100000000101110 aaaal
b10000001 aaaam
b100000110111001 aaaan
b100010011011000 aaaao
b1100010 aaaaq
b10000001 aaaar
1aaaas

#35000
0aaaas

#35500
b10000001 aaaaa
b100100100 aaaab
b1001001 aaaac
b100100101000 aaaad
b10110100 aaaae
b100100110110 aaaaf
b101110 aaaag
b1011000001101 aaaah
b1010001 aaaai
b10010111111001 aaaaj
b111011 aaaak
b11110010111000 aaaal
b1001011 aaaam
b100001110100111 aaaan
b100001000110000 aaaao
b10000001 aaaaq
b1110001 aaaar
1aaaas

#36000
0aaaas

#36500
b1110001 aaaaa
b1000000100 aaaab
b10000001 aaaac
b11000111100 aaaad
b1001001 aaaae
b1010100000000 aaaaf
b10110100 aaaag
b1000111110101 aaaah
b101110 aaaai
b10000101111111 aaaaj
b1010001 aaaak
b11010000111101 aaaal
b111011 aaaam
b100001110110010 aaaan
b100001110111101 aaaao
b1001011 aaaaq
b1111011 aaaar
1aaaas

#37000
0aaaas

#37500
b1111011 aaaaa
b111000100 aaaab
b1110001 aaaac
b11100110000 aaaad
b10000001 aaaae
b1000001001001 aaaaf
b1001001 aaaag
b10000100011110 aaaah
b10110100 aaaai
b1110000101001 aaaaj
b101110 aaaak
b10110111100010 aaaal
b1010001 aaaam
b11111101111100 aaaan
b100010011010011 aaaao
b111011 aaaaq
b10001101 aaaar
1aaaas

#38000
0aaaas

#38500
b10001101 aaaaa
b111101100 aaaab
b1111011 aaaac
b11101010000 aaaad
b1110001 aaaae
b1001011010101 aaaaf
b10000001 aaaag
b1111010110010 aaaah
b1001001 aaaai
b10100111011101 aaaaj
b10110100 aaaak
b10010111111101 aaaal
b101110 aaaam
b11100000001001 aaaan
b100010010011110 aaaao
b1010001 aaaaq
b10001010 aaaar
1aaaas

#39000
0aaaas

#39500
b10001010 aaaaa
b1000110100 aaaab
b10001101 aaaac
b11110001000 aaaad
b1111011 aaaae
b1001000111001 aaaaf
b1110001 aaaag
b10000101101011 aaaah
b10000001 aaaai
b10101011010000 aaaaj
b1001001 aaaak
b10110110111101 aaaal
b10110100 aaaam
b11000000001010 aaaan
b100000011000000 aaaao
b101110 aaaaq
b1101001 aaaar
1aaaas

#40000
0aaaas

#40500
b1101001 aaaaa
b1000101000 aaaab
b10001010 aaaac
b100010001000 aaaad
b10001101 aaaae
b1001101010011 aaaaf
b1111011 aaaag
b10000111010111 aaaah
b1110001 aaaai
b10111111010100 aaaaj
b10000001 aaaak
b11000011111110 aaaal
b1001001 aaaam
b10111001101101 aaaan
b11100011000001 aaaao
b10110100 aaaaq
b1111010 aaaar
1aaaas

#41000
0aaaas

#41500
b1111010 aaaaa
b110100100 aaaab
b1101001 aaaac
b100010101100 aaaad
b10001010 aaaae
b1010101001101 aaaaf
b10001101 aaaag
b10001010001111 aaaah
b1111011 aaaai
b11000001101101 aaaaj
b1110001 aaaak
b11011101101001 aaaal
b10000001 aaaam
b11000100101001 aaaan
b11001011011010 aaaao
b1001001 aaaaq
b1101101 aaaar
1aaaas

#42000
0aaaas

#42500
b1101101 aaaaa
b111101000 aaaab
b1111010 aaaac
b11100010100 aaaad
b1101001 aaaae
b1011000000010 aaaaf
b10001010 aaaag
b10011000001101 aaaah
b10001101 aaaai
b11001000101101 aaaaj
b1111011 aaaak
b11101011011101 aaaal
b1110001 aaaam
b11011100001010 aaaan
b10111110010001 aaaao
b10000001 aaaaq
b1101111 aaaar
1aaaas

#43000
0aaaas

#43500
b1101111 aaaaa
b110110100 aaaab
b1101101 aaaac
b11101011100 aaaad
b1111010 aaaae
b1001011101101 aaaaf
b1101001 aaaag
b10011110100001 aaaah
b10001010 aaaai
b11010101001001 aaaaj
b10001101 aaaak
b11110001110000 aaaal
b1111011 aaaam
b11110010110101 aaaan
b11001100101101 aaaao
b1110001 aaaaq
b1000000 aaaar
1aaaas

#44000
0aaaas

#44500
b1000000 aaaaa
b110111100 aaaab
b1101111 aaaac
b11100000100 aaaad
b1101101 aaaae
b1001011111110 aaaaf
b1111010 aaaag
b10001111110100 aaaah
b1101001 aaaai
b11100001100001 aaaaj
b10001010 aaaak
b11111111110010 aaaal
b10001101 aaaam
b100000010100001 aaaan
b11100011001110 aaaao
b1111011 aaaaq
b111001 aaaar
1aaaas

#45000
0aaaas

#45500
b111001 aaaaa
b100000000 aaaab
b1000000 aaaac
b11011101000 aaaad
b1101111 aaaae
b1001000000001 aaaaf
b1101101 aaaag
b10001100100001 aaaah
b1111010 aaaai
b11010110010011 aaaaj
b1101001 aaaak
b100001011000011 aaaal
b10001010 aaaam
b100001100001100 aaaan
b11111010100001 aaaao
b10001101 aaaaq
b1100111 aaaar
1aaaas

#46000
0aaaas

#46500
b1100111 aaaaa
b11100100 aaaab
b111001 aaaac
b10010111100 aaaad
b1000000 aaaae
b1000111011011 aaaaf
b1101111 aaaag
b10000101111000 aaaah
b1101101 aaaai
b11010000101000 aaaaj
b1111010 aaaak
b100001010100010 aaaal
b1101001 aaaam
b100011001101010 aaaan
b100001011010101 aaaao
b10001010 aaaaq
b1110110 aaaar
1aaaas

#47000
0aaaas

#47500
b1110110 aaaaa
b110011100 aaaab
b1100111 aaaac
b1110101100 aaaad
b111001 aaaae
b110100101000 aaaaf
b1000000 aaaag
b10000010111111 aaaah
b1101111 aaaai
b11000110011011 aaaaj
b1101101 aaaak
b100000101111101 aaaal
b1111010 aaaam
b100011110101111 aaaan
b100010100110100 aaaao
b1101001 aaaaq
b1001001 aaaar
1aaaas

#48000
0aaaas

#48500
b1001001 aaaaa
b111011000 aaaab
b1110110 aaaac
b10110111000 aaaad
b1100111 aaaae
b101001001101 aaaaf
b111001 aaaag
b1101001011011 aaaah
b1000000 aaaai
b11000000110110 aaaaj
b1101111 aaaak
b11111011001101 aaaal
b1101101 aaaam
b100100001011010 aaaan
b100100000001110 aaaao
b1111010 aaaaq
b10010000 aaaar
1aaaas

#49000
0aaaas

#49500
b10010000 aaaaa
b100100100 aaaab
b1001001 aaaac
b11100100100 aaaad
b1110110 aaaae
b110110111011 aaaaf
b1100111 aaaag
b1010010111010 aaaah
b111001 aaaai
b10100100111111 aaaaj
b1000000 aaaak
b11110001110010 aaaal
b1101111 aaaam
b100011010011001 aaaan
b100100110010111 aaaao
b1101101 aaaaq
b1010100 aaaar
1aaaas

#50000
0aaaas

#50500
b1010100 aaaaa
b1001000000 aaaab
b10010000 aaaac
b10101000100 aaaad
b1001001 aaaae
b1000100111110 aaaaf
b1110110 aaaag
b1011111111011 aaaah
b1100111 aaaai
b10000111101101 aaaaj
b111001 aaaak
b11011001110110 aaaal
b1000000 aaaam
b100010000000001 aaaan
b100101000001110 aaaao
b1101111 aaaaq
b1110001 aaaar
1aaaas

#51000
0aaaas

#51500
b1110001 aaaaa
b101010000 aaaab
b1010100 aaaac
b11111100100 aaaad
b10010000 aaaae
b111001000101 aaaaf
b1001001 aaaag
b1110101100111 aaaah
b1110110 aaaai
b10001001101000 aaaaj
b1100111 aaaak
b10111011010000 aaaal
b111001 aaaam
b11111101110010 aaaan
b100100001010101 aaaao
b1000000 aaaaq
b10010000 aaaar
1aaaas

#52000
0aaaas

#52500
b10010000 aaaaa
b111000100 aaaab
b1110001 aaaac
b11000110000 aaaad
b1010100 aaaae
b1001101010100 aaaaf
b10010000 aaaag
b1101011110000 aaaah
b1001001 aaaai
b10011110100111 aaaaj
b1110110 aaaak
b10101111111100 aaaal
b1100111 aaaam
b11100100100010 aaaan
b100010100000001 aaaao
b111001 aaaaq
b10011000 aaaar
1aaaas

#53000
0aaaas

#53500
b10011000 aaaaa
b1001000000 aaaab
b10010000 aaaac
b11010011100 aaaad
b1110001 aaaae
b1000000011000 aaaaf
b1010100 aaaag
b10000101100101 aaaah
b10010000 aaaai
b10011100011001 aaaaj
b1001001 aaaak
b10110111101110 aaaal
b1110110 aaaam
b11001110100100 aaaan
b100000001010110 aaaao
b1100111 aaaaq
b111001 aaaar
1aaaas

#54000
0aaaas

#54500
b111001 aaaaa
b1001100000 aaaab
b10011000 aaaac
b100010000100 aaaad
b10010000 aaaae
b1000100111001 aaaaf
b1110001 aaaag
b1111001111100 aaaah
b1010100 aaaai
b10111000010000 aaaaj
b10010000 aaaak
b10111011001000 aaaal
b1001001 aaaam
b11000110000100 aaaan
b11101010111110 aaaao
b1110110 aaaaq
b1100111 aaaar
1aaaas

#55000
0aaaas

#55500
b1100111 aaaaa
b11100100 aaaab
b111001 aaaac
b100101100000 aaaad
b10011000 aaaae
b1010010101100 aaaaf
b10010000 aaaag
b1111100011010 aaaah
b1110001 aaaai
b10110010001101 aaaaj
b1010100 aaaak
b11010100101001 aaaal
b10010000 aaaam
b11000101011010 aaaan
b11010101111100 aaaao
b1001001 aaaaq
b1100011 aaaar
1aaaas

#56000
0aaaas

#56500
b1100011 aaaaa
b110011100 aaaab
b1100111 aaaac
b10100001100 aaaad
b111001 aaaae
b1011101011100 aaaaf
b10011000 aaaag
b10010001011001 aaaah
b10010000 aaaai
b10110101111110 aaaaj
b1110001 aaaak
b11011001000100 aaaal
b1010100 aaaam
b11010110001000 aaaan
b11001010101000 aaaao
b10010000 aaaaq
b10100000 aaaar
1aaaas

#57000
0aaaas

#57500
b10100000 aaaaa
b110001100 aaaab
b1100011 aaaac
b10110111000 aaaad
b1100111 aaaae
b111011110001 aaaaf
b111001 aaaag
b10100011011100 aaaah
b10011000 aaaai
b11001000111010 aaaaj
b10010000 aaaak
b11011110010110 aaaal
b1110001 aaaam
b11100100011001 aaaan
b11001110011010 aaaao
b1010100 aaaaq
b10101010 aaaar
1aaaas

#58000
0aaaas

#58500
b10101010 aaaaa
b1010000000 aaaab
b10100000 aaaac
b11001000000 aaaad
b1100011 aaaae
b111100011011 aaaaf
b1100111 aaaag
b1111011101110 aaaah
b111001 aaaai
b11100010001001 aaaaj
b10011000 aaaak
b11101110001110 aaaal
b10010000 aaaam
b11101110010000 aaaan
b11011011011000 aaaao
b1110001 aaaaq
b1101100 aaaar
1aaaas

#59000
0aaaas

#59500
b1101100 aaaaa
b1010101000 aaaab
b10101010 aaaac
b100100001100 aaaad
b10100000 aaaae
b111101100011 aaaaf
b1100011 aaaag
b1110010011111 aaaah
b1100111 aaaai
b11000001101110 aaaaj
b111001 aaaak
b100000100010010 aaaal
b10011000 aaaam
b11111001010110 aaaan
b11101011011101 aaaao
b10010000 aaaaq
b1000001 aaaar
1aaaas

#60000
0aaaas

#60500
b1000001 aaaaa
b110110000 aaaab
b1101100 aaaac
b101001111000 aaaad
b10101010 aaaae
b1010111100000 aaaaf
b10100000 aaaag
b1110001000001 aaaah
b1100011 aaaai
b10110010011100 aaaaj
b1100111 aaaak
b11111000011010 aaaal
b111001 aaaam
b100001010101110 aaaan
b11110111010000 aaaao
b10011000 aaaaq
b1001000 aaaar
1aaaas

#61000
0aaaas

#61500
b1001000 aaaaa
b100000100 aaaab
b1000001 aaaac
b11110111000 aaaad
b1101100 aaaae
b1100110100110 aaaaf
b10101010 aaaag
b10010010100011 aaaah
b10100000 aaaai
b10100111000101 aaaaj
b1100011 aaaak
b11101001111101 aaaal
b1100111 aaaam
b100001110111110 aaaan
b100000010110110 aaaao
b111001 aaaaq
b1110011 aaaar
1aaaas

#62000
0aaaas

#62500
b1110011 aaaaa
b100100000 aaaab
b1001000 aaaac
b10010111100 aaaad
b1000001 aaaae
b1010100000100 aaaaf
b1101100 aaaag
b10110001110100 aaaah
b10101010 aaaai
b11000110000001 aaaaj
b10100000 aaaak
b11011001000111 aaaal
b1100011 aaaam
b100001011101110 aaaan
b100001110010010 aaaao
b1100111 aaaaq
b1010010 aaaar
1aaaas

#63000
0aaaas

#63500
b1010010 aaaaa
b111001100 aaaab
b1110011 aaaac
b10001100100 aaaad
b1001000 aaaae
b111000010001 aaaaf
b1000001 aaaag
b10011111111110 aaaah
b1101100 aaaai
b11101100110111 aaaaj
b10101010 aaaak
b11100101100101 aaaal
b10100000 aaaam
b11111100100001 aaaan
b100010101011010 aaaao
b1100011 aaaaq
b111110 aaaar
1aaaas

#64000
0aaaas

#64500
b111110 aaaaa
b101001000 aaaab
b1010010 aaaac
b11010000100 aaaad
b1110011 aaaae
b101111000100 aaaaf
b1001000 aaaag
b1110110100110 aaaah
b1000001 aaaai
b11101011001100 aaaaj
b1101100 aaaak
b100001000011011 aaaal
b10101010 aaaam
b11110111000111 aaaan
b100010001111010 aaaao
b10100000 aaaaq
b1110001 aaaar
1aaaas

#65000
0aaaas

#65500
b1110001 aaaaa
b11111000 aaaab
b111110 aaaac
b10110100100 aaaad
b1010010 aaaae
b111110011111 aaaaf
b1110011 aaaag
b1011110100001 aaaah
b1001000 aaaai
b11000010100000 aaaaj
b1000001 aaaak
b100010111000011 aaaal
b1101100 aaaam
b100000101011101 aaaan
b100000110100001 aaaao
b10101010 aaaaq
b10001001 aaaar
1aaaas

#66000
0aaaas

#66500
b10001001 aaaaa
b111000100 aaaab
b1110001 aaaac
b10000110000 aaaad
b111110 aaaae
b111010000110 aaaaf
b1010010 aaaag
b1101100001010 aaaah
b1110011 aaaai
b10011100110110 aaaaj
b1001000 aaaak
b100000100100101 aaaal
b1000001 aaaam
b100011100101011 aaaan
b100000001101111 aaaao
b1101100 aaaaq
b10010011 aaaar
1aaaas

#67000
0aaaas

#67500
b10010011 aaaaa
b1000100100 aaaab
b10001001 aaaac
b11001000100 aaaad
b1110001 aaaae
b101110110010 aaaaf
b111110 aaaag
b1101010000011 aaaah
b1010010 aaaai
b10011011100111 aaaaj
b1110011 aaaak
b11011110101000 aaaal
b1001000 aaaam
b100100011001111 aaaan
b100001100001101 aaaao
b1000001 aaaaq
b1000100 aaaar
1aaaas

#68000
0aaaas

#68500
b1000100 aaaaa
b1001001100 aaaab
b10010011 aaaac
b100000110000 aaaad
b10001001 aaaae
b111100111001 aaaaf
b1110001 aaaag
b1011011000010 aaaah
b111110 aaaai
b10010111101110 aaaaj
b1010010 aaaak
b11001001110001 aaaal
b1110011 aaaam
b100010010000101 aaaan
b100100000101111 aaaao
b1001000 aaaaq
b10000100 aaaar
1aaaas

#69000
0aaaas

#69500
b10000100 aaaaa
b100010000 aaaab
b1000100 aaaac
b100100001000 aaaad
b10010011 aaaae
b1001110100101 aaaaf
b10001001 aaaag
b1101010110100 aaaah
b1110001 aaaai
b10001010111111 aaaaj
b111110 aaaak
b10111011101001 aaaal
b1010010 aaaam
b11110100001100 aaaan
b100100111101111 aaaao
b1110011 aaaaq
b111101 aaaar
1aaaas

#70000
0aaaas

#70500
b111101 aaaaa
b1000010000 aaaab
b10000100 aaaac
b10101111100 aaaad
b1000100 aaaae
b1011010001011 aaaaf
b10010011 aaaag
b10000101101011 aaaah
b10001001 aaaai
b10010111000100 aaaaj
b1110001 aaaak
b10101111111100 aaaal
b111110 aaaam
b11011001001001 aaaan
b100011001010001 aaaao
b1010010 aaaaq
b10000010 aaaar
1aaaas

#71000
0aaaas

#71500
b10000010 aaaaa
b11110100 aaaab
b111101 aaaac
b11101000000 aaaad
b10000100 aaaae
b111110101100 aaaaf
b1000100 aaaag
b10011100101011 aaaah
b10010011 aaaai
b10110011100110 aaaaj
b10001001 aaaak
b10110111001000 aaaal
b1110001 aaaam
b11000111010001 aaaan
b11111001010100 aaaao
b111110 aaaaq
b10100011 aaaar
1aaaas

#72000
0aaaas

#72500
b10100011 aaaaa
b1000001000 aaaab
b10000010 aaaac
b10011101100 aaaad
b111101 aaaae
b1001001100000 aaaaf
b10000100 aaaag
b1111110010011 aaaah
b1000100 aaaai
b11010011110001 aaaaj
b10010011 aaaak
b11001100100101 aaaal
b10001001 aaaam
b11000101001000 aaaan
b11011101000001 aaaao
b1110001 aaaaq
b1001100 aaaar
1aaaas

#73000
0aaaas

