1_Parallel_IO/emulation/sc_fir8.vcd
$date
     Jun 05, 2024       02:08:22
$end

$version
 SystemC 3.0.0-Accellera --- Jun  2 2024 07:55:37
$end

$timescale
     100 ps
$end

$scope module SystemC $end
$var wire    8  aaaaa  X_0 [7:0]  $end
$var wire   16  aaaab  Y_0 [15:0]  $end
$var wire    8  aaaac  X_1 [7:0]  $end
$var wire   16  aaaad  Y_1 [15:0]  $end
$var wire    8  aaaae  X_2 [7:0]  $end
$var wire   16  aaaaf  Y_2 [15:0]  $end
$var wire    8  aaaag  X_3 [7:0]  $end
$var wire   16  aaaah  Y_3 [15:0]  $end
$var wire    8  aaaai  X_4 [7:0]  $end
$var wire   16  aaaaj  Y_4 [15:0]  $end
$var wire    8  aaaak  X_5 [7:0]  $end
$var wire   16  aaaal  Y_5 [15:0]  $end
$var wire    8  aaaam  X_6 [7:0]  $end
$var wire   16  aaaan  Y_6 [15:0]  $end
$var wire   16  aaaao  E_Yout [15:0]  $end
$var wire    8  aaaap  E_Xout [7:0]  $end
$var wire   16  aaaaq  Yout [15:0]  $end
$var wire   16  aaaar  Yin [15:0]  $end
$var wire    8  aaaas  Xout [7:0]  $end
$var wire    8  aaaat  Xin [7:0]  $end
$var wire    1  aaaau  clk       $end
$upscope $end
$enddefinitions  $end

$comment
All initial values are dumped below at time 0 sec = 0 timescale units.
$end

$dumpvars
b0 aaaaa
b0 aaaab
b0 aaaac
b0 aaaad
b0 aaaae
b0 aaaaf
b0 aaaag
b0 aaaah
b0 aaaai
b0 aaaaj
b0 aaaak
b0 aaaal
b0 aaaam
b0 aaaan
b0 aaaao
b0 aaaap
b0 aaaaq
b0 aaaar
b0 aaaas
b0 aaaat
0aaaau
$end

#500
b100111000000101 aaaao
b10110000 aaaat
1aaaau

#1000
0aaaau

#1500
b10110000 aaaaa
b0 aaaao
b110000 aaaat
1aaaau

#2000
0aaaau

#2500
b110000 aaaaa
b1011000000 aaaab
b10110000 aaaac
b1100101 aaaat
1aaaau

#3000
0aaaau

#3500
b1100101 aaaaa
b11000000 aaaab
b110000 aaaac
b100001000000 aaaad
b10110000 aaaae
b1100001 aaaat
1aaaau

#4000
0aaaau

#4500
b1100001 aaaaa
b110010100 aaaab
b1100101 aaaac
b10100000000 aaaad
b110000 aaaae
b1000100110000 aaaaf
b10110000 aaaag
b10011001 aaaat
1aaaau

#5000
0aaaau

#5500
b10011001 aaaaa
b110000100 aaaab
b1100001 aaaac
b10101111100 aaaad
b1100101 aaaae
b110011110000 aaaaf
b110000 aaaag
b1011101100000 aaaah
b10110000 aaaai
b1010010 aaaat
1aaaau

#6000
0aaaau

#6500
b1010010 aaaaa
b1001100100 aaaab
b10011001 aaaac
b11000100000 aaaad
b1100001 aaaae
b111011011101 aaaaf
b1100101 aaaag
b1011110010000 aaaah
b110000 aaaai
b1011101100000 aaaaj
b10110000 aaaak
b10100011 aaaat
1aaaau

#7000
0aaaau

#7500
b10100011 aaaaa
b101001000 aaaab
b1010010 aaaac
b100010110000 aaaad
b10011001 aaaae
b111011110101 aaaaf
b1100001 aaaag
b1101001011010 aaaah
b1100101 aaaai
b1110111000000 aaaaj
b110000 aaaak
b1000100110000 aaaal
b10110000 aaaam
b1111011 aaaat
1aaaau

#8000
0aaaau

#8500
b1111011 aaaaa
b1010001100 aaaab
b10100011 aaaac
b11000111100 aaaad
b1010010 aaaae
b1010100010001 aaaaf
b10011001 aaaag
b1101110111111 aaaah
b1100001 aaaai
b10010011111010 aaaaj
b1100101 aaaak
b1110000010000 aaaal
b110000 aaaam
b100001000000 aaaan
b10110000 aaaap
b10110000 aaaas
b1011100 aaaat
1aaaau

#9000
0aaaau

#9500
b1011100 aaaaa
b111101100 aaaab
b1111011 aaaac
b100011101100 aaaad
b10100011 aaaae
b1000010110010 aaaaf
b1010010 aaaag
b10001101000111 aaaah
b10011001 aaaai
b10011100111100 aaaaj
b1100001 aaaak
b10011110011101 aaaal
b1100101 aaaam
b1001101110000 aaaan
b1011000000 aaaao
b110000 aaaap
b1011000000 aaaaq
b110000 aaaas
b1100110 aaaat
1aaaau

#10000
0aaaau

#10500
b1100110 aaaaa
b101110000 aaaab
b1011100 aaaac
b100001010000 aaaad
b1111011 aaaae
b1011000100111 aaaaf
b10100011 aaaag
b1111111110101 aaaah
b1010010 aaaai
b11000000010001 aaaaj
b10011001 aaaak
b10111001110011 aaaal
b1100001 aaaam
b10000011001100 aaaan
b100100000000 aaaao
b1100101 aaaap
b100100000000 aaaaq
b1100101 aaaas
b10101011 aaaat
1aaaau

#11000
0aaaau

#11500
b10101011 aaaaa
b110011000 aaaab
b1100110 aaaac
b11000111100 aaaad
b1011100 aaaae
b1010011101111 aaaaf
b1111011 aaaag
b10011001011000 aaaah
b10100011 aaaai
b10111000101011 aaaaj
b1010010 aaaak
b11011000101101 aaaal
b10011001 aaaam
b10110000101001 aaaan
b1010100000100 aaaao
b1100001 aaaap
b1010100000100 aaaaq
b1100001 aaaas
b1111111 aaaat
1aaaau

#12000
0aaaau

#12500
b1111111 aaaaa
b1010101100 aaaab
b10101011 aaaac
b11000111000 aaaad
b1100110 aaaae
b1000101001100 aaaaf
b1011100 aaaag
b10011001111101 aaaah
b1111011 aaaai
b11010110011011 aaaaj
b10100011 aaaak
b11100000010011 aaaal
b1010010 aaaam
b11010110011111 aaaan
b10001001010000 aaaao
b10011001 aaaap
b10001001010000 aaaaq
b10011001 aaaas
b1101111 aaaat
1aaaau

#13000
0aaaau

#13500
b1101111 aaaaa
b111111100 aaaab
b1111111 aaaac
b100110011100 aaaad
b10101011 aaaae
b1000000110010 aaaaf
b1100110 aaaag
b10000100100111 aaaah
b1011100 aaaai
b11011010101110 aaaaj
b1111011 aaaak
b11111000010110 aaaal
b10100011 aaaam
b11101000000101 aaaan
b10111010001101 aaaao
b1010010 aaaap
b10111010001101 aaaaq
b1010010 aaaas
b1011001 aaaat
1aaaau

#14000
0aaaau

#14500
b1011001 aaaaa
b110111100 aaaab
b1101111 aaaac
b100010100000 aaaad
b1111111 aaaae
b1011011101011 aaaaf
b10101011 aaaag
b1111011011000 aaaah
b1100110 aaaai
b11001010110101 aaaaj
b1011100 aaaak
b100000110011110 aaaal
b1111011 aaaam
b11111110110111 aaaan
b11011011100111 aaaao
b10100011 aaaap
b11011011100111 aaaaq
b10100011 aaaas
b10100111 aaaat
1aaaau

#15000
0aaaau

#15500
b10100111 aaaaa
b101100100 aaaab
b1011001 aaaac
b11100110000 aaaad
b1101111 aaaae
b1011000000011 aaaaf
b1111111 aaaag
b10011011101000 aaaah
b10101011 aaaai
b10111010110011 aaaaj
b1100110 aaaak
b11111110101010 aaaal
b1011100 aaaam
b100001111011010 aaaan
b11110010010001 aaaao
b1111011 aaaap
b11110010010001 aaaaq
b1111011 aaaas
b1001010 aaaat
1aaaau

#16000
0aaaau

#16500
b1001010 aaaaa
b1010011100 aaaab
b10100111 aaaac
b10111101000 aaaad
b1011001 aaaae
b1001101110111 aaaaf
b1101111 aaaag
b10011111001001 aaaah
b1111111 aaaai
b11010110001110 aaaaj
b10101011 aaaak
b11110010101011 aaaal
b1100110 aaaam
b100010111101110 aaaan
b100000110100011 aaaao
b1011100 aaaap
b100000110100011 aaaaq
b1011100 aaaas
b1010001 aaaat
1aaaau

#17000
0aaaau

#17500
b1010001 aaaaa
b100101000 aaaab
b1001010 aaaac
b100100111000 aaaad
b10100111 aaaae
b111111100001 aaaaf
b1011001 aaaag
b10010011000001 aaaah
b1101111 aaaai
b11011111000110 aaaaj
b1111111 aaaak
b11111101100110 aaaal
b10101011 aaaam
b100010001110010 aaaan
b100010101001010 aaaao
b1100110 aaaap
b100010101001010 aaaaq
b1100110 aaaas
b1001010 aaaat
1aaaau

#18000
0aaaau

#18500
b1001010 aaaaa
b101000100 aaaab
b1010001 aaaac
b11000010100 aaaad
b1001010 aaaae
b1011000110111 aaaaf
b10100111 aaaag
b1111101001001 aaaah
b1011001 aaaai
b11011010000111 aaaaj
b1101111 aaaak
b100000111110101 aaaal
b1111111 aaaam
b100010010101111 aaaan
b100011110000110 aaaao
b10101011 aaaap
b100011110000110 aaaaq
b10101011 aaaas
b10001011 aaaat
1aaaau

#19000
0aaaau

#19500
b10001011 aaaaa
b100101000 aaaab
b1001010 aaaac
b10011110100 aaaad
b1010001 aaaae
b1000001110010 aaaaf
b1001010 aaaag
b10011000001111 aaaah
b10100111 aaaai
b11000010010011 aaaaj
b1011001 aaaak
b100001010011101 aaaal
b1101111 aaaam
b100010101011010 aaaan
b100011100011110 aaaao
b1111111 aaaap
b100011100011110 aaaaq
b1111111 aaaas
b10100000 aaaat
1aaaau

#20000
0aaaau

#20500
b10100000 aaaaa
b1000101100 aaaab
b10001011 aaaac
b10010111100 aaaad
b1001010 aaaae
b110111111101 aaaaf
b1010001 aaaag
b10000000001011 aaaah
b1001010 aaaai
b11010101110111 aaaaj
b10100111 aaaak
b11111100111000 aaaal
b1011001 aaaam
b100011100101001 aaaan
b100011010101011 aaaao
b1101111 aaaap
b100011010101011 aaaaq
b1101111 aaaas
b1111110 aaaat
1aaaau

#21000
0aaaau

#21500
b1111110 aaaaa
b1010000000 aaaab
b10100000 aaaac
b11110101100 aaaad
b10001011 aaaae
b110000101110 aaaaf
b1001010 aaaag
b1101100110100 aaaah
b1010001 aaaai
b10111111100011 aaaaj
b1001010 aaaak
b100000011100010 aaaal
b10100111 aaaam
b100011011001001 aaaan
b100011100010110 aaaao
b1011001 aaaap
b100011100010110 aaaaq
b1011001 aaaas
b1000100 aaaat
1aaaau

#22000
0aaaau

#22500
b1000100 aaaaa
b111111000 aaaab
b1111110 aaaac
b100110101100 aaaad
b10100000 aaaae
b1001001001111 aaaaf
b10001011 aaaag
b1011111010001 aaaah
b1001010 aaaai
b10101011001101 aaaaj
b1010001 aaaak
b11110010110001 aaaal
b1001010 aaaam
b100011100001100 aaaan
b100100010001101 aaaao
b10100111 aaaap
b100100010001101 aaaaq
b10100111 aaaas
b1100101 aaaat
1aaaau

#23000
0aaaau

#23500
b1100101 aaaaa
b100010000 aaaab
b1000100 aaaac
b100001101000 aaaad
b1111110 aaaae
b1011101001100 aaaaf
b10100000 aaaag
b1111010100100 aaaah
b10001011 aaaai
b10010100001000 aaaaj
b1001010 aaaak
b11011111001100 aaaal
b1010001 aaaam
b100010001011010 aaaan
b100100101100101 aaaao
b1001010 aaaap
b100100101100101 aaaaq
b1001010 aaaas
b10000011 aaaat
1aaaau

#24000
0aaaau

#24500
b10000011 aaaaa
b110010100 aaaab
b1100101 aaaac
b10100101000 aaaad
b1000100 aaaae
b1010111111010 aaaaf
b1111110 aaaag
b10011110001111 aaaah
b10100000 aaaai
b10101001000111 aaaaj
b10001011 aaaak
b11001000000111 aaaal
b1001010 aaaam
b100000001111101 aaaan
b100100000110100 aaaao
b1010001 aaaap
b100100000110100 aaaaq
b1010001 aaaas
b10001000 aaaat
1aaaau

#25000
0aaaau

#25500
b10001000 aaaaa
b1000001100 aaaab
b10000011 aaaac
b10111001100 aaaad
b1100101 aaaae
b111100001100 aaaaf
b1000100 aaaag
b10100000001000 aaaah
b1111110 aaaai
b11001111100100 aaaaj
b10100000 aaaak
b11001010011011 aaaal
b10001011 aaaam
b11101101000100 aaaan
b100010110011110 aaaao
b1001010 aaaap
b100010110011110 aaaaq
b1001010 aaaas
b10011000 aaaat
1aaaau

#26000
0aaaau

#26500
b10011000 aaaaa
b1000100000 aaaab
b10001000 aaaac
b11110111000 aaaad
b10000011 aaaae
b111100000101 aaaaf
b1100101 aaaag
b1111100000010 aaaah
b1000100 aaaai
b11100001001011 aaaaj
b1111110 aaaak
b11100111100111 aaaal
b10100000 aaaam
b11100010001011 aaaan
b100000110100101 aaaao
b10001011 aaaap
b100000110100101 aaaaq
b10001011 aaaas
b1111010 aaaat
1aaaau

#27000
0aaaau

#27500
b1111010 aaaaa
b1001100000 aaaab
b10011000 aaaac
b100001101100 aaaad
b10001000 aaaae
b1001010010111 aaaaf
b10000011 aaaag
b1110001110110 aaaah
b1100101 aaaai
b11000100010000 aaaaj
b1000100 aaaak
b100000000110010 aaaal
b1111110 aaaam
b11101000011011 aaaan
b11110101110000 aaaao
b10100000 aaaap
b11110101110000 aaaaq
b10100000 aaaas
b10110101 aaaat
1aaaau

#28000
0aaaau

#28500
b10110101 aaaaa
b111101000 aaaab
b1111010 aaaac
b100101000000 aaaad
b10011000 aaaae
b1010100000000 aaaaf
b10001000 aaaag
b10000001101011 aaaah
b10000011 aaaai
b10110001101100 aaaaj
b1100101 aaaak
b11111011101111 aaaal
b1000100 aaaam
b11111111001111 aaaan
b11101100001011 aaaao
b1111110 aaaap
b11101100001011 aaaaq
b1111110 aaaas
b1101101 aaaat
1aaaau

#29000
0aaaau

#29500
b1101101 aaaaa
b1011010100 aaaab
b10110101 aaaac
b100000011000 aaaad
b1111010 aaaae
b1011101000100 aaaaf
b10011000 aaaag
b10010010100111 aaaah
b10001000 aaaai
b10110111011100 aaaaj
b10000011 aaaak
b11101011101101 aaaal
b1100101 aaaam
b100001101100010 aaaan
b11110000010011 aaaao
b1000100 aaaap
b11110000010011 aaaaq
b1000100 aaaas
b10010100 aaaat
1aaaau

#30000
0aaaau

#30500
b10010100 aaaaa
b110110100 aaaab
b1101101 aaaac
b101001100100 aaaad
b10110101 aaaae
b1010100101010 aaaaf
b1111010 aaaag
b10100100110000 aaaah
b10011000 aaaai
b11001001111011 aaaaj
b10001000 aaaak
b11100100110111 aaaal
b10000011 aaaam
b100001110101011 aaaan
b100000011011111 aaaao
b1100101 aaaap
b100000011011111 aaaaq
b1100101 aaaas
b10110110 aaaat
1aaaau

#31000
0aaaau

#31500
b10110110 aaaaa
b1001010000 aaaab
b10010100 aaaac
b11111110000 aaaad
b1101101 aaaae
b1100111000101 aaaaf
b10110101 aaaag
b10011101111000 aaaah
b1111010 aaaai
b11100011010111 aaaaj
b10011000 aaaak
b11101100100100 aaaal
b10001000 aaaam
b100000100010001 aaaan
b100010011110110 aaaao
b10000011 aaaap
b100010011110110 aaaaq
b10000011 aaaas
b10001110 aaaat
1aaaau

#32000
0aaaau

#32500
b10001110 aaaaa
b1011011000 aaaab
b10110110 aaaac
b100010100100 aaaad
b10010100 aaaae
b1010100001001 aaaaf
b1101101 aaaag
b10110100110100 aaaah
b10110101 aaaai
b11100101100100 aaaaj
b1111010 aaaak
b100000101010011 aaaal
b10011000 aaaam
b11111110010111 aaaan
b100010110110111 aaaao
b10001000 aaaap
b100010110110111 aaaaq
b10001000 aaaas
b10101001 aaaat
1aaaau

#33000
0aaaau

#33500
b10101001 aaaaa
b1000111000 aaaab
b10001110 aaaac
b101011011000 aaaad
b10110110 aaaae
b1011001100100 aaaaf
b10010100 aaaag
b10100000111111 aaaah
b1101101 aaaai
b11111110000010 aaaaj
b10110101 aaaak
b100010011000001 aaaal
b1111010 aaaam
b100001001000100 aaaan
b100001100110001 aaaao
b10011000 aaaap
b100001100110001 aaaaq
b10011000 aaaas
b111011 aaaat
1aaaau

#34000
0aaaau

#34500
b111011 aaaaa
b1010100100 aaaab
b10101001 aaaac
b100110000000 aaaad
b10001110 aaaae
b1101001101010 aaaaf
b10110110 aaaag
b10100010110001 aaaah
b10010100 aaaai
b11101110101110 aaaaj
b1101101 aaaak
b100101100010001 aaaal
b10110101 aaaam
b100011100001011 aaaan
b100000111110111 aaaao
b1111010 aaaap
b100000111110111 aaaaq
b1111010 aaaas
b1001011 aaaat
1aaaau

#35000
0aaaau

#35500
b1001011 aaaaa
b11101100 aaaab
b111011 aaaac
b101000100100 aaaad
b10101001 aaaae
b1100010110110 aaaaf
b10001110 aaaag
b10111010010000 aaaah
b10110110 aaaai
b11101111100111 aaaaj
b10010100 aaaak
b100101000100111 aaaal
b1101101 aaaam
b100110100111101 aaaan
b100010000101100 aaaao
b10110101 aaaap
b100010000101100 aaaaq
b10110101 aaaas
b10001011 aaaat
1aaaau

#36000
0aaaau

#36500
b10001011 aaaaa
b100101100 aaaab
b1001011 aaaac
b10101101000 aaaad
b111011 aaaae
b1101000000001 aaaaf
b10101001 aaaag
b10110101000110 aaaah
b10001110 aaaai
b100000011011101 aaaaj
b10110110 aaaak
b100101000100010 aaaal
b10010100 aaaam
b101000000101101 aaaan
b100100111011111 aaaao
b1101101 aaaap
b100100111011111 aaaaq
b1101101 aaaas
b1000110 aaaat
1aaaau

#37000
0aaaau

#37500
b1000110 aaaaa
b1000101100 aaaab
b10001011 aaaac
b10001110000 aaaad
b1001011 aaaae
b111111100111 aaaaf
b111011 aaaag
b10111100101000 aaaah
b10101001 aaaai
b100000101101100 aaaaj
b10001110 aaaak
b100110110101101 aaaal
b10110110 aaaam
b101000100010111 aaaan
b100111011110001 aaaao
b10010100 aaaap
b100111011110001 aaaaq
b10010100 aaaas
b10011111 aaaat
1aaaau

#38000
0aaaau

#38500
b10011111 aaaaa
b100011000 aaaab
b1000110 aaaac
b11110110000 aaaad
b10001011 aaaae
b110010111011 aaaaf
b1001011 aaaag
b10000111010111 aaaah
b111011 aaaai
b100001110111000 aaaaj
b10101001 aaaak
b100111010111011 aaaal
b10001110 aaaam
b101001010101010 aaaan
b101001001111101 aaaao
b10110110 aaaap
b101001001111101 aaaaq
b10110110 aaaas
b10101001 aaaat
1aaaau

#39000
0aaaau

#39500
b10101001 aaaaa
b1001111100 aaaab
b10011111 aaaac
b10101110100 aaaad
b1000110 aaaae
b1001000000011 aaaaf
b10001011 aaaag
b1100111011101 aaaah
b1001011 aaaai
b11011011111110 aaaaj
b111011 aaaak
b101000111101101 aaaal
b10101001 aaaam
b101010001010101 aaaan
b101001111101111 aaaao
b10001110 aaaap
b101001111101111 aaaaq
b10001110 aaaas
b1101101 aaaat
1aaaau

#40000
0aaaau

#40500
b1101101 aaaaa
b1010100100 aaaab
b10101001 aaaac
b100010001100 aaaad
b10011111 aaaae
b111010000110 aaaaf
b1000110 aaaag
b1111100110001 aaaah
b10001011 aaaai
b10101111001101 aaaaj
b1001011 aaaak
b100100101111011 aaaal
b111011 aaaam
b101011010100111 aaaan
b101010011100010 aaaao
b10101001 aaaap
b101010011100010 aaaaq
b10101001 aaaas
b1001101 aaaat
1aaaau

#41000
0aaaau

#41500
b1001101 aaaaa
b110110100 aaaab
b1101101 aaaac
b101001101000 aaaad
b10101001 aaaae
b1010011111011 aaaaf
b10011111 aaaag
b1101101001111 aaaah
b1000110 aaaai
b10110001010011 aaaaj
b10001011 aaaak
b11111001010001 aaaal
b1001011 aaaam
b101010010110001 aaaan
b101011011111001 aaaao
b111011 aaaap
b101011011111001 aaaaq
b111011 aaaas
b10010010 aaaat
1aaaau

#42000
0aaaau

#42500
b10010010 aaaaa
b100110100 aaaab
b1001101 aaaac
b11111000000 aaaad
b1101101 aaaae
b1100100001101 aaaaf
b10101001 aaaag
b10001110100100 aaaah
b10011111 aaaai
b10100001111101 aaaaj
b1000110 aaaak
b11100101100000 aaaal
b10001011 aaaam
b100110011111111 aaaan
b101011110010011 aaaao
b1001011 aaaap
b101011110010011 aaaaq
b1001011 aaaas
b101101 aaaat
1aaaau

#43000
0aaaau

#43500
b101101 aaaaa
b1001001000 aaaab
b10010010 aaaac
b10101010000 aaaad
b1001101 aaaae
b1010100001101 aaaaf
b1101101 aaaag
b10101101101101 aaaah
b10101001 aaaai
b11000001101101 aaaaj
b10011111 aaaak
b11001100101001 aaaal
b1000110 aaaam
b100010011010101 aaaan
b101010111011101 aaaao
b10001011 aaaap
b101010111011101 aaaaq
b10001011 aaaas
b1111010 aaaat
1aaaau

#44000
0aaaau

#44500
b1111010 aaaaa
b10110100 aaaab
b101101 aaaac
b100000001100 aaaad
b10010010 aaaae
b111101000101 aaaaf
b1001101 aaaag
b10011110000111 aaaah
b1101101 aaaai
b11101000010110 aaaaj
b10101001 aaaak
b11100000000100 aaaal
b10011111 aaaam
b11110010101000 aaaan
b100111100101011 aaaao
b1000110 aaaap
b100111100101011 aaaaq
b1000110 aaaas
b1110110 aaaat
1aaaau

#45000
0aaaau

#45500
b1110110 aaaaa
b111101000 aaaab
b1111010 aaaac
b10001100100 aaaad
b101101 aaaae
b1001110010010 aaaaf
b10010010 aaaag
b1111101000111 aaaah
b1001101 aaaai
b11100111100111 aaaaj
b1101101 aaaak
b100000011101110 aaaal
b10101001 aaaam
b11101010011101 aaaan
b100010111101101 aaaao
b10011111 aaaap
b100010111101101 aaaaq
b10011111 aaaas
b10111010 aaaat
1aaaau

#46000
0aaaau

#46500
b10111010 aaaaa
b111011000 aaaab
b1110110 aaaac
b11001101100 aaaad
b1111010 aaaae
b110001110001 aaaaf
b101101 aaaag
b10001010101001 aaaah
b10010010 aaaai
b11000111000001 aaaaj
b1001101 aaaak
b100010010111011 aaaal
b1101101 aaaam
b11111111110000 aaaan
b11111100100100 aaaao
b10101001 aaaap
b11111100100100 aaaaq
b10101001 aaaas
b10000111 aaaat
1aaaau

#47000
0aaaau

#47500
b10000111 aaaaa
b1011101000 aaaab
b10111010 aaaac
b11101110000 aaaad
b1110110 aaaae
b1000001001110 aaaaf
b1111010 aaaag
b1100110001100 aaaah
b101101 aaaai
b11001010101011 aaaaj
b10010010 aaaak
b100000101101100 aaaal
b1001101 aaaam
b100011000001010 aaaan
b11110101000001 aaaao
b1101101 aaaap
b11110101000001 aaaaq
b1101101 aaaas
b10100100 aaaat
1aaaau

#48000
0aaaau

#48500
b10100100 aaaaa
b1000011100 aaaab
b10000111 aaaac
b101010010000 aaaad
b10111010 aaaae
b1000111110010 aaaaf
b1110110 aaaag
b1110010100101 aaaah
b1111010 aaaai
b10100010100011 aaaaj
b101101 aaaak
b100000000000011 aaaal
b10010010 aaaam
b100100001010111 aaaan
b100000110100100 aaaao
b1001101 aaaap
b100000110100100 aaaaq
b1001101 aaaas
b1111001 aaaat
1aaaau

#49000
0aaaau

#49500
b1111001 aaaaa
b1010010000 aaaab
b10100100 aaaac
b100100111100 aaaad
b10000111 aaaae
b1100110011010 aaaaf
b10111010 aaaag
b1111111111010 aaaah
b1110110 aaaai
b10100111000000 aaaaj
b1111010 aaaak
b11011100010000 aaaal
b101101 aaaam
b100100001000100 aaaan
b100011100111110 aaaao
b10010010 aaaap
b100011100111110 aaaaq
b10010010 aaaas
b100000 aaaat
1aaaau

#50000
0aaaau

#50500
b100000 aaaaa
b111100100 aaaab
b1111001 aaaac
b100111001100 aaaad
b10100100 aaaae
b1011110111111 aaaaf
b10000111 aaaag
b10101010100110 aaaah
b10111010 aaaai
b10110001010001 aaaaj
b1110110 aaaak
b11010010001101 aaaal
b1111010 aaaam
b100001000011111 aaaan
b100101010011111 aaaao
b101101 aaaap
b100101010011111 aaaaq
b101101 aaaas
b10101100 aaaat
1aaaau

#51000
0aaaau

#51500
b10101100 aaaaa
b10000000 aaaab
b100000 aaaac
b100000111100 aaaad
b1111001 aaaae
b1100101000000 aaaaf
b10100100 aaaag
b10101110001000 aaaah
b10000111 aaaai
b11100010101110 aaaaj
b10111010 aaaak
b11010101000110 aaaal
b1110110 aaaam
b11110011001000 aaaan
b100100011111000 aaaao
b1111010 aaaap
b100100011111000 aaaaq
b1111010 aaaas
b1010001 aaaat
1aaaau

#52000
0aaaau

#52500
b1010001 aaaaa
b1010110000 aaaab
b10101100 aaaac
b1101100100 aaaad
b100000 aaaae
b1010110011101 aaaaf
b1111001 aaaag
b10110110000111 aaaah
b10100100 aaaai
b11110010010100 aaaaj
b10000111 aaaak
b11111001111011 aaaal
b10111010 aaaam
b11101000010101 aaaan
b100010000000111 aaaao
b1110110 aaaap
b100010000000111 aaaaq
b1110110 aaaas
b1000100 aaaat
1aaaau

#53000
0aaaau

#53500
b1000100 aaaaa
b101000100 aaaab
b1010001 aaaac
b100010010000 aaaad
b10101100 aaaae
b101101011100 aaaaf
b100000 aaaag
b10100101010010 aaaah
b1111001 aaaai
b100000101010000 aaaaj
b10100100 aaaak
b100010111011101 aaaal
b10000111 aaaam
b11110111111110 aaaan
b11111010100000 aaaao
b10111010 aaaap
b11111010100000 aaaaq
b10111010 aaaas
b1010011 aaaat
1aaaau

#54000
0aaaau

#54500
b1010011 aaaaa
b100010000 aaaab
b1000100 aaaac
b11001111100 aaaad
b1010001 aaaae
b1010000110000 aaaaf
b10101100 aaaag
b1100111011101 aaaah
b100000 aaaai
b11110110011001 aaaaj
b1111001 aaaak
b100110010011000 aaaal
b10100100 aaaam
b100010011001111 aaaan
b11110011111101 aaaao
b10000111 aaaap
b11110011111101 aaaaq
b10000111 aaaas
b10010110 aaaat
1aaaau

#55000
0aaaau

#55500
b10010110 aaaaa
b101001100 aaaab
b1010011 aaaac
b10001110100 aaaad
b1000100 aaaae
b1000001111001 aaaaf
b1010001 aaaag
b10001000110100 aaaah
b10101100 aaaai
b10110110010010 aaaaj
b100000 aaaak
b100110100100001 aaaal
b1111001 aaaam
b100110110001101 aaaan
b100000000011010 aaaao
b10100100 aaaap
b100000000011010 aaaaq
b10100100 aaaas
b1110100 aaaat
1aaaau

#56000
0aaaau

#56500
b1110100 aaaaa
b1001011000 aaaab
b10010110 aaaac
b10011110100 aaaad
b1010011 aaaae
b110100100000 aaaaf
b1000100 aaaag
b1111011110010 aaaah
b1010001 aaaai
b11000010110101 aaaaj
b10101100 aaaak
b100000010111001 aaaal
b100000 aaaam
b101001001000100 aaaan
b100011101011111 aaaao
b1111001 aaaap
b100011101011111 aaaaq
b1111001 aaaas
b10100101 aaaat
1aaaau

#57000
0aaaau

#57500
b10100101 aaaaa
b111010000 aaaab
b1110100 aaaac
b100001010100 aaaad
b10010110 aaaae
b110010001111 aaaaf
b1010011 aaaag
b1100110000001 aaaah
b1000100 aaaai
b10110011110110 aaaaj
b1010001 aaaak
b11111001011110 aaaal
b10101100 aaaam
b100111010100001 aaaan
b100111101110001 aaaao
b100000 aaaap
b100111101110001 aaaaq
b100000 aaaas
b10000000 aaaat
1aaaau

#58000
0aaaau

#58500
b10000000 aaaaa
b1010010100 aaaab
b10100101 aaaac
b11111001000 aaaad
b1110100 aaaae
b1001110011010 aaaaf
b10010110 aaaag
b1100000100110 aaaah
b1010011 aaaai
b10011111111010 aaaaj
b1000100 aaaak
b11100010011110 aaaal
b1010001 aaaam
b100100011001001 aaaan
b101001011000100 aaaao
b10101100 aaaap
b101001011000100 aaaaq
b10101100 aaaas
b10101111 aaaat
1aaaau

#59000
0aaaau

#59500
b10101111 aaaaa
b1000000000 aaaab
b10000000 aaaac
b100110001100 aaaad
b10100101 aaaae
b1001110101000 aaaaf
b1110100 aaaag
b10000001111011 aaaah
b10010110 aaaai
b10010010000111 aaaaj
b1010011 aaaak
b11001110011010 aaaal
b1000100 aaaam
b100001000101010 aaaan
b101000101010001 aaaao
b1010001 aaaap
b101000101010001 aaaaq
b1010001 aaaas
b1100001 aaaat
1aaaau

#60000
0aaaau

#60500
b1100001 aaaaa
b1010111100 aaaab
b10101111 aaaac
b100010010100 aaaad
b10000000 aaaae
b1011111100101 aaaaf
b10100101 aaaag
b10001100000010 aaaah
b1110100 aaaai
b10110000010010 aaaaj
b10010110 aaaak
b11000000010101 aaaal
b1010011 aaaam
b11101111001110 aaaan
b100101000001101 aaaao
b1000100 aaaap
b100101000001101 aaaaq
b1000100 aaaas
b1010011 aaaat
1aaaau

#61000
0aaaau

#61500
b1010011 aaaaa
b110000100 aaaab
b1100001 aaaac
b101000110100 aaaad
b10101111 aaaae
b1011000001100 aaaaf
b10000000 aaaag
b10100110010010 aaaah
b10100101 aaaai
b10111111100011 aaaaj
b1110100 aaaak
b11001100101101 aaaal
b10010110 aaaam
b11011101111110 aaaan
b100001100111010 aaaao
b1010011 aaaap
b100001100111010 aaaaq
b1010011 aaaas
b10100110 aaaat
1aaaau

#62000
0aaaau

#62500
b10100110 aaaaa
b101001100 aaaab
b1010011 aaaac
b11101001000 aaaad
b1100001 aaaae
b1100110101011 aaaaf
b10101111 aaaag
b10100011100101 aaaah
b10000000 aaaai
b11100011101100 aaaaj
b10100101 aaaak
b11011101100110 aaaal
b1110100 aaaam
b11011100011101 aaaan
b11110100011010 aaaao
b10010110 aaaap
b11110100011010 aaaaq
b10010110 aaaas
b111110 aaaat
1aaaau

#63000
0aaaau

#63500
b111110 aaaaa
b1010011000 aaaab
b10100110 aaaac
b10101101000 aaaad
b1010011 aaaae
b1001110101101 aaaaf
b1100001 aaaag
b10110101001010 aaaah
b10101111 aaaai
b11101010010010 aaaaj
b10000000 aaaak
b100000000000000 aaaal
b10100101 aaaam
b11100010011101 aaaan
b11100111010110 aaaao
b1110100 aaaap
b11100111010110 aaaaq
b1110100 aaaas
b1001111 aaaat
1aaaau

#64000
0aaaau

#64500
b1001111 aaaaa
b11111000 aaaab
b111110 aaaac
b100100010100 aaaad
b10100110 aaaae
b111101100011 aaaaf
b1010011 aaaag
b10011010001101 aaaah
b1100001 aaaai
b100000000100011 aaaaj
b10101111 aaaak
b100010101101100 aaaal
b10000000 aaaam
b11111100100010 aaaan
b11100011101101 aaaao
b10100101 aaaap
b11100011101101 aaaaq
b10100101 aaaas
b10010100 aaaat
1aaaau

#65000
0aaaau

#65500
b10010100 aaaaa
b100111100 aaaab
b1001111 aaaac
b10110000000 aaaad
b111110 aaaae
b1010110011110 aaaaf
b10100110 aaaag
b1111010110011 aaaah
b1010011 aaaai
b11101000101100 aaaaj
b1100001 aaaak
b100101110101001 aaaal
b10101111 aaaam
b100011000000000 aaaan
b11101100110001 aaaao
b10000000 aaaap
b11101100110001 aaaaq
b10000000 aaaas
b1001000 aaaat
1aaaau

#66000
0aaaau

