0_algorithm/sc_emulated/sc_fir8_tb.vcd
$date
     Apr 01, 2024       22:34:13
$end

$version
 SystemC 3.0.0_pub_rev_20231124-Accellera --- Mar 26 2024 09:40:07
$end

$timescale
     100 ps
$end

$scope module SystemC $end
$var wire    1  aaaaa  clk       $end
$var wire    8  aaaab  Xin [7:0]  $end
$var wire    8  aaaac  Xout [7:0]  $end
$var wire   16  aaaad  Yin [15:0]  $end
$var wire   16  aaaae  Yout [15:0]  $end
$upscope $end
$enddefinitions  $end

$comment
All initial values are dumped below at time 0 sec = 0 timescale units.
$end

$dumpvars
0aaaaa
b0 aaaab
b0 aaaac
b0 aaaad
b0 aaaae
$end

#500
1aaaaa
b10001100 aaaab

#1000
0aaaaa

#1500
1aaaaa
b1011100 aaaab
b1000110000 aaaae

#2000
0aaaaa

#2500
1aaaaa
b10001101 aaaab
b100000000000 aaaae

#3000
0aaaaa

#3500
1aaaaa
b1011011 aaaab
b1010000110000 aaaae

#4000
0aaaaa

#4500
1aaaaa
b10000001 aaaab
b10001110011100 aaaae

#5000
0aaaaa

#5500
1aaaaa
b1011100 aaaab
b11001011011101 aaaae

#6000
0aaaaa

#6500
1aaaaa
b1100110 aaaab
b11110011111101 aaaae

#7000
0aaaaa

#7500
1aaaaa
b11001110 aaaab
b100000011011101 aaaae

#8000
0aaaaa

#8500
1aaaaa
b10011101 aaaab
b100001001111001 aaaae

#9000
0aaaaa

#9500
1aaaaa
b1101111 aaaab
b100010001011011 aaaae

#10000
0aaaaa

#10500
1aaaaa
b10100001 aaaab
b100101000001011 aaaae

#11000
0aaaaa

#11500
1aaaaa
b1101010 aaaab
b101000001101001 aaaae

#12000
0aaaaa

#12500
1aaaaa
b1010001 aaaab
b101010010001011 aaaae

#13000
0aaaaa

#13500
1aaaaa
b1110010 aaaab
b101001111100011 aaaae

#14000
0aaaaa

#14500
1aaaaa
b1011110 aaaab
b100111010100011 aaaae

#15000
0aaaaa

#15500
1aaaaa
b10001111 aaaab
b100011110011010 aaaae

#16000
0aaaaa

#16500
1aaaaa
b1001001 aaaab
b100000111111101 aaaae

#17000
0aaaaa

#17500
1aaaaa
b1101001 aaaab
b11111010001110 aaaae

#18000
0aaaaa

#18500
1aaaaa
b10100000 aaaab
b11111000001100 aaaae

#19000
0aaaaa

#19500
1aaaaa
b1100110 aaaab
b11111010011101 aaaae

#20000
0aaaaa

#20500
1aaaaa
b1111111 aaaab
b11111111010011 aaaae

#21000
0aaaaa

#21500
1aaaaa
b10100000 aaaab
b100001000101111 aaaae

#22000
0aaaaa

#22500
1aaaaa
b10010010 aaaab
b100010011101001 aaaae

#23000
0aaaaa

#23500
1aaaaa
b10010011 aaaab
b100100011100100 aaaae

#24000
0aaaaa

#24500
1aaaaa
b1001011 aaaab
b100110011011110 aaaae

#25000
0aaaaa

#25500
1aaaaa
b10101100 aaaab
b100111110001010 aaaae

#26000
0aaaaa

#26500
1aaaaa
b10001011 aaaab
b101000011100010 aaaae

#27000
0aaaaa

#27500
1aaaaa
b10010010 aaaab
b100111110100101 aaaae

#28000
0aaaaa

#28500
1aaaaa
b1011000 aaaab
b100111011010010 aaaae

#29000
0aaaaa

#29500
1aaaaa
b1011111 aaaab
b100111001001100 aaaae

#30000
0aaaaa

#30500
1aaaaa
b10011111 aaaab
b100110110101011 aaaae

#31000
0aaaaa

#31500
1aaaaa
b1001111 aaaab
b100101111111110 aaaae

#32000
0aaaaa

#32500
1aaaaa
b10101100 aaaab
b100011111011010 aaaae

#33000
0aaaaa

#33500
1aaaaa
b1001111 aaaab
b100010110101111 aaaae

#34000
0aaaaa

#34500
1aaaaa
b10001100 aaaab
b100010001011011 aaaae

#35000
0aaaaa

#35500
1aaaaa
b1111111 aaaab
b100010111111011 aaaae

#36000
0aaaaa

#36500
1aaaaa
b1100000 aaaab
b100011011110100 aaaae

#37000
0aaaaa

#37500
1aaaaa
b10101000 aaaab
b100011100011101 aaaae

#38000
0aaaaa

#38500
1aaaaa
b1111100 aaaab
b100011110011001 aaaae

#39000
0aaaaa

#39500
1aaaaa
b1010101 aaaab
b100011110101001 aaaae

#40000
0aaaaa

#40500
1aaaaa
b1010000 aaaab
b100100100111010 aaaae

#41000
0aaaaa

#41500
1aaaaa
b1100110 aaaab
b100100010011011 aaaae

#42000
0aaaaa

#42500
1aaaaa
b1110110 aaaab
b100010111110001 aaaae

#43000
0aaaaa

#43500
1aaaaa
b1100110 aaaab
b100000100010110 aaaae

#44000
0aaaaa

#44500
1aaaaa
b1101001 aaaab
b11110001111100 aaaae

#45000
0aaaaa

#45500
1aaaaa
b1000111 aaaab
b11101011011011 aaaae

#46000
0aaaaa

#46500
1aaaaa
b1000010 aaaab
b11101011110010 aaaae

#47000
0aaaaa

#47500
1aaaaa
b1110000 aaaab
b11101011011111 aaaae

#48000
0aaaaa

#48500
1aaaaa
b10010011 aaaab
b11100011010011 aaaae

#49000
0aaaaa

#49500
1aaaaa
b1111011 aaaab
b11011001110100 aaaae

#50000
0aaaaa

#50500
1aaaaa
b10110101 aaaab
b11011011010011 aaaae

#51000
0aaaaa

#51500
1aaaaa
b1100110 aaaab
b11110000001010 aaaae

#52000
0aaaaa

#52500
1aaaaa
b10000010 aaaab
b100001111100111 aaaae

#53000
0aaaaa

#53500
1aaaaa
b10100111 aaaab
b100101101111101 aaaae

#54000
0aaaaa

#54500
1aaaaa
b1001010 aaaab
b100111110101101 aaaae

#55000
0aaaaa

#55500
1aaaaa
b1100010 aaaab
b100111111101011 aaaae

#56000
0aaaaa

#56500
1aaaaa
b10000011 aaaab
b100110111011100 aaaae

#57000
0aaaaa

#57500
1aaaaa
b10101110 aaaab
b100100110101110 aaaae

#58000
0aaaaa

#58500
1aaaaa
b1111011 aaaab
b100011010111110 aaaae

#59000
0aaaaa

#59500
1aaaaa
b10100100 aaaab
b100010110110110 aaaae

#60000
0aaaaa

#60500
1aaaaa
b1011110 aaaab
b100100011010010 aaaae

#61000
0aaaaa

#61500
1aaaaa
b1010110 aaaab
b100110101010011 aaaae

#62000
0aaaaa

#62500
1aaaaa
b1010010 aaaab
b100111111000001 aaaae

#63000
0aaaaa

#63500
1aaaaa
b1011111 aaaab
b100110101000110 aaaae

#64000
0aaaaa

#64500
1aaaaa
b1010101 aaaab
b100011000110101 aaaae

#65000
0aaaaa

#65500
1aaaaa
b10011011 aaaab
b11111000110010 aaaae

#66000
0aaaaa

#66500
1aaaaa
b11000011 aaaab
b11100011001001 aaaae

#67000
0aaaaa

#67500
1aaaaa
b10000010 aaaab
b11100101111101 aaaae

#68000
0aaaaa

#68500
1aaaaa
b10110110 aaaab
b11111110111001 aaaae

#69000
0aaaaa

#69500
1aaaaa
b1111010 aaaab
b100101001010010 aaaae

#70000
0aaaaa

#70500
1aaaaa
b111111 aaaab
b101001110100111 aaaae

#71000
0aaaaa

#71500
1aaaaa
b10100111 aaaab
b101100000111111 aaaae

#72000
0aaaaa

#72500
1aaaaa
b1101011 aaaab
b101011010001101 aaaae

#73000
0aaaaa

#73500
1aaaaa
b10101011 aaaab
b101000001001001 aaaae

#74000
0aaaaa

#74500
1aaaaa
b110110 aaaab
b100101101111011 aaaae

#75000
0aaaaa

#75500
1aaaaa
b1110100 aaaab
b100100001010101 aaaae

#76000
0aaaaa

#76500
1aaaaa
b10110111 aaaab
b100100000100110 aaaae

#77000
0aaaaa

#77500
1aaaaa
b1001000 aaaab
b100011110101001 aaaae

#78000
0aaaaa

#78500
1aaaaa
b10100001 aaaab
b100011000101101 aaaae

#79000
0aaaaa

#79500
1aaaaa
b1000011 aaaab
b100011010101010 aaaae

#80000
0aaaaa

#80500
1aaaaa
b1010011 aaaab
b100011001001100 aaaae

#81000
0aaaaa

#81500
1aaaaa
b1111010 aaaab
b100011010001111 aaaae

#82000
0aaaaa

#82500
1aaaaa
b10100100 aaaab
b100001101110000 aaaae

#83000
0aaaaa

#83500
1aaaaa
b10101111 aaaab
b100000000010111 aaaae

#84000
0aaaaa

#84500
1aaaaa
b1100010 aaaab
b100000000110111 aaaae

#85000
0aaaaa

#85500
1aaaaa
b10110000 aaaab
b100010000110001 aaaae

#86000
0aaaaa

#86500
1aaaaa
b11001001 aaaab
b100110000101110 aaaae

#87000
0aaaaa

#87500
1aaaaa
b1001110 aaaab
b101001011010110 aaaae

#88000
0aaaaa

#88500
1aaaaa
b10011101 aaaab
b101011100011110 aaaae

#89000
0aaaaa

#89500
1aaaaa
b1111101 aaaab
b101100011010000 aaaae

#90000
0aaaaa

#90500
1aaaaa
b10011100 aaaab
b101011101010110 aaaae

#91000
0aaaaa

#91500
1aaaaa
b1100000 aaaab
b101010100110011 aaaae

#92000
0aaaaa

#92500
1aaaaa
b1011000 aaaab
b101000110100100 aaaae

#93000
0aaaaa

#93500
1aaaaa
b1100100 aaaab
b100111001011010 aaaae

#94000
0aaaaa

#94500
1aaaaa
b10001000 aaaab
b100101010000011 aaaae

#95000
0aaaaa

#95500
1aaaaa
b10010111 aaaab
b100010110101001 aaaae

#96000
0aaaaa

#96500
1aaaaa
b11011110 aaaab
b100001001111100 aaaae

#97000
0aaaaa

#97500
1aaaaa
b1100000 aaaab
b100001101110000 aaaae

#98000
0aaaaa

#98500
1aaaaa
b1111111 aaaab
b100100110000111 aaaae

#99000
0aaaaa

#99500
1aaaaa
b10000001 aaaab
b101000110101100 aaaae

#100000
0aaaaa

#100500
1aaaaa
b10011111 aaaab
b101011000111010 aaaae

#101000
0aaaaa

#101500
1aaaaa
b10000000 aaaab
b101010111011010 aaaae

#102000
0aaaaa

#102500
1aaaaa
b1011101 aaaab
b101001010001101 aaaae

#103000
0aaaaa

#103500
1aaaaa
b10011001 aaaab
b100111100011111 aaaae

#104000
0aaaaa

#104500
1aaaaa
b1011100 aaaab
b100110111011111 aaaae

#105000
0aaaaa

#105500
1aaaaa
b1110011 aaaab
b100101111011100 aaaae

#106000
0aaaaa

#106500
1aaaaa
b1111111 aaaab
b100100111110110 aaaae

#107000
0aaaaa

#107500
1aaaaa
b1001000 aaaab
b100011100000000 aaaae

#108000
0aaaaa

#108500
1aaaaa
b10010101 aaaab
b100010001101010 aaaae

#109000
0aaaaa

#109500
1aaaaa
b11000110 aaaab
b100001011100110 aaaae

#110000
0aaaaa

#110500
1aaaaa
b1011001 aaaab
b100001011011100 aaaae

#111000
0aaaaa

#111500
1aaaaa
b10010100 aaaab
b100010110010110 aaaae

#112000
0aaaaa

#112500
1aaaaa
b1111111 aaaab
b100101001100111 aaaae

#113000
0aaaaa

#113500
1aaaaa
b10101111 aaaab
b100111001111011 aaaae

#114000
0aaaaa

#114500
1aaaaa
b10010100 aaaab
b101000100101011 aaaae

#115000
0aaaaa

#115500
1aaaaa
b10011001 aaaab
b101000111010111 aaaae

#116000
0aaaaa

#116500
1aaaaa
b10110110 aaaab
b101001100111110 aaaae

#117000
0aaaaa

#117500
1aaaaa
b1101100 aaaab
b101011001001100 aaaae

#118000
0aaaaa

#118500
1aaaaa
b111000 aaaab
b101100011001010 aaaae

#119000
0aaaaa

#119500
1aaaaa
b1110110 aaaab
b101100100001011 aaaae

#120000
0aaaaa

#120500
1aaaaa
b1111111 aaaab
b101010000100110 aaaae

#121000
0aaaaa

#121500
1aaaaa
b1001111 aaaab
b100110000011101 aaaae

#122000
0aaaaa

#122500
1aaaaa
b1011110 aaaab
b100001111000000 aaaae

#123000
0aaaaa

#123500
1aaaaa
b1110011 aaaab
b11111000100111 aaaae

#124000
0aaaaa

#124500
1aaaaa
b1011111 aaaab
b11101111010101 aaaae

#125000
0aaaaa

#125500
1aaaaa
b110001 aaaab
b11101101000000 aaaae

#126000
0aaaaa

#126500
1aaaaa
b10101001 aaaab
b11101000111100 aaaae

#127000
0aaaaa

#127500
1aaaaa
b111010 aaaab
b11100101111100 aaaae

#128000
0aaaaa

#128500
1aaaaa
b1110001 aaaab
b11100001011111 aaaae

#129000
0aaaaa

#129500
1aaaaa
b1000111 aaaab
b11100011111100 aaaae

#130000
0aaaaa

#130500
1aaaaa
b10101000 aaaab
b11100100101001 aaaae

#131000
0aaaaa

#131500
1aaaaa
b1111000 aaaab
b11101000101100 aaaae

#132000
0aaaaa

#132500
1aaaaa
b10000100 aaaab
b11101110101110 aaaae

#133000
0aaaaa

#133500
1aaaaa
b1000010 aaaab
b11111011100010 aaaae

#134000
0aaaaa

#134500
1aaaaa
b10101110 aaaab
b100001100010011 aaaae

#135000
0aaaaa

#135500
1aaaaa
b111000 aaaab
b100011000010111 aaaae

#136000
0aaaaa

#136500
1aaaaa
b1111100 aaaab
b100011001110010 aaaae

#137000
0aaaaa

#137500
1aaaaa
b1110010 aaaab
b100010010001110 aaaae

#138000
0aaaaa

#138500
1aaaaa
b111010 aaaab
b100001000010100 aaaae

#139000
0aaaaa

#139500
1aaaaa
b1010001 aaaab
b11111101101010 aaaae

#140000
0aaaaa

#140500
1aaaaa
b1000010 aaaab
b11110100101100 aaaae

#141000
0aaaaa

#141500
1aaaaa
b10001111 aaaab
b11100011000010 aaaae

#142000
0aaaaa

#142500
1aaaaa
b110010 aaaab
b11010110001001 aaaae

#143000
0aaaaa

#143500
1aaaaa
b10010011 aaaab
b11001000110110 aaaae

#144000
0aaaaa

#144500
1aaaaa
b10100011 aaaab
b11001100010011 aaaae

#145000
0aaaaa

#145500
1aaaaa
b1101101 aaaab
b11011001111101 aaaae

#146000
0aaaaa

#146500
1aaaaa
b10011111 aaaab
b11110001111011 aaaae

#147000
0aaaaa

#147500
1aaaaa
b111001 aaaab
b100010000000000 aaaae

#148000
0aaaaa

#148500
1aaaaa
b110101 aaaab
b100100011000111 aaaae

#149000
0aaaaa

#149500
1aaaaa
b10011101 aaaab
b100101000010110 aaaae

#150000
0aaaaa

#150500
1aaaaa
b1100000 aaaab
b100010110110000 aaaae

#151000
0aaaaa

#151500
1aaaaa
b11001100 aaaab
b11111101001110 aaaae

#152000
0aaaaa

#152500
1aaaaa
b10011010 aaaab
b11110011010000 aaaae

#153000
0aaaaa

#153500
1aaaaa
b10100001 aaaab
b11111111110101 aaaae

#154000
0aaaaa

#154500
1aaaaa
b11001010 aaaab
b100100110010111 aaaae

#155000
0aaaaa

#155500
1aaaaa
b1011010 aaaab
b101010001001011 aaaae

#156000
0aaaaa

#156500
1aaaaa
b10101000 aaaab
b101101110110101 aaaae

#157000
0aaaaa

#157500
1aaaaa
b10101010 aaaab
b101111101001000 aaaae

#158000
0aaaaa

#158500
1aaaaa
b1110100 aaaab
b101110110100010 aaaae

#159000
0aaaaa

#159500
1aaaaa
b1100011 aaaab
b101101100011001 aaaae

#160000
0aaaaa

#160500
1aaaaa
b111011 aaaab
b101011110001000 aaaae

#161000
0aaaaa

#161500
1aaaaa
b1011111 aaaab
b101001010001110 aaaae

#162000
0aaaaa

#162500
1aaaaa
b11000011 aaaab
b100101110101111 aaaae

#163000
0aaaaa

#163500
1aaaaa
b10010000 aaaab
b100001110110011 aaaae

#164000
0aaaaa

#164500
1aaaaa
b10001011 aaaab
b11111110010011 aaaae

#165000
0aaaaa

#165500
1aaaaa
b10010011 aaaab
b100001000101110 aaaae

#166000
0aaaaa

#166500
1aaaaa
b10011001 aaaab
b100100110011011 aaaae

#167000
0aaaaa

#167500
1aaaaa
b10011110 aaaab
b101000101111000 aaaae

#168000
0aaaaa

#168500
1aaaaa
b111000 aaaab
b101011000000000 aaaae

#169000
0aaaaa

#169500
1aaaaa
b1110110 aaaab
b101010111100101 aaaae

#170000
0aaaaa

#170500
1aaaaa
b10100001 aaaab
b101001100011101 aaaae

#171000
0aaaaa

#171500
1aaaaa
b10010101 aaaab
b100110111110001 aaaae

#172000
0aaaaa

#172500
1aaaaa
b10111000 aaaab
b100100111010011 aaaae

#173000
0aaaaa

#173500
1aaaaa
b100111 aaaab
b100100110010111 aaaae

#174000
0aaaaa

#174500
1aaaaa
b1100011 aaaab
b100110000011011 aaaae

#175000
0aaaaa

#175500
1aaaaa
b1000000 aaaab
b100111100100010 aaaae

#176000
0aaaaa

#176500
1aaaaa
b10001011 aaaab
b100101111001110 aaaae

#177000
0aaaaa

#177500
1aaaaa
b10011000 aaaab
b100010001100110 aaaae

#178000
0aaaaa

#178500
1aaaaa
b1110011 aaaab
b11110011110000 aaaae

#179000
0aaaaa

#179500
1aaaaa
b10101101 aaaab
b11101011101000 aaaae

#180000
0aaaaa

#180500
1aaaaa
b10000111 aaaab
b100000001000101 aaaae

#181000
0aaaaa

#181500
1aaaaa
b10010101 aaaab
b100011110011001 aaaae

#182000
0aaaaa

#182500
1aaaaa
b10100011 aaaab
b100111100100010 aaaae

#183000
0aaaaa

#183500
1aaaaa
b10000101 aaaab
b101001101010011 aaaae

#184000
0aaaaa

#184500
1aaaaa
b1111001 aaaab
b101010110110100 aaaae

#185000
0aaaaa

#185500
1aaaaa
b10101011 aaaab
b101011001101100 aaaae

#186000
0aaaaa

#186500
1aaaaa
b10001110 aaaab
b101010111011100 aaaae

#187000
0aaaaa

#187500
1aaaaa
b1101111 aaaab
b101010011110010 aaaae

#188000
0aaaaa

#188500
1aaaaa
b1101000 aaaab
b101001111010110 aaaae

#189000
0aaaaa

#189500
1aaaaa
b1111001 aaaab
b101001001101111 aaaae

#190000
0aaaaa

#190500
1aaaaa
b10100010 aaaab
b100111111000110 aaaae

#191000
0aaaaa

#191500
1aaaaa
b10000101 aaaab
b100110001101001 aaaae

#192000
0aaaaa

#192500
1aaaaa
b10100111 aaaab
b100100111010001 aaaae

#193000
0aaaaa

#193500
1aaaaa
b10000010 aaaab
b100101010110111 aaaae

#194000
0aaaaa

#194500
1aaaaa
b1111011 aaaab
b100111000000011 aaaae

#195000
0aaaaa

#195500
1aaaaa
b10000110 aaaab
b101000111101110 aaaae

#196000
0aaaaa

#196500
1aaaaa
b1111111 aaaab
b101001110000100 aaaae

#197000
0aaaaa

#197500
1aaaaa
b1100011 aaaab
b101001000110010 aaaae

#198000
0aaaaa

#198500
1aaaaa
b1110110 aaaab
b100111101000011 aaaae

#199000
0aaaaa

#199500
1aaaaa
b10101001 aaaab
b100101110011111 aaaae

#200000
0aaaaa

#200500
1aaaaa
b1111100 aaaab
b100100100111000 aaaae

#201000
0aaaaa

#201500
1aaaaa
b1111010 aaaab
b100100001001000 aaaae

#202000
0aaaaa

#202500
1aaaaa
b10110000 aaaab
b100100110100110 aaaae

#203000
0aaaaa

#203500
1aaaaa
b1100010 aaaab
b100110001101001 aaaae

#204000
0aaaaa

#204500
1aaaaa
b1011010 aaaab
b100111011000010 aaaae

#205000
0aaaaa

#205500
1aaaaa
b11000100 aaaab
b100111101110001 aaaae

#206000
0aaaaa

#206500
1aaaaa
b1111100 aaaab
b100111001001110 aaaae

#207000
0aaaaa

#207500
1aaaaa
b111100 aaaab
b100110010101100 aaaae

#208000
0aaaaa

#208500
1aaaaa
b10100001 aaaab
b100101110110100 aaaae

#209000
0aaaaa

#209500
1aaaaa
b10010110 aaaab
b100101100100110 aaaae

#210000
0aaaaa

#210500
1aaaaa
b10110001 aaaab
b100101001100010 aaaae

#211000
0aaaaa

#211500
1aaaaa
b1011111 aaaab
b100101011011001 aaaae

#212000
0aaaaa

#212500
1aaaaa
b10001111 aaaab
b100110001111100 aaaae

#213000
0aaaaa

#213500
1aaaaa
b1110100 aaaab
b101000000000011 aaaae

#214000
0aaaaa

#214500
1aaaaa
b110011 aaaab
b101000110110010 aaaae

#215000
0aaaaa

#215500
1aaaaa
b10101000 aaaab
b100111101110101 aaaae

#216000
0aaaaa

#216500
1aaaaa
b110111 aaaab
b100101011001001 aaaae

#217000
0aaaaa

#217500
1aaaaa
b1001001 aaaab
b100010000001000 aaaae

#218000
0aaaaa

#218500
1aaaaa
b110001 aaaab
b11111101111101 aaaae

#219000
0aaaaa

#219500
1aaaaa
b10111001 aaaab
b11101000101001 aaaae

#220000
0aaaaa

#220500
1aaaaa
b1101100 aaaab
b11011010010110 aaaae

#221000
0aaaaa

#221500
1aaaaa
b100010 aaaab
b11010011000001 aaaae

#222000
0aaaaa

#222500
1aaaaa
b1011101 aaaab
b11010111101000 aaaae

#223000
0aaaaa

#223500
1aaaaa
b1110110 aaaab
b11100100000001 aaaae

#224000
0aaaaa

#224500
1aaaaa
b10100100 aaaab
b11100110000001 aaaae

#225000
0aaaaa

#225500
1aaaaa
b1111011 aaaab
b11100110001010 aaaae

#226000
0aaaaa

#226500
1aaaaa
b1110101 aaaab
b11100111111100 aaaae

#227000
0aaaaa

#227500
1aaaaa
b1101100 aaaab
b11111011101000 aaaae

#228000
0aaaaa

#228500
1aaaaa
b10011011 aaaab
b100010100000000 aaaae

#229000
0aaaaa

#229500
1aaaaa
b10011010 aaaab
b100100101110001 aaaae

#230000
0aaaaa

#230500
1aaaaa
b111011 aaaab
b100101100011000 aaaae

#231000
0aaaaa

#231500
1aaaaa
b1100100 aaaab
b100101010110100 aaaae

#232000
0aaaaa

#232500
1aaaaa
b1001011 aaaab
b100101000001101 aaaae

#233000
0aaaaa

#233500
1aaaaa
b10111110 aaaab
b100011010011101 aaaae

#234000
0aaaaa

#234500
1aaaaa
b1111100 aaaab
b100001010010001 aaaae

#235000
0aaaaa

#235500
1aaaaa
b10000001 aaaab
b11111101000111 aaaae

#236000
0aaaaa

#236500
1aaaaa
b10001000 aaaab
b100000100000111 aaaae

#237000
0aaaaa

#237500
1aaaaa
b1101100 aaaab
b100011001101010 aaaae

#238000
0aaaaa

#238500
1aaaaa
b10000110 aaaab
b100101101001100 aaaae

#239000
0aaaaa

#239500
1aaaaa
b10010000 aaaab
b100110110101100 aaaae

#240000
0aaaaa

#240500
1aaaaa
b1111100 aaaab
b100110001110110 aaaae

#241000
0aaaaa

#241500
1aaaaa
b1001010 aaaab
b100101110001111 aaaae

#242000
0aaaaa

#242500
1aaaaa
b1001101 aaaab
b100101001110000 aaaae

#243000
0aaaaa

#243500
1aaaaa
b1100001 aaaab
b100100010100100 aaaae

#244000
0aaaaa

#244500
1aaaaa
b10101001 aaaab
b100010000111000 aaaae

#245000
0aaaaa

#245500
1aaaaa
b1011101 aaaab
b11111100001001 aaaae

#246000
0aaaaa

#246500
1aaaaa
b1010100 aaaab
b11101111011011 aaaae

#247000
0aaaaa

#247500
1aaaaa
b10000011 aaaab
b11110010010011 aaaae

#248000
0aaaaa

#248500
1aaaaa
b1001101 aaaab
b11111101010010 aaaae

#249000
0aaaaa

#249500
1aaaaa
b1111111 aaaab
b100000010010101 aaaae

#250000
0aaaaa

#250500
1aaaaa
b10111011 aaaab
b100000000100110 aaaae

#251000
0aaaaa

#251500
1aaaaa
b1110111 aaaab
b11111101111000 aaaae

#252000
0aaaaa

#252500
1aaaaa
b10000100 aaaab
b100000111011011 aaaae

#253000
0aaaaa

#253500
1aaaaa
b1101010 aaaab
b100011100101110 aaaae

#254000
0aaaaa

#254500
1aaaaa
b1010101 aaaab
b100110000100100 aaaae

#255000
0aaaaa

#255500
1aaaaa
b1010111 aaaab
b100110111100011 aaaae

#256000
0aaaaa

#256500
1aaaaa
b10010000 aaaab
b100101001110011 aaaae

#257000
0aaaaa

#257500
1aaaaa
b10001110 aaaab
b100010010011100 aaaae

#258000
0aaaaa

#258500
1aaaaa
b10101111 aaaab
b100000000111001 aaaae

#259000
0aaaaa

#259500
1aaaaa
b10000001 aaaab
b100000010110010 aaaae

#260000
0aaaaa

#260500
1aaaaa
b10100010 aaaab
b100011000011001 aaaae

#261000
0aaaaa

#261500
1aaaaa
b10100101 aaaab
b100110111001010 aaaae

#262000
0aaaaa

#262500
1aaaaa
b1000011 aaaab
b101010001010111 aaaae

#263000
0aaaaa

#263500
1aaaaa
b10010001 aaaab
b101011011110100 aaaae

#264000
0aaaaa

#264500
1aaaaa
b10000011 aaaab
b101011000101010 aaaae

#265000
0aaaaa

#265500
1aaaaa
b11000010 aaaab
b101000111010110 aaaae

#266000
0aaaaa

#266500
1aaaaa
b1000101 aaaab
b100111010111111 aaaae

#267000
0aaaaa

#267500
1aaaaa
b10100111 aaaab
b100110011011000 aaaae

#268000
0aaaaa

#268500
1aaaaa
b1101100 aaaab
b100111001000001 aaaae

#269000
0aaaaa

#269500
1aaaaa
b10001001 aaaab
b100111101001100 aaaae

#270000
0aaaaa

#270500
1aaaaa
b1101111 aaaab
b100111100010100 aaaae

#271000
0aaaaa

#271500
1aaaaa
b1101001 aaaab
b100110101100110 aaaae

#272000
0aaaaa

#272500
1aaaaa
b1010100 aaaab
b100101010100000 aaaae

#273000
0aaaaa

#273500
1aaaaa
b1100000 aaaab
b100100000110000 aaaae

#274000
0aaaaa

#274500
1aaaaa
b10110101 aaaab
b100010000010101 aaaae

#275000
0aaaaa

#275500
1aaaaa
b1100000 aaaab
b100000101000101 aaaae

#276000
0aaaaa

#276500
1aaaaa
b10000111 aaaab
b11111101101001 aaaae

#277000
0aaaaa

#277500
1aaaaa
b1010101 aaaab
b100000111001010 aaaae

#278000
0aaaaa

#278500
1aaaaa
b10000000 aaaab
b100010010101110 aaaae

#279000
0aaaaa

#279500
1aaaaa
b10100101 aaaab
b100011011101001 aaaae

#280000
0aaaaa

#280500
1aaaaa
b10000010 aaaab
b100011100001100 aaaae

#281000
0aaaaa

#281500
1aaaaa
b1111111 aaaab
b100011011011000 aaaae

#282000
0aaaaa

#282500
1aaaaa
b1101100 aaaab
b100100011111110 aaaae

#283000
0aaaaa

#283500
1aaaaa
b1000011 aaaab
b100101101100001 aaaae

#284000
0aaaaa

#284500
1aaaaa
b1101000 aaaab
b100110001001001 aaaae

#285000
0aaaaa

#285500
1aaaaa
b10101010 aaaab
b100100011100011 aaaae

#286000
0aaaaa

#286500
1aaaaa
b1110011 aaaab
b100001110110111 aaaae

#287000
0aaaaa

#287500
1aaaaa
b1010010 aaaab
b100000000111101 aaaae

#288000
0aaaaa

#288500
1aaaaa
b10011111 aaaab
b100000010000100 aaaae

#289000
0aaaaa

#289500
1aaaaa
b110100 aaaab
b100001110001010 aaaae

#290000
0aaaaa

#290500
1aaaaa
b10110001 aaaab
b100010100011100 aaaae

#291000
0aaaaa

#291500
1aaaaa
b10010010 aaaab
b100010101101011 aaaae

#292000
0aaaaa

#292500
1aaaaa
b10101101 aaaab
b100010001111101 aaaae

#293000
0aaaaa

#293500
1aaaaa
b10101111 aaaab
b100011011101001 aaaae

#294000
0aaaaa

#294500
1aaaaa
b1100010 aaaab
b100110010101111 aaaae

#295000
0aaaaa

#295500
1aaaaa
b10100001 aaaab
b101001101010111 aaaae

#296000
0aaaaa

#296500
1aaaaa
b10010101 aaaab
b101100011000110 aaaae

#297000
0aaaaa

#297500
1aaaaa
b1110101 aaaab
b101100100001000 aaaae

#298000
0aaaaa

#298500
1aaaaa
b1011001 aaaab
b101011101001100 aaaae

#299000
0aaaaa

#299500
1aaaaa
b111111 aaaab
b101001101001110 aaaae

#300000
0aaaaa

#300500
1aaaaa
b111100 aaaab
b100111000111011 aaaae

#301000
0aaaaa

#301500
1aaaaa
b1100100 aaaab
b100011011110110 aaaae

#302000
0aaaaa

#302500
1aaaaa
b1111000 aaaab
b11110110000100 aaaae

#303000
0aaaaa

#303500
1aaaaa
b1011111 aaaab
b11010110001001 aaaae

#304000
0aaaaa

#304500
1aaaaa
b1101100 aaaab
b11000110110111 aaaae

#305000
0aaaaa

#305500
1aaaaa
b1011100 aaaab
b11001101000011 aaaae

#306000
0aaaaa

#306500
1aaaaa
b10000111 aaaab
b11011100110011 aaaae

#307000
0aaaaa

#307500
1aaaaa
b101101 aaaab
b11101100010110 aaaae

#308000
0aaaaa

#308500
1aaaaa
b10000111 aaaab
b11110001010010 aaaae

#309000
0aaaaa

#309500
1aaaaa
b10110100 aaaab
b11110001101110 aaaae

#310000
0aaaaa

#310500
1aaaaa
b11011 aaaab
b11110010001111 aaaae

#311000
0aaaaa

#311500
1aaaaa
b10011000 aaaab
b11110101111011 aaaae

#312000
0aaaaa

#312500
1aaaaa
b111011 aaaab
b100000001001111 aaaae

#313000
0aaaaa

#313500
1aaaaa
b10000000 aaaab
b100000010101110 aaaae

#314000
0aaaaa

#314500
1aaaaa
b1110011 aaaab
b100000010000001 aaaae

#315000
0aaaaa

#315500
1aaaaa
b10110101 aaaab
b11110111110001 aaaae

#316000
0aaaaa

#316500
1aaaaa
b1011111 aaaab
b11110111101101 aaaae

#317000
0aaaaa

#317500
1aaaaa
b111010 aaaab
b100000011110101 aaaae

#318000
0aaaaa

#318500
1aaaaa
b10100101 aaaab
b100010010011110 aaaae

#319000
0aaaaa

#319500
1aaaaa
b1101101 aaaab
b100011110000111 aaaae

#320000
0aaaaa

#320500
1aaaaa
b1010001 aaaab
b100010111101001 aaaae

#321000
0aaaaa

#321500
1aaaaa
b1110111 aaaab
b100001111100000 aaaae

#322000
0aaaaa

#322500
1aaaaa
b1110001 aaaab
b100000101111010 aaaae

#323000
0aaaaa

#323500
1aaaaa
b111000 aaaab
b100000010010111 aaaae

#324000
0aaaaa

#324500
1aaaaa
b1110000 aaaab
b11111101011000 aaaae

#325000
0aaaaa

#325500
1aaaaa
b10001111 aaaab
b11110101000010 aaaae

#326000
0aaaaa

#326500
1aaaaa
b10011100 aaaab
b11101101011101 aaaae

#327000
0aaaaa

#327500
1aaaaa
b1100010 aaaab
b11101110100101 aaaae

#328000
0aaaaa

#328500
1aaaaa
b1011000 aaaab
b11111100000000 aaaae

#329000
0aaaaa

#329500
1aaaaa
b10100100 aaaab
b100001110110010 aaaae

#330000
0aaaaa

#330500
1aaaaa
b1010110 aaaab
b100011101001100 aaaae

#331000
0aaaaa

#331500
1aaaaa
b1011011 aaaab
b100011101110011 aaaae

#332000
0aaaaa

#332500
1aaaaa
b10001100 aaaab
b100010111011100 aaaae

#333000
0aaaaa

#333500
1aaaaa
b10111000 aaaab
b100001101110000 aaaae

#334000
0aaaaa

