0_algorithm/sc_emulated/sc_fir8.vcd
$date
     Apr 01, 2024       22:34:13
$end

$version
 SystemC 3.0.0_pub_rev_20231124-Accellera --- Mar 26 2024 09:40:07
$end

$timescale
     100 ps
$end

$scope module SystemC $end
$var wire    8  aaaaa  X_0 [7:0]  $end
$var wire    8  aaaab  X_1 [7:0]  $end
$var wire    8  aaaac  X_2 [7:0]  $end
$var wire    8  aaaad  X_3 [7:0]  $end
$var wire    8  aaaae  X_4 [7:0]  $end
$var wire    8  aaaaf  X_5 [7:0]  $end
$var wire    8  aaaag  X_6 [7:0]  $end
$var wire    8  aaaah  X_7 [7:0]  $end
$var wire   16  aaaai  Yout [15:0]  $end
$var wire   16  aaaaj  Yin [15:0]  $end
$var wire    8  aaaak  Xout [7:0]  $end
$var wire    8  aaaal  Xin [7:0]  $end
$var wire    1  aaaam  clk       $end
$upscope $end
$enddefinitions  $end

$comment
All initial values are dumped below at time 0 sec = 0 timescale units.
$end

$dumpvars
b0 aaaaa
b0 aaaab
b0 aaaac
b0 aaaad
b0 aaaae
b0 aaaaf
b0 aaaag
b0 aaaah
b0 aaaai
b0 aaaaj
b0 aaaak
b0 aaaal
0aaaam
$end

#500
b10001100 aaaal
1aaaam

#1000
0aaaam

#1500
b10001100 aaaaa
b1000110000 aaaai
b1011100 aaaal
1aaaam

#2000
0aaaam

#2500
b1011100 aaaaa
b10001100 aaaab
b100000000000 aaaai
b10001101 aaaal
1aaaam

#3000
0aaaam

#3500
b10001101 aaaaa
b1011100 aaaab
b10001100 aaaac
b1010000110000 aaaai
b1011011 aaaal
1aaaam

#4000
0aaaam

#4500
b1011011 aaaaa
b10001101 aaaab
b1011100 aaaac
b10001100 aaaad
b10001110011100 aaaai
b10000001 aaaal
1aaaam

#5000
0aaaam

#5500
b10000001 aaaaa
b1011011 aaaab
b10001101 aaaac
b1011100 aaaad
b10001100 aaaae
b11001011011101 aaaai
b1011100 aaaal
1aaaam

#6000
0aaaam

#6500
b1011100 aaaaa
b10000001 aaaab
b1011011 aaaac
b10001101 aaaad
b1011100 aaaae
b10001100 aaaaf
b11110011111101 aaaai
b1100110 aaaal
1aaaam

#7000
0aaaam

#7500
b1100110 aaaaa
b1011100 aaaab
b10000001 aaaac
b1011011 aaaad
b10001101 aaaae
b1011100 aaaaf
b10001100 aaaag
b100000011011101 aaaai
b11001110 aaaal
1aaaam

#8000
0aaaam

#8500
b11001110 aaaaa
b1100110 aaaab
b1011100 aaaac
b10000001 aaaad
b1011011 aaaae
b10001101 aaaaf
b1011100 aaaag
b10001100 aaaah
b100001001111001 aaaai
b10011101 aaaal
1aaaam

#9000
0aaaam

#9500
b10011101 aaaaa
b11001110 aaaab
b1100110 aaaac
b1011100 aaaad
b10000001 aaaae
b1011011 aaaaf
b10001101 aaaag
b1011100 aaaah
b100010001011011 aaaai
b1101111 aaaal
1aaaam

#10000
0aaaam

#10500
b1101111 aaaaa
b10011101 aaaab
b11001110 aaaac
b1100110 aaaad
b1011100 aaaae
b10000001 aaaaf
b1011011 aaaag
b10001101 aaaah
b100101000001011 aaaai
b10100001 aaaal
1aaaam

#11000
0aaaam

#11500
b10100001 aaaaa
b1101111 aaaab
b10011101 aaaac
b11001110 aaaad
b1100110 aaaae
b1011100 aaaaf
b10000001 aaaag
b1011011 aaaah
b101000001101001 aaaai
b1101010 aaaal
1aaaam

#12000
0aaaam

#12500
b1101010 aaaaa
b10100001 aaaab
b1101111 aaaac
b10011101 aaaad
b11001110 aaaae
b1100110 aaaaf
b1011100 aaaag
b10000001 aaaah
b101010010001011 aaaai
b1010001 aaaal
1aaaam

#13000
0aaaam

#13500
b1010001 aaaaa
b1101010 aaaab
b10100001 aaaac
b1101111 aaaad
b10011101 aaaae
b11001110 aaaaf
b1100110 aaaag
b1011100 aaaah
b101001111100011 aaaai
b1110010 aaaal
1aaaam

#14000
0aaaam

#14500
b1110010 aaaaa
b1010001 aaaab
b1101010 aaaac
b10100001 aaaad
b1101111 aaaae
b10011101 aaaaf
b11001110 aaaag
b1100110 aaaah
b100111010100011 aaaai
b1011110 aaaal
1aaaam

#15000
0aaaam

#15500
b1011110 aaaaa
b1110010 aaaab
b1010001 aaaac
b1101010 aaaad
b10100001 aaaae
b1101111 aaaaf
b10011101 aaaag
b11001110 aaaah
b100011110011010 aaaai
b10001111 aaaal
1aaaam

#16000
0aaaam

#16500
b10001111 aaaaa
b1011110 aaaab
b1110010 aaaac
b1010001 aaaad
b1101010 aaaae
b10100001 aaaaf
b1101111 aaaag
b10011101 aaaah
b100000111111101 aaaai
b1001001 aaaal
1aaaam

#17000
0aaaam

#17500
b1001001 aaaaa
b10001111 aaaab
b1011110 aaaac
b1110010 aaaad
b1010001 aaaae
b1101010 aaaaf
b10100001 aaaag
b1101111 aaaah
b11111010001110 aaaai
b1101001 aaaal
1aaaam

#18000
0aaaam

#18500
b1101001 aaaaa
b1001001 aaaab
b10001111 aaaac
b1011110 aaaad
b1110010 aaaae
b1010001 aaaaf
b1101010 aaaag
b10100001 aaaah
b11111000001100 aaaai
b10100000 aaaal
1aaaam

#19000
0aaaam

#19500
b10100000 aaaaa
b1101001 aaaab
b1001001 aaaac
b10001111 aaaad
b1011110 aaaae
b1110010 aaaaf
b1010001 aaaag
b1101010 aaaah
b11111010011101 aaaai
b1100110 aaaal
1aaaam

#20000
0aaaam

#20500
b1100110 aaaaa
b10100000 aaaab
b1101001 aaaac
b1001001 aaaad
b10001111 aaaae
b1011110 aaaaf
b1110010 aaaag
b1010001 aaaah
b11111111010011 aaaai
b1111111 aaaal
1aaaam

#21000
0aaaam

#21500
b1111111 aaaaa
b1100110 aaaab
b10100000 aaaac
b1101001 aaaad
b1001001 aaaae
b10001111 aaaaf
b1011110 aaaag
b1110010 aaaah
b100001000101111 aaaai
b10100000 aaaal
1aaaam

#22000
0aaaam

#22500
b10100000 aaaaa
b1111111 aaaab
b1100110 aaaac
b10100000 aaaad
b1101001 aaaae
b1001001 aaaaf
b10001111 aaaag
b1011110 aaaah
b100010011101001 aaaai
b10010010 aaaal
1aaaam

#23000
0aaaam

#23500
b10010010 aaaaa
b10100000 aaaab
b1111111 aaaac
b1100110 aaaad
b10100000 aaaae
b1101001 aaaaf
b1001001 aaaag
b10001111 aaaah
b100100011100100 aaaai
b10010011 aaaal
1aaaam

#24000
0aaaam

#24500
b10010011 aaaaa
b10010010 aaaab
b10100000 aaaac
b1111111 aaaad
b1100110 aaaae
b10100000 aaaaf
b1101001 aaaag
b1001001 aaaah
b100110011011110 aaaai
b1001011 aaaal
1aaaam

#25000
0aaaam

#25500
b1001011 aaaaa
b10010011 aaaab
b10010010 aaaac
b10100000 aaaad
b1111111 aaaae
b1100110 aaaaf
b10100000 aaaag
b1101001 aaaah
b100111110001010 aaaai
b10101100 aaaal
1aaaam

#26000
0aaaam

#26500
b10101100 aaaaa
b1001011 aaaab
b10010011 aaaac
b10010010 aaaad
b10100000 aaaae
b1111111 aaaaf
b1100110 aaaag
b10100000 aaaah
b101000011100010 aaaai
b10001011 aaaal
1aaaam

#27000
0aaaam

#27500
b10001011 aaaaa
b10101100 aaaab
b1001011 aaaac
b10010011 aaaad
b10010010 aaaae
b10100000 aaaaf
b1111111 aaaag
b1100110 aaaah
b100111110100101 aaaai
b10010010 aaaal
1aaaam

#28000
0aaaam

#28500
b10010010 aaaaa
b10001011 aaaab
b10101100 aaaac
b1001011 aaaad
b10010011 aaaae
b10010010 aaaaf
b10100000 aaaag
b1111111 aaaah
b100111011010010 aaaai
b1011000 aaaal
1aaaam

#29000
0aaaam

#29500
b1011000 aaaaa
b10010010 aaaab
b10001011 aaaac
b10101100 aaaad
b1001011 aaaae
b10010011 aaaaf
b10010010 aaaag
b10100000 aaaah
b100111001001100 aaaai
b1011111 aaaal
1aaaam

#30000
0aaaam

#30500
b1011111 aaaaa
b1011000 aaaab
b10010010 aaaac
b10001011 aaaad
b10101100 aaaae
b1001011 aaaaf
b10010011 aaaag
b10010010 aaaah
b100110110101011 aaaai
b10011111 aaaal
1aaaam

#31000
0aaaam

#31500
b10011111 aaaaa
b1011111 aaaab
b1011000 aaaac
b10010010 aaaad
b10001011 aaaae
b10101100 aaaaf
b1001011 aaaag
b10010011 aaaah
b100101111111110 aaaai
b1001111 aaaal
1aaaam

#32000
0aaaam

#32500
b1001111 aaaaa
b10011111 aaaab
b1011111 aaaac
b1011000 aaaad
b10010010 aaaae
b10001011 aaaaf
b10101100 aaaag
b1001011 aaaah
b100011111011010 aaaai
b10101100 aaaal
1aaaam

#33000
0aaaam

#33500
b10101100 aaaaa
b1001111 aaaab
b10011111 aaaac
b1011111 aaaad
b1011000 aaaae
b10010010 aaaaf
b10001011 aaaag
b10101100 aaaah
b100010110101111 aaaai
b1001111 aaaal
1aaaam

#34000
0aaaam

#34500
b1001111 aaaaa
b10101100 aaaab
b1001111 aaaac
b10011111 aaaad
b1011111 aaaae
b1011000 aaaaf
b10010010 aaaag
b10001011 aaaah
b100010001011011 aaaai
b10001100 aaaal
1aaaam

#35000
0aaaam

#35500
b10001100 aaaaa
b1001111 aaaab
b10101100 aaaac
b1001111 aaaad
b10011111 aaaae
b1011111 aaaaf
b1011000 aaaag
b10010010 aaaah
b100010111111011 aaaai
b1111111 aaaal
1aaaam

#36000
0aaaam

#36500
b1111111 aaaaa
b10001100 aaaab
b1001111 aaaac
b10101100 aaaad
b1001111 aaaae
b10011111 aaaaf
b1011111 aaaag
b1011000 aaaah
b100011011110100 aaaai
b1100000 aaaal
1aaaam

#37000
0aaaam

#37500
b1100000 aaaaa
b1111111 aaaab
b10001100 aaaac
b1001111 aaaad
b10101100 aaaae
b1001111 aaaaf
b10011111 aaaag
b1011111 aaaah
b100011100011101 aaaai
b10101000 aaaal
1aaaam

#38000
0aaaam

#38500
b10101000 aaaaa
b1100000 aaaab
b1111111 aaaac
b10001100 aaaad
b1001111 aaaae
b10101100 aaaaf
b1001111 aaaag
b10011111 aaaah
b100011110011001 aaaai
b1111100 aaaal
1aaaam

#39000
0aaaam

#39500
b1111100 aaaaa
b10101000 aaaab
b1100000 aaaac
b1111111 aaaad
b10001100 aaaae
b1001111 aaaaf
b10101100 aaaag
b1001111 aaaah
b100011110101001 aaaai
b1010101 aaaal
1aaaam

#40000
0aaaam

#40500
b1010101 aaaaa
b1111100 aaaab
b10101000 aaaac
b1100000 aaaad
b1111111 aaaae
b10001100 aaaaf
b1001111 aaaag
b10101100 aaaah
b100100100111010 aaaai
b1010000 aaaal
1aaaam

#41000
0aaaam

#41500
b1010000 aaaaa
b1010101 aaaab
b1111100 aaaac
b10101000 aaaad
b1100000 aaaae
b1111111 aaaaf
b10001100 aaaag
b1001111 aaaah
b100100010011011 aaaai
b1100110 aaaal
1aaaam

#42000
0aaaam

#42500
b1100110 aaaaa
b1010000 aaaab
b1010101 aaaac
b1111100 aaaad
b10101000 aaaae
b1100000 aaaaf
b1111111 aaaag
b10001100 aaaah
b100010111110001 aaaai
b1110110 aaaal
1aaaam

#43000
0aaaam

#43500
b1110110 aaaaa
b1100110 aaaab
b1010000 aaaac
b1010101 aaaad
b1111100 aaaae
b10101000 aaaaf
b1100000 aaaag
b1111111 aaaah
b100000100010110 aaaai
b1100110 aaaal
1aaaam

#44000
0aaaam

#44500
b1100110 aaaaa
b1110110 aaaab
b1100110 aaaac
b1010000 aaaad
b1010101 aaaae
b1111100 aaaaf
b10101000 aaaag
b1100000 aaaah
b11110001111100 aaaai
b1101001 aaaal
1aaaam

#45000
0aaaam

#45500
b1101001 aaaaa
b1100110 aaaab
b1110110 aaaac
b1100110 aaaad
b1010000 aaaae
b1010101 aaaaf
b1111100 aaaag
b10101000 aaaah
b11101011011011 aaaai
b1000111 aaaal
1aaaam

#46000
0aaaam

#46500
b1000111 aaaaa
b1101001 aaaab
b1100110 aaaac
b1110110 aaaad
b1100110 aaaae
b1010000 aaaaf
b1010101 aaaag
b1111100 aaaah
b11101011110010 aaaai
b1000010 aaaal
1aaaam

#47000
0aaaam

#47500
b1000010 aaaaa
b1000111 aaaab
b1101001 aaaac
b1100110 aaaad
b1110110 aaaae
b1100110 aaaaf
b1010000 aaaag
b1010101 aaaah
b11101011011111 aaaai
b1110000 aaaal
1aaaam

#48000
0aaaam

#48500
b1110000 aaaaa
b1000010 aaaab
b1000111 aaaac
b1101001 aaaad
b1100110 aaaae
b1110110 aaaaf
b1100110 aaaag
b1010000 aaaah
b11100011010011 aaaai
b10010011 aaaal
1aaaam

#49000
0aaaam

#49500
b10010011 aaaaa
b1110000 aaaab
b1000010 aaaac
b1000111 aaaad
b1101001 aaaae
b1100110 aaaaf
b1110110 aaaag
b1100110 aaaah
b11011001110100 aaaai
b1111011 aaaal
1aaaam

#50000
0aaaam

#50500
b1111011 aaaaa
b10010011 aaaab
b1110000 aaaac
b1000010 aaaad
b1000111 aaaae
b1101001 aaaaf
b1100110 aaaag
b1110110 aaaah
b11011011010011 aaaai
b10110101 aaaal
1aaaam

#51000
0aaaam

#51500
b10110101 aaaaa
b1111011 aaaab
b10010011 aaaac
b1110000 aaaad
b1000010 aaaae
b1000111 aaaaf
b1101001 aaaag
b1100110 aaaah
b11110000001010 aaaai
b1100110 aaaal
1aaaam

#52000
0aaaam

#52500
b1100110 aaaaa
b10110101 aaaab
b1111011 aaaac
b10010011 aaaad
b1110000 aaaae
b1000010 aaaaf
b1000111 aaaag
b1101001 aaaah
b100001111100111 aaaai
b10000010 aaaal
1aaaam

#53000
0aaaam

#53500
b10000010 aaaaa
b1100110 aaaab
b10110101 aaaac
b1111011 aaaad
b10010011 aaaae
b1110000 aaaaf
b1000010 aaaag
b1000111 aaaah
b100101101111101 aaaai
b10100111 aaaal
1aaaam

#54000
0aaaam

#54500
b10100111 aaaaa
b10000010 aaaab
b1100110 aaaac
b10110101 aaaad
b1111011 aaaae
b10010011 aaaaf
b1110000 aaaag
b1000010 aaaah
b100111110101101 aaaai
b1001010 aaaal
1aaaam

#55000
0aaaam

#55500
b1001010 aaaaa
b10100111 aaaab
b10000010 aaaac
b1100110 aaaad
b10110101 aaaae
b1111011 aaaaf
b10010011 aaaag
b1110000 aaaah
b100111111101011 aaaai
b1100010 aaaal
1aaaam

#56000
0aaaam

#56500
b1100010 aaaaa
b1001010 aaaab
b10100111 aaaac
b10000010 aaaad
b1100110 aaaae
b10110101 aaaaf
b1111011 aaaag
b10010011 aaaah
b100110111011100 aaaai
b10000011 aaaal
1aaaam

#57000
0aaaam

#57500
b10000011 aaaaa
b1100010 aaaab
b1001010 aaaac
b10100111 aaaad
b10000010 aaaae
b1100110 aaaaf
b10110101 aaaag
b1111011 aaaah
b100100110101110 aaaai
b10101110 aaaal
1aaaam

#58000
0aaaam

#58500
b10101110 aaaaa
b10000011 aaaab
b1100010 aaaac
b1001010 aaaad
b10100111 aaaae
b10000010 aaaaf
b1100110 aaaag
b10110101 aaaah
b100011010111110 aaaai
b1111011 aaaal
1aaaam

#59000
0aaaam

#59500
b1111011 aaaaa
b10101110 aaaab
b10000011 aaaac
b1100010 aaaad
b1001010 aaaae
b10100111 aaaaf
b10000010 aaaag
b1100110 aaaah
b100010110110110 aaaai
b10100100 aaaal
1aaaam

#60000
0aaaam

#60500
b10100100 aaaaa
b1111011 aaaab
b10101110 aaaac
b10000011 aaaad
b1100010 aaaae
b1001010 aaaaf
b10100111 aaaag
b10000010 aaaah
b100100011010010 aaaai
b1011110 aaaal
1aaaam

#61000
0aaaam

#61500
b1011110 aaaaa
b10100100 aaaab
b1111011 aaaac
b10101110 aaaad
b10000011 aaaae
b1100010 aaaaf
b1001010 aaaag
b10100111 aaaah
b100110101010011 aaaai
b1010110 aaaal
1aaaam

#62000
0aaaam

#62500
b1010110 aaaaa
b1011110 aaaab
b10100100 aaaac
b1111011 aaaad
b10101110 aaaae
b10000011 aaaaf
b1100010 aaaag
b1001010 aaaah
b100111111000001 aaaai
b1010010 aaaal
1aaaam

#63000
0aaaam

#63500
b1010010 aaaaa
b1010110 aaaab
b1011110 aaaac
b10100100 aaaad
b1111011 aaaae
b10101110 aaaaf
b10000011 aaaag
b1100010 aaaah
b100110101000110 aaaai
b1011111 aaaal
1aaaam

#64000
0aaaam

#64500
b1011111 aaaaa
b1010010 aaaab
b1010110 aaaac
b1011110 aaaad
b10100100 aaaae
b1111011 aaaaf
b10101110 aaaag
b10000011 aaaah
b100011000110101 aaaai
b1010101 aaaal
1aaaam

#65000
0aaaam

#65500
b1010101 aaaaa
b1011111 aaaab
b1010010 aaaac
b1010110 aaaad
b1011110 aaaae
b10100100 aaaaf
b1111011 aaaag
b10101110 aaaah
b11111000110010 aaaai
b10011011 aaaal
1aaaam

#66000
0aaaam

#66500
b10011011 aaaaa
b1010101 aaaab
b1011111 aaaac
b1010010 aaaad
b1010110 aaaae
b1011110 aaaaf
b10100100 aaaag
b1111011 aaaah
b11100011001001 aaaai
b11000011 aaaal
1aaaam

#67000
0aaaam

#67500
b11000011 aaaaa
b10011011 aaaab
b1010101 aaaac
b1011111 aaaad
b1010010 aaaae
b1010110 aaaaf
b1011110 aaaag
b10100100 aaaah
b11100101111101 aaaai
b10000010 aaaal
1aaaam

#68000
0aaaam

#68500
b10000010 aaaaa
b11000011 aaaab
b10011011 aaaac
b1010101 aaaad
b1011111 aaaae
b1010010 aaaaf
b1010110 aaaag
b1011110 aaaah
b11111110111001 aaaai
b10110110 aaaal
1aaaam

#69000
0aaaam

#69500
b10110110 aaaaa
b10000010 aaaab
b11000011 aaaac
b10011011 aaaad
b1010101 aaaae
b1011111 aaaaf
b1010010 aaaag
b1010110 aaaah
b100101001010010 aaaai
b1111010 aaaal
1aaaam

#70000
0aaaam

#70500
b1111010 aaaaa
b10110110 aaaab
b10000010 aaaac
b11000011 aaaad
b10011011 aaaae
b1010101 aaaaf
b1011111 aaaag
b1010010 aaaah
b101001110100111 aaaai
b111111 aaaal
1aaaam

#71000
0aaaam

#71500
b111111 aaaaa
b1111010 aaaab
b10110110 aaaac
b10000010 aaaad
b11000011 aaaae
b10011011 aaaaf
b1010101 aaaag
b1011111 aaaah
b101100000111111 aaaai
b10100111 aaaal
1aaaam

#72000
0aaaam

#72500
b10100111 aaaaa
b111111 aaaab
b1111010 aaaac
b10110110 aaaad
b10000010 aaaae
b11000011 aaaaf
b10011011 aaaag
b1010101 aaaah
b101011010001101 aaaai
b1101011 aaaal
1aaaam

#73000
0aaaam

#73500
b1101011 aaaaa
b10100111 aaaab
b111111 aaaac
b1111010 aaaad
b10110110 aaaae
b10000010 aaaaf
b11000011 aaaag
b10011011 aaaah
b101000001001001 aaaai
b10101011 aaaal
1aaaam

#74000
0aaaam

#74500
b10101011 aaaaa
b1101011 aaaab
b10100111 aaaac
b111111 aaaad
b1111010 aaaae
b10110110 aaaaf
b10000010 aaaag
b11000011 aaaah
b100101101111011 aaaai
b110110 aaaal
1aaaam

#75000
0aaaam

#75500
b110110 aaaaa
b10101011 aaaab
b1101011 aaaac
b10100111 aaaad
b111111 aaaae
b1111010 aaaaf
b10110110 aaaag
b10000010 aaaah
b100100001010101 aaaai
b1110100 aaaal
1aaaam

#76000
0aaaam

#76500
b1110100 aaaaa
b110110 aaaab
b10101011 aaaac
b1101011 aaaad
b10100111 aaaae
b111111 aaaaf
b1111010 aaaag
b10110110 aaaah
b100100000100110 aaaai
b10110111 aaaal
1aaaam

#77000
0aaaam

#77500
b10110111 aaaaa
b1110100 aaaab
b110110 aaaac
b10101011 aaaad
b1101011 aaaae
b10100111 aaaaf
b111111 aaaag
b1111010 aaaah
b100011110101001 aaaai
b1001000 aaaal
1aaaam

#78000
0aaaam

#78500
b1001000 aaaaa
b10110111 aaaab
b1110100 aaaac
b110110 aaaad
b10101011 aaaae
b1101011 aaaaf
b10100111 aaaag
b111111 aaaah
b100011000101101 aaaai
b10100001 aaaal
1aaaam

#79000
0aaaam

#79500
b10100001 aaaaa
b1001000 aaaab
b10110111 aaaac
b1110100 aaaad
b110110 aaaae
b10101011 aaaaf
b1101011 aaaag
b10100111 aaaah
b100011010101010 aaaai
b1000011 aaaal
1aaaam

#80000
0aaaam

#80500
b1000011 aaaaa
b10100001 aaaab
b1001000 aaaac
b10110111 aaaad
b1110100 aaaae
b110110 aaaaf
b10101011 aaaag
b1101011 aaaah
b100011001001100 aaaai
b1010011 aaaal
1aaaam

#81000
0aaaam

#81500
b1010011 aaaaa
b1000011 aaaab
b10100001 aaaac
b1001000 aaaad
b10110111 aaaae
b1110100 aaaaf
b110110 aaaag
b10101011 aaaah
b100011010001111 aaaai
b1111010 aaaal
1aaaam

#82000
0aaaam

#82500
b1111010 aaaaa
b1010011 aaaab
b1000011 aaaac
b10100001 aaaad
b1001000 aaaae
b10110111 aaaaf
b1110100 aaaag
b110110 aaaah
b100001101110000 aaaai
b10100100 aaaal
1aaaam

#83000
0aaaam

#83500
b10100100 aaaaa
b1111010 aaaab
b1010011 aaaac
b1000011 aaaad
b10100001 aaaae
b1001000 aaaaf
b10110111 aaaag
b1110100 aaaah
b100000000010111 aaaai
b10101111 aaaal
1aaaam

#84000
0aaaam

#84500
b10101111 aaaaa
b10100100 aaaab
b1111010 aaaac
b1010011 aaaad
b1000011 aaaae
b10100001 aaaaf
b1001000 aaaag
b10110111 aaaah
b100000000110111 aaaai
b1100010 aaaal
1aaaam

#85000
0aaaam

#85500
b1100010 aaaaa
b10101111 aaaab
b10100100 aaaac
b1111010 aaaad
b1010011 aaaae
b1000011 aaaaf
b10100001 aaaag
b1001000 aaaah
b100010000110001 aaaai
b10110000 aaaal
1aaaam

#86000
0aaaam

#86500
b10110000 aaaaa
b1100010 aaaab
b10101111 aaaac
b10100100 aaaad
b1111010 aaaae
b1010011 aaaaf
b1000011 aaaag
b10100001 aaaah
b100110000101110 aaaai
b11001001 aaaal
1aaaam

#87000
0aaaam

#87500
b11001001 aaaaa
b10110000 aaaab
b1100010 aaaac
b10101111 aaaad
b10100100 aaaae
b1111010 aaaaf
b1010011 aaaag
b1000011 aaaah
b101001011010110 aaaai
b1001110 aaaal
1aaaam

#88000
0aaaam

#88500
b1001110 aaaaa
b11001001 aaaab
b10110000 aaaac
b1100010 aaaad
b10101111 aaaae
b10100100 aaaaf
b1111010 aaaag
b1010011 aaaah
b101011100011110 aaaai
b10011101 aaaal
1aaaam

#89000
0aaaam

#89500
b10011101 aaaaa
b1001110 aaaab
b11001001 aaaac
b10110000 aaaad
b1100010 aaaae
b10101111 aaaaf
b10100100 aaaag
b1111010 aaaah
b101100011010000 aaaai
b1111101 aaaal
1aaaam

#90000
0aaaam

#90500
b1111101 aaaaa
b10011101 aaaab
b1001110 aaaac
b11001001 aaaad
b10110000 aaaae
b1100010 aaaaf
b10101111 aaaag
b10100100 aaaah
b101011101010110 aaaai
b10011100 aaaal
1aaaam

#91000
0aaaam

#91500
b10011100 aaaaa
b1111101 aaaab
b10011101 aaaac
b1001110 aaaad
b11001001 aaaae
b10110000 aaaaf
b1100010 aaaag
b10101111 aaaah
b101010100110011 aaaai
b1100000 aaaal
1aaaam

#92000
0aaaam

#92500
b1100000 aaaaa
b10011100 aaaab
b1111101 aaaac
b10011101 aaaad
b1001110 aaaae
b11001001 aaaaf
b10110000 aaaag
b1100010 aaaah
b101000110100100 aaaai
b1011000 aaaal
1aaaam

#93000
0aaaam

#93500
b1011000 aaaaa
b1100000 aaaab
b10011100 aaaac
b1111101 aaaad
b10011101 aaaae
b1001110 aaaaf
b11001001 aaaag
b10110000 aaaah
b100111001011010 aaaai
b1100100 aaaal
1aaaam

#94000
0aaaam

#94500
b1100100 aaaaa
b1011000 aaaab
b1100000 aaaac
b10011100 aaaad
b1111101 aaaae
b10011101 aaaaf
b1001110 aaaag
b11001001 aaaah
b100101010000011 aaaai
b10001000 aaaal
1aaaam

#95000
0aaaam

#95500
b10001000 aaaaa
b1100100 aaaab
b1011000 aaaac
b1100000 aaaad
b10011100 aaaae
b1111101 aaaaf
b10011101 aaaag
b1001110 aaaah
b100010110101001 aaaai
b10010111 aaaal
1aaaam

#96000
0aaaam

#96500
b10010111 aaaaa
b10001000 aaaab
b1100100 aaaac
b1011000 aaaad
b1100000 aaaae
b10011100 aaaaf
b1111101 aaaag
b10011101 aaaah
b100001001111100 aaaai
b11011110 aaaal
1aaaam

#97000
0aaaam

#97500
b11011110 aaaaa
b10010111 aaaab
b10001000 aaaac
b1100100 aaaad
b1011000 aaaae
b1100000 aaaaf
b10011100 aaaag
b1111101 aaaah
b100001101110000 aaaai
b1100000 aaaal
1aaaam

#98000
0aaaam

#98500
b1100000 aaaaa
b11011110 aaaab
b10010111 aaaac
b10001000 aaaad
b1100100 aaaae
b1011000 aaaaf
b1100000 aaaag
b10011100 aaaah
b100100110000111 aaaai
b1111111 aaaal
1aaaam

#99000
0aaaam

#99500
b1111111 aaaaa
b1100000 aaaab
b11011110 aaaac
b10010111 aaaad
b10001000 aaaae
b1100100 aaaaf
b1011000 aaaag
b1100000 aaaah
b101000110101100 aaaai
b10000001 aaaal
1aaaam

#100000
0aaaam

#100500
b10000001 aaaaa
b1111111 aaaab
b1100000 aaaac
b11011110 aaaad
b10010111 aaaae
b10001000 aaaaf
b1100100 aaaag
b1011000 aaaah
b101011000111010 aaaai
b10011111 aaaal
1aaaam

#101000
0aaaam

#101500
b10011111 aaaaa
b10000001 aaaab
b1111111 aaaac
b1100000 aaaad
b11011110 aaaae
b10010111 aaaaf
b10001000 aaaag
b1100100 aaaah
b101010111011010 aaaai
b10000000 aaaal
1aaaam

#102000
0aaaam

#102500
b10000000 aaaaa
b10011111 aaaab
b10000001 aaaac
b1111111 aaaad
b1100000 aaaae
b11011110 aaaaf
b10010111 aaaag
b10001000 aaaah
b101001010001101 aaaai
b1011101 aaaal
1aaaam

#103000
0aaaam

#103500
b1011101 aaaaa
b10000000 aaaab
b10011111 aaaac
b10000001 aaaad
b1111111 aaaae
b1100000 aaaaf
b11011110 aaaag
b10010111 aaaah
b100111100011111 aaaai
b10011001 aaaal
1aaaam

#104000
0aaaam

#104500
b10011001 aaaaa
b1011101 aaaab
b10000000 aaaac
b10011111 aaaad
b10000001 aaaae
b1111111 aaaaf
b1100000 aaaag
b11011110 aaaah
b100110111011111 aaaai
b1011100 aaaal
1aaaam

#105000
0aaaam

#105500
b1011100 aaaaa
b10011001 aaaab
b1011101 aaaac
b10000000 aaaad
b10011111 aaaae
b10000001 aaaaf
b1111111 aaaag
b1100000 aaaah
b100101111011100 aaaai
b1110011 aaaal
1aaaam

#106000
0aaaam

#106500
b1110011 aaaaa
b1011100 aaaab
b10011001 aaaac
b1011101 aaaad
b10000000 aaaae
b10011111 aaaaf
b10000001 aaaag
b1111111 aaaah
b100100111110110 aaaai
b1111111 aaaal
1aaaam

#107000
0aaaam

#107500
b1111111 aaaaa
b1110011 aaaab
b1011100 aaaac
b10011001 aaaad
b1011101 aaaae
b10000000 aaaaf
b10011111 aaaag
b10000001 aaaah
b100011100000000 aaaai
b1001000 aaaal
1aaaam

#108000
0aaaam

#108500
b1001000 aaaaa
b1111111 aaaab
b1110011 aaaac
b1011100 aaaad
b10011001 aaaae
b1011101 aaaaf
b10000000 aaaag
b10011111 aaaah
b100010001101010 aaaai
b10010101 aaaal
1aaaam

#109000
0aaaam

#109500
b10010101 aaaaa
b1001000 aaaab
b1111111 aaaac
b1110011 aaaad
b1011100 aaaae
b10011001 aaaaf
b1011101 aaaag
b10000000 aaaah
b100001011100110 aaaai
b11000110 aaaal
1aaaam

#110000
0aaaam

#110500
b11000110 aaaaa
b10010101 aaaab
b1001000 aaaac
b1111111 aaaad
b1110011 aaaae
b1011100 aaaaf
b10011001 aaaag
b1011101 aaaah
b100001011011100 aaaai
b1011001 aaaal
1aaaam

#111000
0aaaam

#111500
b1011001 aaaaa
b11000110 aaaab
b10010101 aaaac
b1001000 aaaad
b1111111 aaaae
b1110011 aaaaf
b1011100 aaaag
b10011001 aaaah
b100010110010110 aaaai
b10010100 aaaal
1aaaam

#112000
0aaaam

#112500
b10010100 aaaaa
b1011001 aaaab
b11000110 aaaac
b10010101 aaaad
b1001000 aaaae
b1111111 aaaaf
b1110011 aaaag
b1011100 aaaah
b100101001100111 aaaai
b1111111 aaaal
1aaaam

#113000
0aaaam

#113500
b1111111 aaaaa
b10010100 aaaab
b1011001 aaaac
b11000110 aaaad
b10010101 aaaae
b1001000 aaaaf
b1111111 aaaag
b1110011 aaaah
b100111001111011 aaaai
b10101111 aaaal
1aaaam

#114000
0aaaam

#114500
b10101111 aaaaa
b1111111 aaaab
b10010100 aaaac
b1011001 aaaad
b11000110 aaaae
b10010101 aaaaf
b1001000 aaaag
b1111111 aaaah
b101000100101011 aaaai
b10010100 aaaal
1aaaam

#115000
0aaaam

#115500
b10010100 aaaaa
b10101111 aaaab
b1111111 aaaac
b10010100 aaaad
b1011001 aaaae
b11000110 aaaaf
b10010101 aaaag
b1001000 aaaah
b101000111010111 aaaai
b10011001 aaaal
1aaaam

#116000
0aaaam

#116500
b10011001 aaaaa
b10010100 aaaab
b10101111 aaaac
b1111111 aaaad
b10010100 aaaae
b1011001 aaaaf
b11000110 aaaag
b10010101 aaaah
b101001100111110 aaaai
b10110110 aaaal
1aaaam

#117000
0aaaam

#117500
b10110110 aaaaa
b10011001 aaaab
b10010100 aaaac
b10101111 aaaad
b1111111 aaaae
b10010100 aaaaf
b1011001 aaaag
b11000110 aaaah
b101011001001100 aaaai
b1101100 aaaal
1aaaam

#118000
0aaaam

#118500
b1101100 aaaaa
b10110110 aaaab
b10011001 aaaac
b10010100 aaaad
b10101111 aaaae
b1111111 aaaaf
b10010100 aaaag
b1011001 aaaah
b101100011001010 aaaai
b111000 aaaal
1aaaam

#119000
0aaaam

